

EVENT   1
 PAGE   1
  0()



EVENT   2
 PAGE   1
  281(1)
  250(bytes(0x04,0x08,0x6f,0x3a,0x0c,0x52,0x50,0x47,0x3a,0x3a,0x53,0x45,0x08,0x3a,0x0a,0x40,0x6e,0x61,0x6d,0x65,0x49,0x22,0x09,0x4d,0x6f,0x76,0x65,0x06,0x3a,0x06,0x45,0x54,0x3a,0x0b,0x40,0x70,0x69,0x74,0x63,0x68,0x69,0x69,0x3a,0x0c,0x40,0x76,0x6f,0x6c,0x75,0x6d,0x65,0x69,0x55))
  TeleportPlayer(0,141,10,6,0,0)
  216(0)
  0()



EVENT   3
 PAGE   1
  281(1)
  250(bytes(0x04,0x08,0x6f,0x3a,0x0c,0x52,0x50,0x47,0x3a,0x3a,0x53,0x45,0x08,0x3a,0x0a,0x40,0x6e,0x61,0x6d,0x65,0x49,0x22,0x09,0x4d,0x6f,0x76,0x65,0x06,0x3a,0x06,0x45,0x54,0x3a,0x0b,0x40,0x70,0x69,0x74,0x63,0x68,0x69,0x69,0x3a,0x0c,0x40,0x76,0x6f,0x6c,0x75,0x6d,0x65,0x69,0x55))
  TeleportPlayer(0,141,21,9,0,0)
  0()



EVENT   4
 PAGE   1
  281(1)
  250(bytes(0x04,0x08,0x6f,0x3a,0x0c,0x52,0x50,0x47,0x3a,0x3a,0x53,0x45,0x08,0x3a,0x0a,0x40,0x6e,0x61,0x6d,0x65,0x49,0x22,0x09,0x4d,0x6f,0x76,0x65,0x06,0x3a,0x06,0x45,0x54,0x3a,0x0b,0x40,0x70,0x69,0x74,0x63,0x68,0x69,0x69,0x3a,0x0c,0x40,0x76,0x6f,0x6c,0x75,0x6d,0x65,0x69,0x55))
  TeleportPlayer(0,141,30,13,0,0)
  0()



EVENT   5
 PAGE   1
  281(1)
  250(bytes(0x04,0x08,0x6f,0x3a,0x0c,0x52,0x50,0x47,0x3a,0x3a,0x53,0x45,0x08,0x3a,0x0a,0x40,0x6e,0x61,0x6d,0x65,0x49,0x22,0x09,0x4d,0x6f,0x76,0x65,0x06,0x3a,0x06,0x45,0x54,0x3a,0x0b,0x40,0x70,0x69,0x74,0x63,0x68,0x69,0x69,0x3a,0x0c,0x40,0x76,0x6f,0x6c,0x75,0x6d,0x65,0x69,0x55))
  TeleportPlayer(0,141,31,22,0,0)
  0()



EVENT   6
 PAGE   1
  281(1)
  250(bytes(0x04,0x08,0x6f,0x3a,0x0c,0x52,0x50,0x47,0x3a,0x3a,0x53,0x45,0x08,0x3a,0x0a,0x40,0x6e,0x61,0x6d,0x65,0x49,0x22,0x09,0x4d,0x6f,0x76,0x65,0x06,0x3a,0x06,0x45,0x54,0x3a,0x0b,0x40,0x70,0x69,0x74,0x63,0x68,0x69,0x69,0x3a,0x0c,0x40,0x76,0x6f,0x6c,0x75,0x6d,0x65,0x69,0x55))
  TeleportPlayer(0,141,16,29,0,0)
  0()



EVENT   7
 PAGE   1
  If(0,2060,1)
   281(1)
   250(bytes(0x04,0x08,0x6f,0x3a,0x0c,0x52,0x50,0x47,0x3a,0x3a,0x53,0x45,0x08,0x3a,0x0a,0x40,0x6e,0x61,0x6d,0x65,0x49,0x22,0x09,0x4d,0x6f,0x76,0x65,0x06,0x3a,0x06,0x45,0x54,0x3a,0x0b,0x40,0x70,0x69,0x74,0x63,0x68,0x69,0x69,0x3a,0x0c,0x40,0x76,0x6f,0x6c,0x75,0x6d,0x65,0x69,0x55))
   TeleportPlayer(0,141,52,20,0,0)
   0()
  Else()
   ShowMessageFace("",0,0,2,1)
   ShowMessage("I can't leave my friends behind!")
   205(-1,bytes(0x04,0x08,0x6f,0x3a,0x13,0x52,0x50,0x47,0x3a,0x3a,0x4d,0x6f,0x76,0x65,0x52,0x6f,0x75,0x74,0x65,0x09,0x3a,0x0c,0x40,0x72,0x65,0x70,0x65,0x61,0x74,0x46,0x3a,0x0f,0x40,0x73,0x6b,0x69,0x70,0x70,0x61,0x62,0x6c,0x65,0x46,0x3a,0x0a,0x40,0x77,0x61,0x69,0x74,0x54,0x3a,0x0a,0x40,0x6c,0x69,0x73,0x74,0x5b,0x07,0x6f,0x3a,0x15,0x52,0x50,0x47,0x3a,0x3a,0x4d,0x6f,0x76,0x65,0x43,0x6f,0x6d,0x6d,0x61,0x6e,0x64,0x07,0x3a,0x0a,0x40,0x63,0x6f,0x64,0x65,0x69,0x09,0x3a,0x10,0x40,0x70,0x61,0x72,0x61,0x6d,0x65,0x74,0x65,0x72,0x73,0x5b,0x00,0x6f,0x3b,0x0a,0x07,0x3b,0x0b,0x69,0x00,0x3b,0x0c,0x5b,0x00))
   EndEventProcessing()
   0()
  EndIf()
  0()



EVENT   8
 PAGE   1
  250(bytes(0x04,0x08,0x6f,0x3a,0x0c,0x52,0x50,0x47,0x3a,0x3a,0x53,0x45,0x08,0x3a,0x0a,0x40,0x6e,0x61,0x6d,0x65,0x49,0x22,0x09,0x4d,0x6f,0x76,0x65,0x06,0x3a,0x06,0x45,0x54,0x3a,0x0b,0x40,0x70,0x69,0x74,0x63,0x68,0x69,0x69,0x3a,0x0c,0x40,0x76,0x6f,0x6c,0x75,0x6d,0x65,0x69,0x55))
  TeleportPlayer(0,142,51,33,0,0)
  0()



EVENT   9
 PAGE   1
  250(bytes(0x04,0x08,0x6f,0x3a,0x0c,0x52,0x50,0x47,0x3a,0x3a,0x53,0x45,0x08,0x3a,0x0a,0x40,0x6e,0x61,0x6d,0x65,0x49,0x22,0x09,0x4d,0x6f,0x76,0x65,0x06,0x3a,0x06,0x45,0x54,0x3a,0x0b,0x40,0x70,0x69,0x74,0x63,0x68,0x69,0x69,0x3a,0x0c,0x40,0x76,0x6f,0x6c,0x75,0x6d,0x65,0x69,0x55))
  TeleportPlayer(0,142,52,33,0,0)
  0()



EVENT   10
 PAGE   1
  250(bytes(0x04,0x08,0x6f,0x3a,0x0c,0x52,0x50,0x47,0x3a,0x3a,0x53,0x45,0x08,0x3a,0x0a,0x40,0x6e,0x61,0x6d,0x65,0x49,0x22,0x09,0x4d,0x6f,0x76,0x65,0x06,0x3a,0x06,0x45,0x54,0x3a,0x0b,0x40,0x70,0x69,0x74,0x63,0x68,0x69,0x69,0x3a,0x0c,0x40,0x76,0x6f,0x6c,0x75,0x6d,0x65,0x69,0x55))
  TeleportPlayer(0,142,51,6,0,0)
  0()



EVENT   11
 PAGE   1
  250(bytes(0x04,0x08,0x6f,0x3a,0x0c,0x52,0x50,0x47,0x3a,0x3a,0x53,0x45,0x08,0x3a,0x0a,0x40,0x6e,0x61,0x6d,0x65,0x49,0x22,0x09,0x4d,0x6f,0x76,0x65,0x06,0x3a,0x06,0x45,0x54,0x3a,0x0b,0x40,0x70,0x69,0x74,0x63,0x68,0x69,0x69,0x3a,0x0c,0x40,0x76,0x6f,0x6c,0x75,0x6d,0x65,0x69,0x55))
  TeleportPlayer(0,142,52,6,0,0)
  0()



EVENT   14
 PAGE   1
  ShowMessageFace("",0,0,2,1)
  ShowMessage("\\n<Shopkeeper>Welcome! We have a fine selection of weaponry.")
  Shop(1,8,0,0,false)
  605(1,58,0,0)
  605(1,209,0,0)
  605(1,365,0,0)
  605(1,402,0,0)
  605(1,476,0,0)
  605(1,518,0,0)
  605(1,556,0,0)
  605(1,594,0,0)
  0()



EVENT   12
 PAGE   1
  ShowMessageFace("",0,0,2,1)
  ShowMessage("\\n<Blacksmith Mermaid>I'm a mermaid blacksmith. I can make equipment imbued with the elegant power of water magic.")
  355("call_synthesize(8)")
  0()



EVENT   17
 PAGE   1
  ChangeSelfSwitch("A",0)
  ChangeSwitch(113,113,0)
  ChangeSwitch(212,212,0)
  314(0,0)
  ShowMessageFace("ruka_fc1",0,0,2,1)
  ShowMessage("\\n<Luka>Ugh...")
  ShowMessageFace("ruka_fc1",0,0,2,2)
  ShowMessage("\\n<Luka>Where am I?")
  ShowMessageFace("",0,0,2,3)
  ShowMessage("I... remember falling from the ship and getting swallowed by the ocean. But what happened after that?")
  205(16,bytes(0x04,0x08,0x6f,0x3a,0x13,0x52,0x50,0x47,0x3a,0x3a,0x4d,0x6f,0x76,0x65,0x52,0x6f,0x75,0x74,0x65,0x09,0x3a,0x0c,0x40,0x72,0x65,0x70,0x65,0x61,0x74,0x46,0x3a,0x0f,0x40,0x73,0x6b,0x69,0x70,0x70,0x61,0x62,0x6c,0x65,0x46,0x3a,0x0a,0x40,0x77,0x61,0x69,0x74,0x54,0x3a,0x0a,0x40,0x6c,0x69,0x73,0x74,0x5b,0x0d,0x6f,0x3a,0x15,0x52,0x50,0x47,0x3a,0x3a,0x4d,0x6f,0x76,0x65,0x43,0x6f,0x6d,0x6d,0x61,0x6e,0x64,0x07,0x3a,0x0a,0x40,0x63,0x6f,0x64,0x65,0x69,0x22,0x3a,0x10,0x40,0x70,0x61,0x72,0x61,0x6d,0x65,0x74,0x65,0x72,0x73,0x5b,0x06,0x69,0x09,0x6f,0x3b,0x0a,0x07,0x3b,0x0b,0x69,0x08,0x3b,0x0c,0x5b,0x00,0x6f,0x3b,0x0a,0x07,0x3b,0x0b,0x69,0x08,0x3b,0x0c,0x5b,0x00,0x6f,0x3b,0x0a,0x07,0x3b,0x0b,0x69,0x08,0x3b,0x0c,0x5b,0x00,0x6f,0x3b,0x0a,0x07,0x3b,0x0b,0x69,0x08,0x3b,0x0c,0x5b,0x00,0x6f,0x3b,0x0a,0x07,0x3b,0x0b,0x69,0x08,0x3b,0x0c,0x5b,0x00,0x6f,0x3b,0x0a,0x07,0x3b,0x0b,0x69,0x08,0x3b,0x0c,0x5b,0x00,0x6f,0x3b,0x0a,0x07,0x3b,0x0b,0x69,0x00,0x3b,0x0c,0x5b,0x00))
  ShowMessageFace("",0,0,2,4)
  ShowMessage("\\n<Mermaid>Oh my, you've woken up? Don't worry, we healed all of your injuries.")
  ShowMessageFace("",0,0,2,5)
  ShowMessage("\\n<Mermaid>If you're up for it, then please come in here. Your companions woke up before you and have been waiting.")
  205(16,bytes(0x04,0x08,0x6f,0x3a,0x13,0x52,0x50,0x47,0x3a,0x3a,0x4d,0x6f,0x76,0x65,0x52,0x6f,0x75,0x74,0x65,0x09,0x3a,0x0c,0x40,0x72,0x65,0x70,0x65,0x61,0x74,0x46,0x3a,0x0f,0x40,0x73,0x6b,0x69,0x70,0x70,0x61,0x62,0x6c,0x65,0x46,0x3a,0x0a,0x40,0x77,0x61,0x69,0x74,0x46,0x3a,0x0a,0x40,0x6c,0x69,0x73,0x74,0x5b,0x0f,0x6f,0x3a,0x15,0x52,0x50,0x47,0x3a,0x3a,0x4d,0x6f,0x76,0x65,0x43,0x6f,0x6d,0x6d,0x61,0x6e,0x64,0x07,0x3a,0x0a,0x40,0x63,0x6f,0x64,0x65,0x69,0x22,0x3a,0x10,0x40,0x70,0x61,0x72,0x61,0x6d,0x65,0x74,0x65,0x72,0x73,0x5b,0x06,0x69,0x09,0x6f,0x3b,0x0a,0x07,0x3b,0x0b,0x69,0x07,0x3b,0x0c,0x5b,0x00,0x6f,0x3b,0x0a,0x07,0x3b,0x0b,0x69,0x07,0x3b,0x0c,0x5b,0x00,0x6f,0x3b,0x0a,0x07,0x3b,0x0b,0x69,0x07,0x3b,0x0c,0x5b,0x00,0x6f,0x3b,0x0a,0x07,0x3b,0x0b,0x69,0x07,0x3b,0x0c,0x5b,0x00,0x6f,0x3b,0x0a,0x07,0x3b,0x0b,0x69,0x07,0x3b,0x0c,0x5b,0x00,0x6f,0x3b,0x0a,0x07,0x3b,0x0b,0x69,0x07,0x3b,0x0c,0x5b,0x00,0x6f,0x3b,0x0a,0x07,0x3b,0x0b,0x69,0x15,0x3b,0x0c,0x5b,0x00,0x6f,0x3b,0x0a,0x07,0x3b,0x0b,0x69,0x22,0x3b,0x0c,0x5b,0x06,0x69,0x08,0x6f,0x3b,0x0a,0x07,0x3b,0x0b,0x69,0x00,0x3b,0x0c,0x5b,0x00))
  ShowMessageFace("ruka_fc1",0,0,2,6)
  ShowMessage("\\n<Luka>I guess we survived. Actually, it looks more like we were rescued.")
  0()
 PAGE   2
  // condition: self-switch A is ON
  0()



EVENT   20
 PAGE   1
  // condition: switch 1079 is ON
  // condition: switch 2060 is ON
  ShowMessageFace("nuruko_fc1",0,0,2,1)
  ShowMessage("\\n<Nuruko>Kyuuu...")
  ShowMessageFace("",0,0,2,2)
  ShowMessage("She seems really worried about Sonya.")
  0()



EVENT   16
 PAGE   1
  If(0,2060,0)
   ShowMessageFace("",0,0,2,1)
   ShowMessage("\\n<Mermaid>Your ship sinking was quite the disaster. Still, we should be thankful that nobody died.")
   EndEventProcessing()
   0()
  EndIf()
  If(1,1016,0,0,0)
   If(2,"A",0)
    JumpToLabel("質問")
    0()
   EndIf()
   ChangeSelfSwitch("A",0)
   ShowMessageFace("",0,0,2,2)
   ShowMessage("\\n<Mermaid>You look like skilled adventurers. As it happens, we could use your help. It's a bit of a long story, but will you listen?")
   If(4,72,0)
    ShowMessageFace("phoenix_fc1",1,0,2,3)
    ShowMessage("\\n<Mini>Sure, whatever you want!")
    0()
   EndIf()
   ShowMessageFace("",0,0,2,4)
   ShowMessage("\\n<Mermaid>Recently, a worrying number of mermaids and fishermen have been disappearing. It all started a few months ago.")
   ShowMessageFace("",0,0,2,5)
   ShowMessage("\\n<Mermaid>A mermaid called Meia went to the Undersea Temple on an errand, but completely vanished on her way there.")
   ShowMessageFace("ruka_fc1",0,0,2,6)
   ShowMessage("\\n<Luka>Um, the Undersea Temple is...?")
   If(0,4,0)
    ShowMessageFace("alice_fc5",0,0,2,7)
    ShowMessage("\\n<Alice>It's the temple and court of the Queen of the Southern Seas who governs the southern half of world's oceans. The temple is close to Port Natalia, and, as its name implies, it's at the bottom of the sea.")
    0()
   EndIf()
   If(0,5,0)
    ShowMessageFace("iriasu_fc4",2,0,2,8)
    ShowMessage("\\n<Ilias>It is the heathen shrine and court of the self-proclaimed Queen of the Southern Seas, as well as a den of sea monsters. I believe it lies on the seafloor somewhere near Port Natalia.")
    0()
   EndIf()
   ShowMessageFace("",0,0,2,9)
   ShowMessage("\\n<Mermaid>Several mermaids went to the Temple to look for Meia, but they all disappeared as well. So far, nearly 20 mermaids have gone missing.")
   If(4,68,0)
    ShowMessageFace("dragonp_fc1",2,0,2,10)
    ShowMessage("\\n<Papi>20 of them have disappeared? That's scary...")
    0()
   EndIf()
   ShowMessageFace("",0,0,2,11)
   ShowMessage("\\n<Mermaid>Furthermore, fishing boats have started to disappear as well. More than 50 fishermen have vanished.")
   If(0,4,0)
    ShowMessageFace("alice_fc5",0,0,2,12)
    ShowMessage("\\n<Alice>That certainly can't be just a coincidence. Something must be going on out there.")
    ShowMessageFace("alice_fc5",3,0,2,13)
    ShowMessage("\\n<Alice>If no one's heard anything from the Queen of the Southern Seas... It's also extremely fishy for everyone who goes to visit the Temple to vanish.")
    0()
   EndIf()
   If(0,5,0)
    ShowMessageFace("iriasu_fc4",2,0,2,14)
    ShowMessage("\\n<Ilias>I can't imagine that such supposed accidents could just happen to overlap. Something wicked must be happening under the ocean.")
    ShowMessageFace("iriasu_fc4",2,0,2,15)
    ShowMessage("\\n<Ilias>It's just my intuition, but the Undersea Temple sounds suspicious. When one considers that all mermaids who approach it disappear, it practically reeks of villainy.")
    0()
   EndIf()
   DefineLabel("質問")
   ShowMessageFace("",0,0,2,16)
   ShowMessage("\\n<Mermaid>Exactly. The key to this incident must be in the Undersea Temple. But even just getting close to it is dangerous so we don't really know what's going on.")
   ShowMessageFace("",0,0,2,17)
   ShowMessage("\\n<Mermaid>But you look like capable travelers. Will you please go to the Undersea Temple and investigate?")
   ShowChoices(strings("Yes","No"),2)
   IfPlayerPicksChoice(0,null)
    ChangeVariable(1016,1016,0,0,1)
    ShowMessageFace("ruka_fc1",0,0,2,18)
    ShowMessage("\\n<Luka>Understood. Let's go find out what's happening!")
    If(4,62,0)
     ShowMessageFace("gob_fc1",0,0,2,19)
     ShowMessage("\\n<Gob>We can't leave people in trouble!")
     0()
    EndIf()
    If(0,4,0)
     ShowMessageFace("alice_fc5",0,0,2,20)
     ShowMessage("\\n<Alice>You're right, we can't just leave this as is. Besides, I have to meet the Queen of the Southern Seas and prepare some countermeasures.")
     ShowMessageFace("alice_fc5",3,0,2,21)
     ShowMessage("\\n<Alice>That said, I don't think she's the type to turn a blind eye to all this. Could something have happened to the her?")
     0()
    EndIf()
    If(0,5,0)
     ShowMessageFace("iriasu_fc4",2,0,2,22)
     ShowMessage("\\n<Ilias>I care naught about mermaids, but we cannot abandon the fishermen. Let us venture to the Undersea Temple.")
     ShowMessageFace("iriasu_fc4",2,0,2,23)
     ShowMessage("\\n<Ilias>I think the most likely cause is the Queen of the Southern Seas. Perhaps she's finally revealed her true nature as a cruel monster?")
     0()
    EndIf()
    ShowMessageFace("ruka_fc1",0,0,2,24)
    ShowMessage("\\n<Luka>But isn't the Undersea Temple under the sea? Most of us can't breathe underwater.")
    If(4,79,0)
     ShowMessageFace("nuruko_fc1",0,0,2,25)
     ShowMessage("\\n<Nuruko>Kyuu...")
     0()
    EndIf()
    ShowMessageFace("",0,0,2,26)
    ShowMessage("\\n<Mermaid>That's no problem at all. If you use this item, you'll be guided right to the Temple's entrance.")
    250(bytes(0x04,0x08,0x6f,0x3a,0x0c,0x52,0x50,0x47,0x3a,0x3a,0x53,0x45,0x08,0x3a,0x0a,0x40,0x6e,0x61,0x6d,0x65,0x49,0x22,0x0a,0x49,0x74,0x65,0x6d,0x31,0x06,0x3a,0x06,0x45,0x54,0x3a,0x0b,0x40,0x70,0x69,0x74,0x63,0x68,0x69,0x69,0x3a,0x0c,0x40,0x76,0x6f,0x6c,0x75,0x6d,0x65,0x69,0x55))
    ChangeInventory_Item(514,0,0,1)
    If(4,66,0)
     ShowMessageFace("vgirl_fc1",0,0,2,27)
     ShowMessage("\\n<Vanilla>Ohh, that looks valuable!")
     0()
    EndIf()
    ShowMessageFace("",0,0,2,28)
    ShowMessage("\\n<Mermaid>Please raise this gem on Natalia Coast's beach, in a place where magic gathers and gives off light.")
    ShowMessageFace("",0,0,2,29)
    ShowMessage("\\n<Mermaid>Natalia Coast is an area west of here. If you go south after seeing a beach, you should get there quickly.")
    ShowMessageFace("ruka_fc1",0,0,2,30)
    ShowMessage("\\n<Luka>I understand. Don't worry, we'll go!")
    If(4,64,0)
     ShowMessageFace("pramia_fc1",0,0,2,31)
     ShowMessage("\\n<Teeny>And then we, too, will disappear... J-just joking!")
     If(4,68,0)
      ShowMessageFace("dragonp_fc1",2,0,2,32)
      ShowMessage("\\n<Papi>I need to send a letter to my parents, just in case.")
      0()
     EndIf()
     0()
    EndIf()
    ShowMessageFace("",0,0,2,33)
    ShowMessage("\\n<Mermaid>Well then, please take care. I am grateful for your aid from the bottom of my heart.")
    If(4,79,0)
     ShowMessageFace("nuruko_fc1",0,0,2,34)
     ShowMessage("\\n<Nuruko>Kyu!")
     0()
    EndIf()
    EndEventProcessing()
    0()
   IfPlayerPicksChoice(1,null)
    ShowMessageFace("",0,0,2,35)
    ShowMessage("\\n<Mermaid>Oh... It's very dangerous, so I won't demand that you help. Ahh, what's going to happen to this town...")
    EndEventProcessing()
    0()
   404()
   0()
  EndIf()
  If(1,1016,0,1,0)
   ShowMessageFace("",0,0,2,36)
   ShowMessage("\\n<Mermaid>Raise the Ball of Guidance on Natalia Coast's beach, at a place where magic gathers and gives off light. ")
   ShowMessageFace("",0,0,2,37)
   ShowMessage("\\n<Mermaid>Natalia Coast is an area west of here. If you go south after seeing a beach, you should get there quickly.")
   ShowMessageFace("",0,0,2,38)
   ShowMessage("\\n<Mermaid>Please take care. I am grateful for your aid from the bottom of my heart!")
   EndEventProcessing()
   0()
  EndIf()
  If(1,1016,0,2,0)
   ChangeVariable(1016,1016,0,0,3)
   ShowMessageFace("",0,0,2,39)
   ShowMessage("\\n<Mermaid>Thank you so much for your help! Meia already told me everything.")
   ShowMessageFace("",0,0,2,40)
   ShowMessage("\\n<Mermaid>For such a powerful monster to exist... Terrifying. Still, the crisis is over, at least for the time being.")
   ShowMessageFace("",0,0,2,41)
   ShowMessage("\\n<Mermaid>Meia can't be blamed for what she did, of course. She, too, was one of the victims.")
   If(0,6,0)
    ShowMessageFace("sonia_fc2",2,0,2,42)
    ShowMessage("\\n<Sonya>And what about her harem of boys?")
    ShowMessageFace("",0,0,2,43)
    ShowMessage("\\n<Mermaid>......")
    ShowMessageFace("",0,0,2,44)
    ShowMessage("The mermaid averts her eyes with a troubled expression.")
    0()
   EndIf()
   ShowMessageFace("",0,0,2,45)
   ShowMessage("\\n<Mermaid>In any case, you all have the mermaids' gratitude. Please, accept these goods as thanks.")
   250(bytes(0x04,0x08,0x6f,0x3a,0x0c,0x52,0x50,0x47,0x3a,0x3a,0x53,0x45,0x08,0x3a,0x0a,0x40,0x6e,0x61,0x6d,0x65,0x49,0x22,0x0a,0x49,0x74,0x65,0x6d,0x31,0x06,0x3a,0x06,0x45,0x54,0x3a,0x0b,0x40,0x70,0x69,0x74,0x63,0x68,0x69,0x69,0x3a,0x0c,0x40,0x76,0x6f,0x6c,0x75,0x6d,0x65,0x69,0x55))
   ChangeInventory_Item(9,0,0,1)
   ChangeInventoryWeapon(481,0,0,1,false)
   ChangeInventoryArmor(1740,0,0,1,false)
   If(4,66,0)
    ShowMessageFace("vgirl_fc1",0,0,2,46)
    ShowMessage("\\n<Vanilla>Kukuku, we got some nice stuff! I'll put it all up for sale in my store... or not.")
    If(4,64,0)
     ShowMessageFace("pramia_fc1",0,0,2,47)
     ShowMessage("\\n<Teeny>Vanilla, the things we find belong to everyone in the party...")
     0()
    EndIf()
    0()
   EndIf()
   ShowMessageFace("",0,0,2,48)
   ShowMessage("\\n<Mermaid>Please, speak with Meia as well. She feels responsible and has holed herself up in her house.")
   ShowMessageFace("ruka_fc1",0,0,2,49)
   ShowMessage("\\n<Luka>No matter how brainwashed she was, she probably feels pretty guilty. It must be hard for her to show herself to the townspeople now.")
   If(4,72,0)
    ShowMessageFace("phoenix_fc1",3,0,2,50)
    ShowMessage("\\n<Mini>Well, she is a pervert, right?")
    0()
   EndIf()
   ShowMessageFace("",0,0,2,51)
   ShowMessage("\\n<Mermaid>We're all really thankful. All of us wish you luck in your adventure.")
   EndEventProcessing()
   0()
  EndIf()
  If(1,1016,0,3,0)
   If(4,118,0)
    ShowMessageFace("meia_fc1",3,0,2,52)
    ShowMessage("\\n<Meia>I'm really sorry. Because of me, everyone was terrified...")
    ShowMessageFace("",0,0,2,53)
    ShowMessage("\\n<Mermaid>No, you aren't responsible for that. Sexual preferences are your right, as long as they don't trouble people.")
    ShowMessageFace("meia_fc1",0,0,2,54)
    ShowMessage("\\n<Meia>I see... My sexual preferences are my right, so I shouldn't be so worried...")
    ShowMessageFace("",0,0,2,55)
    ShowMessage("\\n<Mermaid>As long. As they. Don't. Trouble. People.")
    0()
   Else()
    ShowMessageFace("",0,0,2,56)
    ShowMessage("\\n<Mermaid>We're all really thankful. All of us wish you luck in your adventure.")
    0()
   EndIf()
   EndEventProcessing()
   0()
  EndIf()
  0()



EVENT   24
 PAGE   1
  281(1)
  250(bytes(0x04,0x08,0x6f,0x3a,0x0c,0x52,0x50,0x47,0x3a,0x3a,0x53,0x45,0x08,0x3a,0x0a,0x40,0x6e,0x61,0x6d,0x65,0x49,0x22,0x09,0x4d,0x6f,0x76,0x65,0x06,0x3a,0x06,0x45,0x54,0x3a,0x0b,0x40,0x70,0x69,0x74,0x63,0x68,0x69,0x69,0x3a,0x0c,0x40,0x76,0x6f,0x6c,0x75,0x6d,0x65,0x69,0x55))
  TeleportPlayer(0,141,50,12,0,0)
  0()



EVENT   21
 PAGE   1
  // condition: switch 2060 is ON
  // condition: switch 1041 is ON
  ShowMessageFace("stein_fc2",0,0,2,1)
  ShowMessage("\\n<Promestein>I've dissected the corpses of drowned people before, but this was my first time drowning.")
  ShowMessageFace("stein_fc2",0,0,2,2)
  ShowMessage("\\n<Promestein>Still, I can't believe Zion showed up. Of all the Seraphs, she's the most proficient at single combat.")
  If(0,5,0)
   ShowMessageFace("stein_fc2",0,0,2,3)
   ShowMessage("\\n<Promestein>But, according to Ilias, Zion shouldn't even exist here...")
   ShowMessageFace("stein_fc2",0,0,2,4)
   ShowMessage("\\n<Promestein>If that's the case, she must have come from another world too.")
   0()
  EndIf()
  0()



EVENT   19
 PAGE   1
  // condition: switch 4 is ON
  // condition: switch 2060 is ON
  ShowMessageFace("alice_fc5",1,0,2,1)
  ShowMessage("\\n<Alice>You finally woke up? After being thrown into the sea, we were rescued by mermaids.")
  ShowMessageFace("alice_fc5",1,0,2,2)
  ShowMessage("\\n<Alice>This is Port Natalia, the town we were sailing to. Despite all the trouble, we actually managed to cross the sea.")
  ShowMessageFace("ruka_fc1",0,0,2,3)
  ShowMessage("\\n<Luka>I wonder if we should consider ourselves lucky or cursed after that... By the way, how is everyone else?")
  ShowMessageFace("alice_fc5",1,0,2,4)
  ShowMessage("\\n<Alice>Everyone's fine, including the sailors. You should thank the mermaids.")
  ShowMessageFace("ruka_fc1",0,0,2,5)
  ShowMessage("\\n<Luka>What about Morrigan and that angel who suddenly attacked?")
  ShowMessageFace("alice_fc5",3,0,2,6)
  ShowMessage("\\n<Alice>Who knows. I couldn't exactly keep an eye on them. Are they enemies, or something else...")
  ShowMessageFace("ruka_fc1",0,0,2,7)
  ShowMessage("\\n<Luka>Morrigan said that they came from another world, didn't she? Could it be that they can travel between worlds, like my father and I?")
  ShowMessageFace("alice_fc5",0,0,2,8)
  ShowMessage("\\n<Alice>I don't think people who can jump between realities are that common. There must be some way of crossing over other than opening that door.")
  If(0,1041,0)
   ShowMessageFace("alice_fc5",0,0,2,9)
   ShowMessage("\\n<Alice>Promestein was blown into Tartarus because of a failed experiment. Maybe someone figured out a more reliable way to travel there?")
   0()
  EndIf()
  ShowMessageFace("alice_fc5",0,0,2,10)
  ShowMessage("\\n<Alice>In any case, monster or angel, we need to defeat whoever stands in our way.")
  If(0,6,0)
   ShowMessageFace("sonia_fc2",3,0,2,11)
   ShowMessage("\\n<Sonya>Mmm... Where am I...?")
   ShowMessageFace("alice_fc5",0,0,2,12)
   ShowMessage("\\n<Alice>Geez, you finally woke up. Well then, let's go!")
   0()
  Else()
   ShowMessageFace("alice_fc5",1,0,2,13)
   ShowMessage("\\n<Alice>Well, let's go!")
   0()
  EndIf()
  221()
  ShowMessageFace("",0,0,2,14)
  ShowMessage("Preparations for our departure are complete! Now, let's continue our adventure on the Sentora Continent!")
  ChangeSwitch(100,100,1)
  ChangeSwitch(2060,2060,1)
  216(0)
  281(1)
  TeleportPlayer(0,142,6,55,2,2)
  222()
  355("gain_medal(17)")
  ShowMessageFace("alice_fc5",0,0,2,15)
  ShowMessage("\\n<Alice>Okay... First, we should visit San Ilia. The people in that city might have information on both your father and the White Rabbit.")
  ShowMessageFace("alice_fc5",3,0,2,16)
  ShowMessage("\\n<Alice>San Ilia, the world's largest theocracy... It's not really a place I want to go to, but we can't avoid it.")
  ShowMessageFace("",0,0,2,17)
  ShowMessage("\\n<Mermaid>Um... before you go, I have a request. Port Natalia is currently facing a huge mystery.")
  ShowMessageFace("alice_fc5",0,0,2,18)
  ShowMessage("\\n<Alice>Hm... We can't just say no after they saved our lives. Luka, how about we at least hear them out?")
  0()
 PAGE   2
  // condition: switch 5 is ON
  // condition: switch 2060 is ON
  ShowMessageFace("iriasu_fc4",2,0,2,1)
  ShowMessage("\\n<Ilias>So, you finally awaken. After we were thrown into the sea, mermaids saved us.")
  ShowMessageFace("iriasu_fc4",2,0,2,2)
  ShowMessage("\\n<Ilias>To have been saved by monsters... I'm not sure I'll ever live this down.")
  ShowMessageFace("iriasu_fc4",0,0,2,3)
  ShowMessage("\\n<Ilias>Regardless, this is Port Natalia. Despite a few hitches, we have arrived.")
  ShowMessageFace("ruka_fc1",0,0,2,4)
  ShowMessage("\\n<Luka>I wonder if we should consider ourselves lucky or cursed after that... By the way, how is everyone else?")
  ShowMessageFace("iriasu_fc4",0,0,2,5)
  ShowMessage("\\n<Ilias>Thanks to the mermaids, nobody died, including the sailors. When I destroy them, I shall grant these mermaids a painless death.")
  ShowMessageFace("ruka_fc1",0,0,2,6)
  ShowMessage("\\n<Luka>What about Morrigan and that angel who suddenly attacked?")
  ShowMessageFace("iriasu_fc4",2,0,2,7)
  ShowMessage("\\n<Ilias>I couldn't see what happened to them after we fell in the water. Actually, I can't swim, so...")
  ShowMessageFace("iriasu_fc4",2,0,2,8)
  ShowMessage("\\n<Ilias>That said, I don't know of a seraph named Zion. She is, without a doubt, an entity from another world.")
  ShowMessageFace("iriasu_fc4",2,0,2,9)
  ShowMessage("\\n<Ilias>The same mostly goes for that succubus, Morrigan. She has already been killed in this world. Perhaps she came from another reality's past.")
  ShowMessageFace("ruka_fc1",0,0,2,10)
  ShowMessage("\\n<Luka>Morrigan said that they came from another world, didn't she? Could it be that they can travel between worlds, like my father and I?")
  ShowMessageFace("iriasu_fc4",2,0,2,11)
  ShowMessage("\\n<Ilias>I refuse to accept that there are so many people who can do that when I can't. Instead, I suspect there's a different way to travel between worlds besides that door.")
  If(0,1041,0)
   ShowMessageFace("iriasu_fc4",2,0,2,12)
   ShowMessage("\\n<Ilias>Perhaps someone replicated the failed experiment that blew Promestein into Tartarus, but on purpose.")
   0()
  EndIf()
  ShowMessageFace("iriasu_fc4",0,0,2,13)
  ShowMessage("\\n<Ilias>In any case, we shall eliminate anyone standing in our way, even angels. For them to oppose me is unthinkable.")
  If(0,6,0)
   ShowMessageFace("sonia_fc2",3,0,2,14)
   ShowMessage("\\n<Sonya>Mmm... Where am I...?")
   ShowMessageFace("iriasu_fc4",0,0,2,15)
   ShowMessage("\\n<Ilias>Good grief, you've finally woken up. Well then, let's go!")
   0()
  Else()
   0()
  EndIf()
  221()
  ShowMessageFace("",0,0,2,16)
  ShowMessage("Preparations for our departure are complete! Now, let's continue our adventure on the Sentora Continent!")
  ChangeSwitch(100,100,1)
  ChangeSwitch(2060,2060,1)
  216(0)
  281(1)
  TeleportPlayer(0,142,6,55,2,2)
  222()
  355("gain_medal(17)")
  ShowMessageFace("iriasu_fc4",0,0,2,17)
  ShowMessage("\\n<Ilias>Let's go to the theocracy of San Ilia first. We can gather information about Marcellus and the White Rabbit there.")
  ShowMessageFace("iriasu_fc4",0,0,2,18)
  ShowMessage("\\n<Ilias>Besides, San Ilia is the center of my church. The people of that country are practically my servants.")
  ShowMessageFace("iriasu_fc4",1,0,2,19)
  ShowMessage("\\n<Ilias>Naturally, I would not object to any lavish worship and adoration they may heap upon me when I arrive.")
  ShowMessageFace("ruka_fc1",0,0,2,20)
  ShowMessage("\\n<Luka>(Somehow I doubt they'll believe you're their goddess...)")
  ShowMessageFace("",0,0,2,21)
  ShowMessage("\\n<Mermaid>Um, before you go, I have a request. Port Natalia is currently dealing with some mysterious circumstances...")
  ShowMessageFace("iriasu_fc4",0,0,2,22)
  ShowMessage("\\n<Ilias>Luka, please ignore her.")
  0()



EVENT   22
 PAGE   1
  If(0,2060,0)
   ShowMessageFace("",0,0,2,1)
   ShowMessage("\\n<Mermaid>Apparently the storm was caused by a powerful monster. I guess there really are monsters who would do such horrible things.")
   EndEventProcessing()
   0()
  EndIf()
  If(1,1016,0,0,0)
   ShowMessageFace("",0,0,2,2)
   ShowMessage("\\n<Mermaid>We have a request for you and your companions. You can hear the details from the mermaid beside me.")
   EndEventProcessing()
   0()
  EndIf()
  If(1,1016,0,1,0)
   ShowMessageFace("",0,0,2,3)
   ShowMessage("\\n<Mermaid>The Queen of the Southern Seas is strict, but kind-hearted. I don't think she'd ignore this.")
   ShowMessageFace("",0,0,2,4)
   ShowMessage("\\n<Mermaid>Something must have happened to her...")
   EndEventProcessing()
   0()
  EndIf()
  If(1,1016,0,2,1)
   ShowMessageFace("",0,0,2,5)
   ShowMessage("\\n<Mermaid>Thank you very much! Thanks to you, our town can prosper once again.")
   EndEventProcessing()
   0()
  EndIf()
  0()



EVENT   25
 PAGE   1
  // condition: switch 2060 is ON
  0()



EVENT   26
 PAGE   1
  // condition: switch 2060 is ON
  0()



EVENT   15
 PAGE   1
  ShowMessageFace("",0,0,2,1)
  ShowMessage("\\n<Mermaid>How about an accessory? If you ever have to fight in the sea, this [Mermaid's Charm] will surely be of use to you. ♪")
  Shop(2,1138,0,0,false)
  605(2,1142,0,0)
  605(2,1548,0,0)
  605(2,1550,0,0)
  605(2,1552,0,0)
  605(2,1713,0,0)
  0()



EVENT   13
 PAGE   1
  ShowMessageFace("",0,0,2,1)
  ShowMessage("\\n<Shopkeeper>Welcome! We not only sell items, but also fashionable clothes.")
  Shop(0,1,0,0,false)
  605(0,11,0,0)
  605(0,13,0,0)
  605(0,14,0,0)
  605(0,15,0,0)
  605(0,16,0,0)
  605(0,17,0,0)
  605(0,23,0,0)
  605(0,35,0,0)
  605(0,101,0,0)
  605(2,149,0,0)
  605(2,164,0,0)
  605(2,261,0,0)
  0()



EVENT   27
 PAGE   1
  250(bytes(0x04,0x08,0x6f,0x3a,0x0c,0x52,0x50,0x47,0x3a,0x3a,0x53,0x45,0x08,0x3a,0x0a,0x40,0x6e,0x61,0x6d,0x65,0x49,0x22,0x0a,0x49,0x74,0x65,0x6d,0x31,0x06,0x3a,0x06,0x45,0x54,0x3a,0x0b,0x40,0x70,0x69,0x74,0x63,0x68,0x69,0x69,0x3a,0x0c,0x40,0x76,0x6f,0x6c,0x75,0x6d,0x65,0x69,0x55))
  ChangeSelfSwitch("A",0)
  ChangeInventory_Item(21,0,0,1)
  0()
 PAGE   2
  // condition: self-switch A is ON
  0()



EVENT   28
 PAGE   1
  250(bytes(0x04,0x08,0x6f,0x3a,0x0c,0x52,0x50,0x47,0x3a,0x3a,0x53,0x45,0x08,0x3a,0x0a,0x40,0x6e,0x61,0x6d,0x65,0x49,0x22,0x0a,0x49,0x74,0x65,0x6d,0x31,0x06,0x3a,0x06,0x45,0x54,0x3a,0x0b,0x40,0x70,0x69,0x74,0x63,0x68,0x69,0x69,0x3a,0x0c,0x40,0x76,0x6f,0x6c,0x75,0x6d,0x65,0x69,0x55))
  ChangeSelfSwitch("A",0)
  ChangeInventory_Item(428,0,0,1)
  0()
 PAGE   2
  // condition: self-switch A is ON
  0()



EVENT   29
 PAGE   1
  250(bytes(0x04,0x08,0x6f,0x3a,0x0c,0x52,0x50,0x47,0x3a,0x3a,0x53,0x45,0x08,0x3a,0x0a,0x40,0x6e,0x61,0x6d,0x65,0x49,0x22,0x0a,0x49,0x74,0x65,0x6d,0x31,0x06,0x3a,0x06,0x45,0x54,0x3a,0x0b,0x40,0x70,0x69,0x74,0x63,0x68,0x69,0x69,0x3a,0x0c,0x40,0x76,0x6f,0x6c,0x75,0x6d,0x65,0x69,0x55))
  ChangeSelfSwitch("A",0)
  ChangeInventory_Item(341,0,0,1)
  0()
 PAGE   2
  // condition: self-switch A is ON
  0()



EVENT   31
 PAGE   1
  250(bytes(0x04,0x08,0x6f,0x3a,0x0c,0x52,0x50,0x47,0x3a,0x3a,0x53,0x45,0x08,0x3a,0x0a,0x40,0x6e,0x61,0x6d,0x65,0x49,0x22,0x0a,0x49,0x74,0x65,0x6d,0x31,0x06,0x3a,0x06,0x45,0x54,0x3a,0x0b,0x40,0x70,0x69,0x74,0x63,0x68,0x69,0x69,0x3a,0x0c,0x40,0x76,0x6f,0x6c,0x75,0x6d,0x65,0x69,0x55))
  ChangeSelfSwitch("A",0)
  ChangeInventoryArmor(1513,0,0,1,false)
  0()
 PAGE   2
  // condition: self-switch A is ON
  0()



EVENT   32
 PAGE   1
  250(bytes(0x04,0x08,0x6f,0x3a,0x0c,0x52,0x50,0x47,0x3a,0x3a,0x53,0x45,0x08,0x3a,0x0a,0x40,0x6e,0x61,0x6d,0x65,0x49,0x22,0x0a,0x49,0x74,0x65,0x6d,0x31,0x06,0x3a,0x06,0x45,0x54,0x3a,0x0b,0x40,0x70,0x69,0x74,0x63,0x68,0x69,0x69,0x3a,0x0c,0x40,0x76,0x6f,0x6c,0x75,0x6d,0x65,0x69,0x55))
  ChangeSelfSwitch("A",0)
  ChangeInventory_Item(32,0,0,1)
  0()
 PAGE   2
  // condition: self-switch A is ON
  0()



EVENT   33
 PAGE   1
  ShowMessageFace("",0,0,2,1)
  ShowMessage("\\n<Thief>If you master the Hunter and Thief jobs, you can unlock Adventurer. I hear that Adventurers can learn a lot of useful abilities for long, dangerous journeys in distant, lonely lands.")
  ShowMessageFace("",0,0,2,2)
  ShowMessage("\\n<Thief>Their [Post-Battle Rest] ability is particularly useful. Each time a battle ends, you recover a little HP and MP.")
  355("actor_label_jump")
  EndEventProcessing()
  DefineLabel("74")
  ShowMessageFace("usagi_fc1",0,0,2,3)
  ShowMessage("\\n<Barbun>I wish I were an Adventurer...")
  EndEventProcessing()
  0()



EVENT   34
 PAGE   1
  ShowMessageFace("",0,0,2,1)
  ShowMessage("\\n<Guard>There are a lot Sea-Dweller type monsters around here. Since they have strong water elemental attacks, it's best to wear armor with high water resistance.")
  355("actor_label_jump")
  EndEventProcessing()
  DefineLabel("107")
  ShowMessageFace("namako_fc1",0,0,2,2)
  ShowMessage("\\n<Yume>People weak to water attacks have it hard.")
  EndEventProcessing()
  0()



EVENT   35
 PAGE   1
  ShowMessageFace("",0,0,2,1)
  ShowMessage("\\n<Mermaid>Oh my, what a cute customer! This is the Mermaid's Pub. ♪")
  Shop(0,426,0,0,false)
  605(0,427,0,0)
  605(0,428,0,0)
  605(0,434,0,0)
  ShowMessageFace("",0,0,2,2)
  ShowMessage("\\n<Mermaid>Do take your time, fufufu...")
  0()



EVENT   36
 PAGE   1
  ShowMessageFace("",0,0,2,1)
  ShowMessage("\\n<Mermaid>Mermaids are prohibited from singing on the streets by law. It's not really discrimination, though. Our singing is actually dangerous.")
  355("actor_label_jump")
  EndEventProcessing()
  DefineLabel("59")
  ShowMessageFace("mdg_fc1",0,0,2,2)
  ShowMessage("\\n<Ragora>Both of us have it hard.")
  EndEventProcessing()
  DefineLabel("118")
  ShowMessageFace("meia_fc1",0,0,2,3)
  ShowMessage("\\n<Meia>There's seduction magic in our song. Even our humming is dangerous.")
  EndEventProcessing()
  DefineLabel("155")
  ShowMessageFace("saki_fc1",2,0,2,4)
  ShowMessage("\\n<Saki>I would get really stressed if that applied to me...")
  EndEventProcessing()
  0()



EVENT   37
 PAGE   1
  ShowMessageFace("",0,0,2,1)
  ShowMessage("\\n<Mermaid>My, my, dear customer, aren't you getting a little too drunk?")
  0()



EVENT   38
 PAGE   1
  ShowMessageFace("",0,0,2,1)
  ShowMessage("\\n<Youth>I don't mind going bankrupt in this pub! Ehehe, deheheh...")
  355("actor_label_jump")
  EndEventProcessing()
  DefineLabel("87")
  ShowMessageFace("name2_fc2",1,0,2,2)
  ShowMessage("\\n<Melty>He completely lacks backbone. I bet he doesn't get to copulate at all.")
  EndEventProcessing()
  DefineLabel("104")
  ShowMessageFace("kumo_fc1",0,0,2,3)
  ShowMessage("\\n<Rachnee>When you give up on life, come visit me. I'd love to prey on you...")
  EndEventProcessing()
  DefineLabel("112")
  ShowMessageFace("utubo_fc1",1,0,2,4)
  ShowMessage("\\n<Kazura>If you want to plunge your mind, plunge yourself into this pitcher plant here. ♪")
  EndEventProcessing()
  0()



EVENT   39
 PAGE   1
  ShowMessageFace("",0,0,2,1)
  ShowMessage("\\n<Mermaid>With the disappearances, everyone is uneasy. Because of that, a lot more people are visiting our pub.")
  355("actor_label_jump")
  EndEventProcessing()
  DefineLabel("77")
  ShowMessageFace("jeid_fc1",0,0,2,2)
  ShowMessage("\\n<Jaide>Why are you so troubled, then? Don't merchants pursue profit?")
  EndEventProcessing()
  DefineLabel("100")
  ShowMessageFace("rahure_fc1",0,0,2,3)
  ShowMessage("\\n<Fleesia>They should take a whiff of me and calm down.")
  EndEventProcessing()
  0()
 PAGE   2
  // condition: variable 1016 >= 2
  ShowMessageFace("",0,0,2,1)
  ShowMessage("\\n<Mermaid>Our pub is thriving even after the disappearances were resolved. See, we used seduction magic to increase the number of repeat...")
  ShowMessageFace("",0,0,2,2)
  ShowMessage("\\n<Mermaid>Er, oops. That's our trade secret.")
  0()



EVENT   40
 PAGE   1
  ShowMessageFace("",0,0,2,1)
  ShowMessage("\\n<Mermaid>Fufu, want to play, boy? How about a drinking match with big sis?")
  355("actor_label_jump")
  EndEventProcessing()
  DefineLabel("75")
  ShowMessageFace("hituzi_fc1",3,0,2,2)
  ShowMessage("\\n<Mary>I won't lose to aaanyone in a drinking maaatch!")
  EndEventProcessing()
  DefineLabel("525")
  ShowMessageFace("sonia_fc2",5,0,2,3)
  ShowMessage("\\n<Sonya>You can't!")
  EndEventProcessing()
  0()



EVENT   41
 PAGE   1
  ShowMessageFace("",0,0,2,1)
  ShowMessage("\\n<Man>This pub is so soothing... I can just forget all my worries.")
  355("actor_label_jump")
  EndEventProcessing()
  DefineLabel("71")
  ShowMessageFace("okami_fc1",0,0,2,2)
  ShowMessage("\\n<Amara>Ugaa! Right! Everyone should just forget their worries!")
  EndEventProcessing()
  DefineLabel("105")
  ShowMessageFace("mimic_fc1",1,0,2,3)
  ShowMessage("\\n<Minelli>I can't forget my worries. They replay in my head time after time, again, and again, and again...")
  EndEventProcessing()
  0()



EVENT   42
 PAGE   1
  ShowMessageFace("",0,0,2,1)
  ShowMessage("\\n<Fisherman>I'm not going fishing any more! I'll pass on getting kidnapped!")
  355("actor_label_jump")
  EndEventProcessing()
  DefineLabel("64")
  ShowMessageFace("pramia_fc1",0,0,2,2)
  ShowMessage("\\n<Teeny>Everyone looks so scared. Makes a girl want to do something!")
  EndEventProcessing()
  DefineLabel("99")
  ShowMessageFace("namazu_fc1",2,0,2,3)
  ShowMessage("\\n<Gigi>Pathetic... is what I wish I could say, but I'm also a bit...")
  EndEventProcessing()
  DefineLabel("103")
  ShowMessageFace("kamuro_fc1",0,0,2,4)
  ShowMessage("\\n<Kamuro>Sounds like the anxiety is spreading. Disappearances sure are scary.")
  EndEventProcessing()
  0()
 PAGE   2
  // condition: variable 1016 >= 3
  ShowMessageFace("",0,0,2,1)
  ShowMessage("\\n<Fisherman>During that crisis, I was reluctant to go fishing. Now I've wound up completely lazy!")
  ShowMessageFace("",0,0,2,2)
  ShowMessage("\\n<Fisherman>I'm not fishing anymore! From now on, I'll pass on working altogether!")
  355("actor_label_jump")
  EndEventProcessing()
  DefineLabel("75")
  ShowMessageFace("hituzi_fc1",3,0,2,3)
  ShowMessage("\\n<Mary>Come on, get to wooork!")
  EndEventProcessing()
  DefineLabel("78")
  ShowMessageFace("syesta_fc1",0,0,2,4)
  ShowMessage("\\n<Shesta>It's not like you're my sister, so get to work! Ah, what's this, some strange memories are...")
  EndEventProcessing()
  DefineLabel("118")
  ShowMessageFace("meia_fc1",3,0,2,5)
  ShowMessage("\\n<Meia>Ohh, it's all my fault...")
  EndEventProcessing()
  0()



EVENT   43
 PAGE   1
  ShowMessageFace("",0,0,2,1)
  ShowMessage("\\n<Traveling Merchant>Whenever I come to this town, I visit this pub. Truly, this is the oasis of my heart.")
  355("actor_label_jump")
  EndEventProcessing()
  DefineLabel("154")
  ShowMessageFace("wani_fc1",1,0,2,2)
  ShowMessage("\\n<Gaa>Oasis? But there's no water...")
  EndEventProcessing()
  DefineLabel("525")
  ShowMessageFace("sonia_fc2",2,0,2,3)
  ShowMessage("\\n<Sonya>Men like places like these, eh...")
  EndEventProcessing()
  DefineLabel("529")
  ShowMessageFace("sara_fc1",1,0,2,4)
  ShowMessage("\\n<Sara>So, the masses dispel their troubles in places like these. Hmm, I see...")
  EndEventProcessing()
  0()



EVENT   44
 PAGE   1
  0()



EVENT   47
 PAGE   1
  ShowMessageFace("",0,0,2,1)
  ShowMessage("\\n<Traveling Warrior>Ufufu, I should visit the Mermaid Pub tonight. Now there's a place that can make you look forward to visiting this town. ♪")
  205(0,bytes(0x04,0x08,0x6f,0x3a,0x13,0x52,0x50,0x47,0x3a,0x3a,0x4d,0x6f,0x76,0x65,0x52,0x6f,0x75,0x74,0x65,0x09,0x3a,0x0c,0x40,0x72,0x65,0x70,0x65,0x61,0x74,0x46,0x3a,0x0f,0x40,0x73,0x6b,0x69,0x70,0x70,0x61,0x62,0x6c,0x65,0x46,0x3a,0x0a,0x40,0x77,0x61,0x69,0x74,0x54,0x3a,0x0a,0x40,0x6c,0x69,0x73,0x74,0x5b,0x08,0x6f,0x3a,0x15,0x52,0x50,0x47,0x3a,0x3a,0x4d,0x6f,0x76,0x65,0x43,0x6f,0x6d,0x6d,0x61,0x6e,0x64,0x07,0x3a,0x0a,0x40,0x63,0x6f,0x64,0x65,0x69,0x29,0x3a,0x10,0x40,0x70,0x61,0x72,0x61,0x6d,0x65,0x74,0x65,0x72,0x73,0x5b,0x00,0x6f,0x3b,0x0a,0x07,0x3b,0x0b,0x69,0x1e,0x3b,0x0c,0x5b,0x00,0x6f,0x3b,0x0a,0x07,0x3b,0x0b,0x69,0x00,0x3b,0x0c,0x5b,0x00))
  ShowMessageFace("",0,0,2,2)
  ShowMessage("\\n<Traveling Warrior>Woah?! Er, no, wait, I'm a hardcore, righteous warrior! There's no way I'd ever go to such a shady place.")
  205(0,bytes(0x04,0x08,0x6f,0x3a,0x13,0x52,0x50,0x47,0x3a,0x3a,0x4d,0x6f,0x76,0x65,0x52,0x6f,0x75,0x74,0x65,0x09,0x3a,0x0c,0x40,0x72,0x65,0x70,0x65,0x61,0x74,0x46,0x3a,0x0f,0x40,0x73,0x6b,0x69,0x70,0x70,0x61,0x62,0x6c,0x65,0x46,0x3a,0x0a,0x40,0x77,0x61,0x69,0x74,0x54,0x3a,0x0a,0x40,0x6c,0x69,0x73,0x74,0x5b,0x09,0x6f,0x3a,0x15,0x52,0x50,0x47,0x3a,0x3a,0x4d,0x6f,0x76,0x65,0x43,0x6f,0x6d,0x6d,0x61,0x6e,0x64,0x07,0x3a,0x0a,0x40,0x63,0x6f,0x64,0x65,0x69,0x29,0x3a,0x10,0x40,0x70,0x61,0x72,0x61,0x6d,0x65,0x74,0x65,0x72,0x73,0x5b,0x00,0x6f,0x3b,0x0a,0x07,0x3b,0x0b,0x69,0x17,0x3b,0x0c,0x5b,0x00,0x6f,0x3b,0x0a,0x07,0x3b,0x0b,0x69,0x28,0x3b,0x0c,0x5b,0x00,0x6f,0x3b,0x0a,0x07,0x3b,0x0b,0x69,0x00,0x3b,0x0c,0x5b,0x00))
  0()



EVENT   48
 PAGE   1
  ShowMessageFace("",0,0,2,1)
  ShowMessage("\\n<Inn Girl>It's 10G per night. Will you be staying?\\$")
  ShowChoices(strings("Yes","No"),2)
  IfPlayerPicksChoice(0,null)
   If(7,10,0)
    125(1,0,10)
    221()
    249(bytes(0x04,0x08,0x6f,0x3a,0x0c,0x52,0x50,0x47,0x3a,0x3a,0x4d,0x45,0x08,0x3a,0x0a,0x40,0x6e,0x61,0x6d,0x65,0x49,0x22,0x08,0x49,0x6e,0x6e,0x06,0x3a,0x06,0x45,0x54,0x3a,0x0b,0x40,0x70,0x69,0x74,0x63,0x68,0x69,0x69,0x3a,0x0c,0x40,0x76,0x6f,0x6c,0x75,0x6d,0x65,0x69,0x69))
    Wait(150)
    314(0,0)
    222()
    0()
   Else()
    ShowMessageFace("",0,0,2,2)
    ShowMessage("\\n<Inn Girl>Oh my, you don't have enough money.")
    0()
   EndIf()
   0()
  IfPlayerPicksChoice(1,null)
   0()
  404()
  0()



EVENT   49
 PAGE   1
  If(1,1016,0,1,2)
   ShowMessageFace("",0,0,2,1)
   ShowMessage("\\n<Mermaid>Ships headed to Ilias Continent stopped sailing, people keep disappearing mysteriously... This world is starting to turn nasty, isn't it?")
   205(48,bytes(0x04,0x08,0x6f,0x3a,0x13,0x52,0x50,0x47,0x3a,0x3a,0x4d,0x6f,0x76,0x65,0x52,0x6f,0x75,0x74,0x65,0x09,0x3a,0x0c,0x40,0x72,0x65,0x70,0x65,0x61,0x74,0x46,0x3a,0x0f,0x40,0x73,0x6b,0x69,0x70,0x70,0x61,0x62,0x6c,0x65,0x46,0x3a,0x0a,0x40,0x77,0x61,0x69,0x74,0x54,0x3a,0x0a,0x40,0x6c,0x69,0x73,0x74,0x5b,0x07,0x6f,0x3a,0x15,0x52,0x50,0x47,0x3a,0x3a,0x4d,0x6f,0x76,0x65,0x43,0x6f,0x6d,0x6d,0x61,0x6e,0x64,0x07,0x3a,0x0a,0x40,0x63,0x6f,0x64,0x65,0x69,0x16,0x3a,0x10,0x40,0x70,0x61,0x72,0x61,0x6d,0x65,0x74,0x65,0x72,0x73,0x5b,0x00,0x6f,0x3b,0x0a,0x07,0x3b,0x0b,0x69,0x00,0x3b,0x0c,0x5b,0x00))
   ShowMessageFace("",0,0,2,2)
   ShowMessage("\\n<Inn Girl>Actually, I heard that ships have started sailing to Ilias Continent again.")
   ShowMessageFace("",0,0,2,3)
   ShowMessage("\\n<Mermaid>Is that so? Now if only the disappearances were resolved...")
   205(48,bytes(0x04,0x08,0x6f,0x3a,0x13,0x52,0x50,0x47,0x3a,0x3a,0x4d,0x6f,0x76,0x65,0x52,0x6f,0x75,0x74,0x65,0x09,0x3a,0x0c,0x40,0x72,0x65,0x70,0x65,0x61,0x74,0x46,0x3a,0x0f,0x40,0x73,0x6b,0x69,0x70,0x70,0x61,0x62,0x6c,0x65,0x46,0x3a,0x0a,0x40,0x77,0x61,0x69,0x74,0x54,0x3a,0x0a,0x40,0x6c,0x69,0x73,0x74,0x5b,0x07,0x6f,0x3a,0x15,0x52,0x50,0x47,0x3a,0x3a,0x4d,0x6f,0x76,0x65,0x43,0x6f,0x6d,0x6d,0x61,0x6e,0x64,0x07,0x3a,0x0a,0x40,0x63,0x6f,0x64,0x65,0x69,0x15,0x3a,0x10,0x40,0x70,0x61,0x72,0x61,0x6d,0x65,0x74,0x65,0x72,0x73,0x5b,0x00,0x6f,0x3b,0x0a,0x07,0x3b,0x0b,0x69,0x00,0x3b,0x0c,0x5b,0x00))
   0()
  EndIf()
  If(1,1016,0,2,1)
   ShowMessageFace("",0,0,2,4)
   ShowMessage("\\n<Mermaid>Ships headed to Ilias Continent stopped sailing, people keep disappearing mysteriously... This world is starting to turn nasty, isn't it?")
   205(48,bytes(0x04,0x08,0x6f,0x3a,0x13,0x52,0x50,0x47,0x3a,0x3a,0x4d,0x6f,0x76,0x65,0x52,0x6f,0x75,0x74,0x65,0x09,0x3a,0x0c,0x40,0x72,0x65,0x70,0x65,0x61,0x74,0x46,0x3a,0x0f,0x40,0x73,0x6b,0x69,0x70,0x70,0x61,0x62,0x6c,0x65,0x46,0x3a,0x0a,0x40,0x77,0x61,0x69,0x74,0x54,0x3a,0x0a,0x40,0x6c,0x69,0x73,0x74,0x5b,0x07,0x6f,0x3a,0x15,0x52,0x50,0x47,0x3a,0x3a,0x4d,0x6f,0x76,0x65,0x43,0x6f,0x6d,0x6d,0x61,0x6e,0x64,0x07,0x3a,0x0a,0x40,0x63,0x6f,0x64,0x65,0x69,0x16,0x3a,0x10,0x40,0x70,0x61,0x72,0x61,0x6d,0x65,0x74,0x65,0x72,0x73,0x5b,0x00,0x6f,0x3b,0x0a,0x07,0x3b,0x0b,0x69,0x00,0x3b,0x0c,0x5b,0x00))
   ShowMessageFace("",0,0,2,5)
   ShowMessage("\\n<Inn Girl>That reminds me, I heard that the people who vanished have been rescued. Apparently, a powerful, evil monster was behind it all.")
   ShowMessageFace("",0,0,2,6)
   ShowMessage("\\n<Mermaid>Is that so? That's great! I can swim in peace again.")
   205(48,bytes(0x04,0x08,0x6f,0x3a,0x13,0x52,0x50,0x47,0x3a,0x3a,0x4d,0x6f,0x76,0x65,0x52,0x6f,0x75,0x74,0x65,0x09,0x3a,0x0c,0x40,0x72,0x65,0x70,0x65,0x61,0x74,0x46,0x3a,0x0f,0x40,0x73,0x6b,0x69,0x70,0x70,0x61,0x62,0x6c,0x65,0x46,0x3a,0x0a,0x40,0x77,0x61,0x69,0x74,0x54,0x3a,0x0a,0x40,0x6c,0x69,0x73,0x74,0x5b,0x07,0x6f,0x3a,0x15,0x52,0x50,0x47,0x3a,0x3a,0x4d,0x6f,0x76,0x65,0x43,0x6f,0x6d,0x6d,0x61,0x6e,0x64,0x07,0x3a,0x0a,0x40,0x63,0x6f,0x64,0x65,0x69,0x15,0x3a,0x10,0x40,0x70,0x61,0x72,0x61,0x6d,0x65,0x74,0x65,0x72,0x73,0x5b,0x00,0x6f,0x3b,0x0a,0x07,0x3b,0x0b,0x69,0x00,0x3b,0x0c,0x5b,0x00))
   0()
  EndIf()
  0()



EVENT   50
 PAGE   1
  ChangeSelfSwitch("A",0)
  205(46,bytes(0x04,0x08,0x6f,0x3a,0x13,0x52,0x50,0x47,0x3a,0x3a,0x4d,0x6f,0x76,0x65,0x52,0x6f,0x75,0x74,0x65,0x09,0x3a,0x0c,0x40,0x72,0x65,0x70,0x65,0x61,0x74,0x46,0x3a,0x0f,0x40,0x73,0x6b,0x69,0x70,0x70,0x61,0x62,0x6c,0x65,0x46,0x3a,0x0a,0x40,0x77,0x61,0x69,0x74,0x54,0x3a,0x0a,0x40,0x6c,0x69,0x73,0x74,0x5b,0x07,0x6f,0x3a,0x15,0x52,0x50,0x47,0x3a,0x3a,0x4d,0x6f,0x76,0x65,0x43,0x6f,0x6d,0x6d,0x61,0x6e,0x64,0x07,0x3a,0x0a,0x40,0x63,0x6f,0x64,0x65,0x69,0x13,0x3a,0x10,0x40,0x70,0x61,0x72,0x61,0x6d,0x65,0x74,0x65,0x72,0x73,0x5b,0x07,0x69,0x00,0x69,0x00,0x6f,0x3b,0x0a,0x07,0x3b,0x0b,0x69,0x00,0x3b,0x0c,0x5b,0x00))
  ShowMessageFace("",0,0,2,1)
  ShowMessage("\\n<Boy>Cheer up, Meia!")
  If(0,6,0)
   ShowMessageFace("sonia_fc1",0,0,2,2)
   ShowMessage("\\n<Sonya>Are you Meia's son? I know she was supposed to go on her honeymoon, but to already have a kid this big...")
   0()
  Else()
   ShowMessageFace("ruka_fc1",0,0,2,3)
   ShowMessage("\\n<Luka>Are you Meia's son? I know she was supposed to go on a honeymoon, but to already have a child this big...")
   0()
  EndIf()
  205(46,bytes(0x04,0x08,0x6f,0x3a,0x13,0x52,0x50,0x47,0x3a,0x3a,0x4d,0x6f,0x76,0x65,0x52,0x6f,0x75,0x74,0x65,0x09,0x3a,0x0c,0x40,0x72,0x65,0x70,0x65,0x61,0x74,0x46,0x3a,0x0f,0x40,0x73,0x6b,0x69,0x70,0x70,0x61,0x62,0x6c,0x65,0x46,0x3a,0x0a,0x40,0x77,0x61,0x69,0x74,0x54,0x3a,0x0a,0x40,0x6c,0x69,0x73,0x74,0x5b,0x07,0x6f,0x3a,0x15,0x52,0x50,0x47,0x3a,0x3a,0x4d,0x6f,0x76,0x65,0x43,0x6f,0x6d,0x6d,0x61,0x6e,0x64,0x07,0x3a,0x0a,0x40,0x63,0x6f,0x64,0x65,0x69,0x15,0x3a,0x10,0x40,0x70,0x61,0x72,0x61,0x6d,0x65,0x74,0x65,0x72,0x73,0x5b,0x00,0x6f,0x3b,0x0a,0x07,0x3b,0x0b,0x69,0x00,0x3b,0x0c,0x5b,0x00))
  ShowMessageFace("",0,0,2,4)
  ShowMessage("\\n<Boy?>I'm 25! And I'm Meia's husband!")
  If(0,6,0)
   ShowMessageFace("sonia_fc4",0,0,2,5)
   ShowMessage("\\n<Sonya>Oh, I see... I should have known.")
   If(4,72,0)
    ShowMessageFace("phoenix_fc1",2,0,2,6)
    ShowMessage("\\n<Mini>P-pervert!")
    0()
   EndIf()
   0()
  Else()
   ShowMessageFace("ruka_fc1",0,0,2,7)
   ShowMessage("\\n<Luka>......")
   0()
  EndIf()
  205(46,bytes(0x04,0x08,0x6f,0x3a,0x13,0x52,0x50,0x47,0x3a,0x3a,0x4d,0x6f,0x76,0x65,0x52,0x6f,0x75,0x74,0x65,0x09,0x3a,0x0c,0x40,0x72,0x65,0x70,0x65,0x61,0x74,0x46,0x3a,0x0f,0x40,0x73,0x6b,0x69,0x70,0x70,0x61,0x62,0x6c,0x65,0x46,0x3a,0x0a,0x40,0x77,0x61,0x69,0x74,0x54,0x3a,0x0a,0x40,0x6c,0x69,0x73,0x74,0x5b,0x08,0x6f,0x3a,0x15,0x52,0x50,0x47,0x3a,0x3a,0x4d,0x6f,0x76,0x65,0x43,0x6f,0x6d,0x6d,0x61,0x6e,0x64,0x07,0x3a,0x0a,0x40,0x63,0x6f,0x64,0x65,0x69,0x15,0x3a,0x10,0x40,0x70,0x61,0x72,0x61,0x6d,0x65,0x74,0x65,0x72,0x73,0x5b,0x00,0x6f,0x3b,0x0a,0x07,0x3b,0x0b,0x69,0x18,0x3b,0x0c,0x5b,0x00,0x6f,0x3b,0x0a,0x07,0x3b,0x0b,0x69,0x00,0x3b,0x0c,0x5b,0x00))
  0()
 PAGE   2
  // condition: self-switch A is ON
  0()



EVENT   51
 PAGE   1
  ShowMessageFace("",0,0,2,1)
  ShowMessage("\\n<Mermaid>That hat is so cuuute. ♪")
  355("actor_label_jump")
  EndEventProcessing()
  DefineLabel("85")
  ShowMessageFace("highslag_fc1",0,0,2,2)
  ShowMessage("\\n<Elizabeth>Hmph. What childish taste.")
  EndEventProcessing()
  DefineLabel("121")
  ShowMessageFace("page65537_fc1",0,0,2,3)
  ShowMessage("\\n<Cornelia>I wonder if it would fit me... Oh, I'm just slightly curious.")
  EndEventProcessing()
  0()



EVENT   52
 PAGE   1
  ShowMessageFace("",0,0,2,1)
  ShowMessage("\\n<Mermaid>Since you can only equip one accessory at a time, it makes it hard to decide what to wear.")
  355("actor_label_jump")
  EndEventProcessing()
  DefineLabel("104")
  ShowMessageFace("kumo_fc1",0,0,2,2)
  ShowMessage("\\n<Rachnee>I have plenty of legs. I really should be able to equip several at the same time.")
  EndEventProcessing()
  0()



EVENT   53
 PAGE   1
  ShowMessageFace("",0,0,2,1)
  ShowMessage("\\n<Merchant>When someone wearing the [Spring Water] accessory is healed, it increases the amount of HP recovered.")
  ShowMessageFace("",0,0,2,2)
  ShowMessage("\\n<Merchant>But, people often forget that the effect doesn't work with wearer's own healing magic.")
  ShowMessageFace("",0,0,2,3)
  ShowMessage("\\n<Merchant>In other words, [Spring Water] should be worn by party members who receive a lot of damage. With it on, even weak heals can be useful.")
  355("actor_label_jump")
  EndEventProcessing()
  DefineLabel("53")
  ShowMessageFace("slime_fc1",2,0,2,4)
  ShowMessage("\\n<Lime>I reaaally want that accessory. I get hurt a lot.")
  EndEventProcessing()
  355("actor_label_jump")
  EndEventProcessing()
  DefineLabel("88")
  ShowMessageFace("jack_fc1",0,0,2,5)
  ShowMessage("\\n<Pumpkin>I want that. Because I'm weak...")
  EndEventProcessing()
  0()



EVENT   54
 PAGE   1
  ShowMessageFace("",0,0,2,1)
  ShowMessage("\\n<Old Man>If you ever feel lost, you should meet the King of San Ilia. He will surely show you the way.")
  If(1,1001,0,13,0)
   If(0,4,0)
    ShowMessageFace("alice_fc5",0,0,2,2)
    ShowMessage("\\n<Alice>How depressing. I, the Monster Lord, need a human king to show me the way...")
    ShowMessageFace("alice_fc5",3,0,2,3)
    ShowMessage("\\n<Alice>That said, the hierarch of Ilias's church should have a dense information network. It's probably worth asking him what he knows.")
    EndEventProcessing()
    0()
   EndIf()
   If(0,5,0)
    ShowMessageFace("iriasu_fc4",2,0,2,4)
    ShowMessage("\\n<Ilias>Why do I, the Goddess, need the Pope to show me the way? It should be the other way around...")
    ShowMessageFace("iriasu_fc4",2,0,2,5)
    ShowMessage("\\n<Ilias>With that said, we cannot ignore his earthly information network. It seems that we need to seek him out.")
    EndEventProcessing()
    0()
   EndIf()
   0()
  EndIf()
  355("actor_label_jump")
  EndEventProcessing()
  DefineLabel("531")
  ShowMessageFace("saniria_fc2",0,0,2,6)
  ShowMessage("\\n<King of San Ilia>But, in the end, I can only show others the road. The ones who must tread it are the people themselves.")
  ShowMessageFace("",0,0,2,7)
  ShowMessage("\\n<Old Man>Y-you're...")
  ShowMessageFace("saniria_fc2",0,0,2,8)
  ShowMessage("\\n<King of San Ilia>Oh, no one special. Just a haughty mecha prone to interjecting.")
  EndEventProcessing()
  0()



EVENT   30
 PAGE   1
  250(bytes(0x04,0x08,0x6f,0x3a,0x0c,0x52,0x50,0x47,0x3a,0x3a,0x53,0x45,0x08,0x3a,0x0a,0x40,0x6e,0x61,0x6d,0x65,0x49,0x22,0x0a,0x49,0x74,0x65,0x6d,0x31,0x06,0x3a,0x06,0x45,0x54,0x3a,0x0b,0x40,0x70,0x69,0x74,0x63,0x68,0x69,0x69,0x3a,0x0c,0x40,0x76,0x6f,0x6c,0x75,0x6d,0x65,0x69,0x55))
  ChangeSelfSwitch("A",0)
  ChangeInventory_Item(176,0,0,1)
  0()
 PAGE   2
  // condition: self-switch A is ON
  0()



EVENT   55
 PAGE   1
  250(bytes(0x04,0x08,0x6f,0x3a,0x0c,0x52,0x50,0x47,0x3a,0x3a,0x53,0x45,0x08,0x3a,0x0a,0x40,0x6e,0x61,0x6d,0x65,0x49,0x22,0x0a,0x49,0x74,0x65,0x6d,0x31,0x06,0x3a,0x06,0x45,0x54,0x3a,0x0b,0x40,0x70,0x69,0x74,0x63,0x68,0x69,0x69,0x3a,0x0c,0x40,0x76,0x6f,0x6c,0x75,0x6d,0x65,0x69,0x55))
  ChangeSelfSwitch("A",0)
  ChangeInventory_Item(40,0,0,1)
  0()
 PAGE   2
  // condition: self-switch A is ON
  0()



EVENT   57
 PAGE   1
  // condition: switch 31 is ON
  0()



EVENT   45
 PAGE   1
  PictureDisplay(5,"80_meia_st01",0,0,0,0,100,100,0,0)
  PictureMove(5,null,0,0,0,0,100,100,255,0,30,true)
  If(2,"A",1)
   ChangeSelfSwitch("A",0)
   ShowMessageFace("meia_fc1",0,0,2,1)
   ShowMessage("\\n<Meia>I've caused you so much trouble. Thank you very much for freeing me from that brainwashing!")
   If(4,62,0)
    ShowMessageFace("gob_fc1",0,0,2,2)
    ShowMessage("\\n<Gob>Friends help each other out when they're in trouble!")
    0()
   EndIf()
   ShowMessageFace("meia_fc1",0,0,2,3)
   ShowMessage("\\n<Meia>The weakened state of the Queen of the South Seas is being kept secret. Please, take good care of her.")
   250(bytes(0x04,0x08,0x6f,0x3a,0x0c,0x52,0x50,0x47,0x3a,0x3a,0x53,0x45,0x08,0x3a,0x0a,0x40,0x6e,0x61,0x6d,0x65,0x49,0x22,0x0a,0x49,0x74,0x65,0x6d,0x31,0x06,0x3a,0x06,0x45,0x54,0x3a,0x0b,0x40,0x70,0x69,0x74,0x63,0x68,0x69,0x69,0x3a,0x0c,0x40,0x76,0x6f,0x6c,0x75,0x6d,0x65,0x69,0x55))
   ChangeInventory_Item(515,0,0,1)
   If(0,4,0)
    ShowMessageFace("alice_fc5",7,0,2,4)
    ShowMessage("\\n<Alice>She looks tasty...")
    0()
   EndIf()
   If(0,5,0)
    ShowMessageFace("iriasu_fc4",0,0,2,5)
    ShowMessage("\\n<Ilias>How kind of you to provide us a snack for the road. Let's immediately fry and eat her.")
    0()
   EndIf()
   ShowMessageFace("ruka_fc1",0,0,2,6)
   ShowMessage("\\n<Luka>You can't! We need to get her back to normal! ...It's not going be as simple as just pouring some water on her, is it?")
   If(0,4,0)
    ShowMessageFace("alice_fc5",0,0,2,7)
    ShowMessage("\\n<Alice>We need to perform a special ritual that imparts magic unto her. We aren't powerful enough to do that yet.")
    0()
   EndIf()
   If(0,5,0)
    ShowMessageFace("iriasu_fc4",2,0,2,8)
    ShowMessage("\\n<Ilias>We'd have to perform a special ritual that imparts magic unto her. We aren't powerful enough to do that as we are now. Also, I don't feel like doing it.")
    0()
   EndIf()
   ShowMessageFace("ruka_fc1",0,0,2,9)
   ShowMessage("\\n<Luka>Then let's keep her in a safe place so she isn't eaten by accident until we're ready.")
   If(4,68,0)
    ShowMessageFace("dragonp_fc1",0,0,2,10)
    ShowMessage("\\n<Papi>I need to be careful...")
    0()
   EndIf()
   ShowMessageFace("",0,0,2,11)
   ShowMessage("Dried Squid was carefully placed among your key items.")
   0()
  EndIf()
  ShowMessageFace("meia_fc1",0,0,2,12)
  ShowMessage("\\n<Meia>As I thought, the situation is dire, and I bear a huge part of the blame. This all happened because I got drunk on my desires.")
  ShowMessageFace("meia_fc1",0,0,2,13)
  ShowMessage("\\n<Meia>Also, that monster calling herself Astaroth is still out there. I can't let her roam free, or there'll be other victims like me.")
  ShowMessageFace("meia_fc1",0,0,2,14)
  ShowMessage("\\n<Meia>I can tell that you're somehow connected to all this. Would you allow me to join you?")
  ShowChoices(strings("Yes","No"),2)
  IfPlayerPicksChoice(0,null)
   ShowMessageFace("meia_fc1",2,0,2,15)
   ShowMessage("\\n<Meia>Thank you so very much! Please leave the healing to me!")
   PictureClear(5)
   205(0,bytes(0x04,0x08,0x6f,0x3a,0x13,0x52,0x50,0x47,0x3a,0x3a,0x4d,0x6f,0x76,0x65,0x52,0x6f,0x75,0x74,0x65,0x09,0x3a,0x0c,0x40,0x72,0x65,0x70,0x65,0x61,0x74,0x46,0x3a,0x0f,0x40,0x73,0x6b,0x69,0x70,0x70,0x61,0x62,0x6c,0x65,0x46,0x3a,0x0a,0x40,0x77,0x61,0x69,0x74,0x54,0x3a,0x0a,0x40,0x6c,0x69,0x73,0x74,0x5b,0x09,0x6f,0x3a,0x15,0x52,0x50,0x47,0x3a,0x3a,0x4d,0x6f,0x76,0x65,0x43,0x6f,0x6d,0x6d,0x61,0x6e,0x64,0x07,0x3a,0x0a,0x40,0x63,0x6f,0x64,0x65,0x69,0x2a,0x3a,0x10,0x40,0x70,0x61,0x72,0x61,0x6d,0x65,0x74,0x65,0x72,0x73,0x5b,0x00,0x6f,0x3b,0x0a,0x07,0x3b,0x0b,0x69,0x0f,0x3b,0x0c,0x5b,0x00,0x6f,0x3b,0x0a,0x07,0x3b,0x0b,0x69,0x2c,0x3b,0x0c,0x5b,0x00,0x6f,0x3b,0x0a,0x07,0x3b,0x0b,0x69,0x00,0x3b,0x0c,0x5b,0x00))
   355("add_actor_ex(118)")
   249(bytes(0x04,0x08,0x6f,0x3a,0x0c,0x52,0x50,0x47,0x3a,0x3a,0x4d,0x45,0x08,0x3a,0x0a,0x40,0x6e,0x61,0x6d,0x65,0x49,0x22,0x0c,0x66,0x61,0x6e,0x66,0x61,0x6c,0x65,0x06,0x3a,0x06,0x45,0x54,0x3a,0x0b,0x40,0x70,0x69,0x74,0x63,0x68,0x69,0x69,0x3a,0x0c,0x40,0x76,0x6f,0x6c,0x75,0x6d,0x65,0x69,0x69))
   ShowMessageFace("",0,0,2,16)
   ShowMessage("Meia joined the party!")
   ChangeSwitch(2135,2135,0)
   Wait(60)
   ShowMessageFace("",0,0,2,17)
   ShowMessage("\\n<Boy?>Meia, are you leaving? No, don't go!")
   ShowMessageFace("meia_fc1",0,0,2,18)
   ShowMessage("\\n<Meia>I need to take responsibility for my sins, my love. Don't worry, I'm sure I'll return to your side.")
   ShowMessageFace("meia_fc1",0,0,2,19)
   ShowMessage("\\n<Meia>Don't forget, you're a respectable adult. You should be able to handle things until I come back.")
   ShowMessageFace("",0,0,2,20)
   ShowMessage("\\n<Boy?>Okay, I understand. I'll do my best until you return, Meia!")
   ShowMessageFace("meia_fc1",2,0,2,21)
   ShowMessage("\\n<Meia>Seems I'll be in your care, Luka. Now, let's go!")
   TeleportPlayer(0,141,50,12,2,0)
   355("gain_medal(18)")
   EndEventProcessing()
   0()
  IfPlayerPicksChoice(1,null)
   ShowMessageFace("meia_fc1",0,0,2,22)
   ShowMessage("\\n<Meia>Oh. What a shame...")
   PictureClear(5)
   EndEventProcessing()
   0()
  404()
  0()
 PAGE   2
  // condition: switch 2135 is ON
  0()



EVENT   46
 PAGE   1
  If(0,2135,1)
   ShowMessageFace("",0,0,2,1)
   ShowMessage("\\n<Boy?>Meia feels responsible for making the town suffer.")
   EndEventProcessing()
   0()
  Else()
   If(4,118,0)
    ShowMessageFace("meia_fc1",0,0,2,2)
    ShowMessage("\\n<Meia>Husband, are you doing okay staying at home?")
    ShowMessageFace("",0,0,2,3)
    ShowMessage("\\n<Boy?>Yaaay, it's Meia! I'm all right. The mermaid sisters are taking care of me!")
    ShowMessageFace("meia_fc1",2,0,2,4)
    ShowMessage("\\n<Meia>So while I was gone, some other mermaids came by... Please write down their names, okay?")
    If(0,6,0)
     ShowMessageFace("sonia_fc3",2,0,2,5)
     ShowMessage("\\n<Sonya>......")
     0()
    EndIf()
    EndEventProcessing()
    0()
   Else()
    ShowMessageFace("",0,0,2,6)
    ShowMessage("\\n<Boy?>I'll obediently stay at home! I'm 25 so I can manage my own affairs.")
    EndEventProcessing()
    0()
   EndIf()
   0()
  EndIf()
  0()



EVENT   56
 PAGE   1
  // condition: switch 1075 is ON
  // condition: switch 1074 is ON
  If(2,"A",1)
   ChangeSelfSwitch("A",0)
   ChangeVariable(1037,1037,1,0,1)
   0()
  EndIf()
  ShowMessageFace("hituzi_fc1",3,0,2,1)
  ShowMessage("\\n<Mary>I can't get enough of drinking while watching mermaids! *gulp* *gulp*")
  ShowMessageFace("",0,0,2,2)
  ShowMessage("That's our sheep...")
  ShowMessageFace("hituzi_fc1",3,0,2,3)
  ShowMessage("\\n<Mary>Uehehehehe...")
  ShowMessageFace("hituzi_fc1",7,0,2,4)
  ShowMessage("\\n<Mary>*gulp* *gulp* *gulp*")
  ShowMessageFace("hituzi_fc1",3,0,2,5)
  ShowMessage("\\n<Mary>Uehehehehe...")
  250(bytes(0x04,0x08,0x6f,0x3a,0x0c,0x52,0x50,0x47,0x3a,0x3a,0x53,0x45,0x08,0x3a,0x0a,0x40,0x6e,0x61,0x6d,0x65,0x49,0x22,0x09,0x4d,0x6f,0x76,0x65,0x06,0x3a,0x06,0x45,0x54,0x3a,0x0b,0x40,0x70,0x69,0x74,0x63,0x68,0x69,0x69,0x3a,0x0c,0x40,0x76,0x6f,0x6c,0x75,0x6d,0x65,0x69,0x55))
  ChangeSwitch(31,31,0)
  If(6,-1,8)
   205(-1,bytes(0x04,0x08,0x6f,0x3a,0x13,0x52,0x50,0x47,0x3a,0x3a,0x4d,0x6f,0x76,0x65,0x52,0x6f,0x75,0x74,0x65,0x09,0x3a,0x0c,0x40,0x72,0x65,0x70,0x65,0x61,0x74,0x46,0x3a,0x0f,0x40,0x73,0x6b,0x69,0x70,0x70,0x61,0x62,0x6c,0x65,0x46,0x3a,0x0a,0x40,0x77,0x61,0x69,0x74,0x46,0x3a,0x0a,0x40,0x6c,0x69,0x73,0x74,0x5b,0x08,0x6f,0x3a,0x15,0x52,0x50,0x47,0x3a,0x3a,0x4d,0x6f,0x76,0x65,0x43,0x6f,0x6d,0x6d,0x61,0x6e,0x64,0x07,0x3a,0x0a,0x40,0x63,0x6f,0x64,0x65,0x69,0x08,0x3a,0x10,0x40,0x70,0x61,0x72,0x61,0x6d,0x65,0x74,0x65,0x72,0x73,0x5b,0x00,0x6f,0x3b,0x0a,0x07,0x3b,0x0b,0x69,0x16,0x3b,0x0c,0x5b,0x00,0x6f,0x3b,0x0a,0x07,0x3b,0x0b,0x69,0x00,0x3b,0x0c,0x5b,0x00))
   0()
  EndIf()
  217()
  205(57,bytes(0x04,0x08,0x6f,0x3a,0x13,0x52,0x50,0x47,0x3a,0x3a,0x4d,0x6f,0x76,0x65,0x52,0x6f,0x75,0x74,0x65,0x09,0x3a,0x0c,0x40,0x72,0x65,0x70,0x65,0x61,0x74,0x46,0x3a,0x0f,0x40,0x73,0x6b,0x69,0x70,0x70,0x61,0x62,0x6c,0x65,0x46,0x3a,0x0a,0x40,0x77,0x61,0x69,0x74,0x54,0x3a,0x0a,0x40,0x6c,0x69,0x73,0x74,0x5b,0x12,0x6f,0x3a,0x15,0x52,0x50,0x47,0x3a,0x3a,0x4d,0x6f,0x76,0x65,0x43,0x6f,0x6d,0x6d,0x61,0x6e,0x64,0x07,0x3a,0x0a,0x40,0x63,0x6f,0x64,0x65,0x69,0x2a,0x3a,0x10,0x40,0x70,0x61,0x72,0x61,0x6d,0x65,0x74,0x65,0x72,0x73,0x5b,0x00,0x6f,0x3b,0x0a,0x07,0x3b,0x0b,0x69,0x09,0x3b,0x0c,0x5b,0x00,0x6f,0x3b,0x0a,0x07,0x3b,0x0b,0x69,0x09,0x3b,0x0c,0x5b,0x00,0x6f,0x3b,0x0a,0x07,0x3b,0x0b,0x69,0x08,0x3b,0x0c,0x5b,0x00,0x6f,0x3b,0x0a,0x07,0x3b,0x0b,0x69,0x08,0x3b,0x0c,0x5b,0x00,0x6f,0x3b,0x0a,0x07,0x3b,0x0b,0x69,0x08,0x3b,0x0c,0x5b,0x00,0x6f,0x3b,0x0a,0x07,0x3b,0x0b,0x69,0x08,0x3b,0x0c,0x5b,0x00,0x6f,0x3b,0x0a,0x07,0x3b,0x0b,0x69,0x08,0x3b,0x0c,0x5b,0x00,0x6f,0x3b,0x0a,0x07,0x3b,0x0b,0x69,0x09,0x3b,0x0c,0x5b,0x00,0x6f,0x3b,0x0a,0x07,0x3b,0x0b,0x69,0x09,0x3b,0x0c,0x5b,0x00,0x6f,0x3b,0x0a,0x07,0x3b,0x0b,0x69,0x09,0x3b,0x0c,0x5b,0x00,0x6f,0x3b,0x0a,0x07,0x3b,0x0b,0x69,0x09,0x3b,0x0c,0x5b,0x00,0x6f,0x3b,0x0a,0x07,0x3b,0x0b,0x69,0x00,0x3b,0x0c,0x5b,0x00))
  205(0,bytes(0x04,0x08,0x6f,0x3a,0x13,0x52,0x50,0x47,0x3a,0x3a,0x4d,0x6f,0x76,0x65,0x52,0x6f,0x75,0x74,0x65,0x09,0x3a,0x0c,0x40,0x72,0x65,0x70,0x65,0x61,0x74,0x46,0x3a,0x0f,0x40,0x73,0x6b,0x69,0x70,0x70,0x61,0x62,0x6c,0x65,0x46,0x3a,0x0a,0x40,0x77,0x61,0x69,0x74,0x54,0x3a,0x0a,0x40,0x6c,0x69,0x73,0x74,0x5b,0x08,0x6f,0x3a,0x15,0x52,0x50,0x47,0x3a,0x3a,0x4d,0x6f,0x76,0x65,0x43,0x6f,0x6d,0x6d,0x61,0x6e,0x64,0x07,0x3a,0x0a,0x40,0x63,0x6f,0x64,0x65,0x69,0x29,0x3a,0x10,0x40,0x70,0x61,0x72,0x61,0x6d,0x65,0x74,0x65,0x72,0x73,0x5b,0x00,0x6f,0x3b,0x0a,0x07,0x3b,0x0b,0x69,0x15,0x3b,0x0c,0x5b,0x00,0x6f,0x3b,0x0a,0x07,0x3b,0x0b,0x69,0x00,0x3b,0x0c,0x5b,0x00))
  RunCommonEvent(312)
  205(57,bytes(0x04,0x08,0x6f,0x3a,0x13,0x52,0x50,0x47,0x3a,0x3a,0x4d,0x6f,0x76,0x65,0x52,0x6f,0x75,0x74,0x65,0x09,0x3a,0x0c,0x40,0x72,0x65,0x70,0x65,0x61,0x74,0x46,0x3a,0x0f,0x40,0x73,0x6b,0x69,0x70,0x70,0x61,0x62,0x6c,0x65,0x46,0x3a,0x0a,0x40,0x77,0x61,0x69,0x74,0x46,0x3a,0x0a,0x40,0x6c,0x69,0x73,0x74,0x5b,0x14,0x6f,0x3a,0x15,0x52,0x50,0x47,0x3a,0x3a,0x4d,0x6f,0x76,0x65,0x43,0x6f,0x6d,0x6d,0x61,0x6e,0x64,0x07,0x3a,0x0a,0x40,0x63,0x6f,0x64,0x65,0x69,0x06,0x3a,0x10,0x40,0x70,0x61,0x72,0x61,0x6d,0x65,0x74,0x65,0x72,0x73,0x5b,0x00,0x6f,0x3b,0x0a,0x07,0x3b,0x0b,0x69,0x06,0x3b,0x0c,0x5b,0x00,0x6f,0x3b,0x0a,0x07,0x3b,0x0b,0x69,0x06,0x3b,0x0c,0x5b,0x00,0x6f,0x3b,0x0a,0x07,0x3b,0x0b,0x69,0x06,0x3b,0x0c,0x5b,0x00,0x6f,0x3b,0x0a,0x07,0x3b,0x0b,0x69,0x07,0x3b,0x0c,0x5b,0x00,0x6f,0x3b,0x0a,0x07,0x3b,0x0b,0x69,0x07,0x3b,0x0c,0x5b,0x00,0x6f,0x3b,0x0a,0x07,0x3b,0x0b,0x69,0x07,0x3b,0x0c,0x5b,0x00,0x6f,0x3b,0x0a,0x07,0x3b,0x0b,0x69,0x07,0x3b,0x0c,0x5b,0x00,0x6f,0x3b,0x0a,0x07,0x3b,0x0b,0x69,0x07,0x3b,0x0c,0x5b,0x00,0x6f,0x3b,0x0a,0x07,0x3b,0x0b,0x69,0x06,0x3b,0x0c,0x5b,0x00,0x6f,0x3b,0x0a,0x07,0x3b,0x0b,0x69,0x06,0x3b,0x0c,0x5b,0x00,0x6f,0x3b,0x0a,0x07,0x3b,0x0b,0x69,0x06,0x3b,0x0c,0x5b,0x00,0x6f,0x3b,0x0a,0x07,0x3b,0x0b,0x69,0x31,0x3b,0x0c,0x5b,0x06,0x6f,0x3a,0x0c,0x52,0x50,0x47,0x3a,0x3a,0x53,0x45,0x08,0x3a,0x0a,0x40,0x6e,0x61,0x6d,0x65,0x49,0x22,0x09,0x4d,0x6f,0x76,0x65,0x06,0x3a,0x06,0x45,0x54,0x3a,0x0b,0x40,0x70,0x69,0x74,0x63,0x68,0x69,0x69,0x3a,0x0c,0x40,0x76,0x6f,0x6c,0x75,0x6d,0x65,0x69,0x55,0x6f,0x3b,0x0a,0x07,0x3b,0x0b,0x69,0x21,0x3b,0x0c,0x5b,0x06,0x69,0x24,0x6f,0x3b,0x0a,0x07,0x3b,0x0b,0x69,0x00,0x3b,0x0c,0x5b,0x00))
  205(0,bytes(0x04,0x08,0x6f,0x3a,0x13,0x52,0x50,0x47,0x3a,0x3a,0x4d,0x6f,0x76,0x65,0x52,0x6f,0x75,0x74,0x65,0x09,0x3a,0x0c,0x40,0x72,0x65,0x70,0x65,0x61,0x74,0x46,0x3a,0x0f,0x40,0x73,0x6b,0x69,0x70,0x70,0x61,0x62,0x6c,0x65,0x46,0x3a,0x0a,0x40,0x77,0x61,0x69,0x74,0x46,0x3a,0x0a,0x40,0x6c,0x69,0x73,0x74,0x5b,0x15,0x6f,0x3a,0x15,0x52,0x50,0x47,0x3a,0x3a,0x4d,0x6f,0x76,0x65,0x43,0x6f,0x6d,0x6d,0x61,0x6e,0x64,0x07,0x3a,0x0a,0x40,0x63,0x6f,0x64,0x65,0x69,0x2a,0x3a,0x10,0x40,0x70,0x61,0x72,0x61,0x6d,0x65,0x74,0x65,0x72,0x73,0x5b,0x00,0x6f,0x3b,0x0a,0x07,0x3b,0x0b,0x69,0x06,0x3b,0x0c,0x5b,0x00,0x6f,0x3b,0x0a,0x07,0x3b,0x0b,0x69,0x06,0x3b,0x0c,0x5b,0x00,0x6f,0x3b,0x0a,0x07,0x3b,0x0b,0x69,0x06,0x3b,0x0c,0x5b,0x00,0x6f,0x3b,0x0a,0x07,0x3b,0x0b,0x69,0x06,0x3b,0x0c,0x5b,0x00,0x6f,0x3b,0x0a,0x07,0x3b,0x0b,0x69,0x06,0x3b,0x0c,0x5b,0x00,0x6f,0x3b,0x0a,0x07,0x3b,0x0b,0x69,0x07,0x3b,0x0c,0x5b,0x00,0x6f,0x3b,0x0a,0x07,0x3b,0x0b,0x69,0x07,0x3b,0x0c,0x5b,0x00,0x6f,0x3b,0x0a,0x07,0x3b,0x0b,0x69,0x07,0x3b,0x0c,0x5b,0x00,0x6f,0x3b,0x0a,0x07,0x3b,0x0b,0x69,0x07,0x3b,0x0c,0x5b,0x00,0x6f,0x3b,0x0a,0x07,0x3b,0x0b,0x69,0x07,0x3b,0x0c,0x5b,0x00,0x6f,0x3b,0x0a,0x07,0x3b,0x0b,0x69,0x06,0x3b,0x0c,0x5b,0x00,0x6f,0x3b,0x0a,0x07,0x3b,0x0b,0x69,0x06,0x3b,0x0c,0x5b,0x00,0x6f,0x3b,0x0a,0x07,0x3b,0x0b,0x69,0x06,0x3b,0x0c,0x5b,0x00,0x6f,0x3b,0x0a,0x07,0x3b,0x0b,0x69,0x2c,0x3b,0x0c,0x5b,0x00,0x6f,0x3b,0x0a,0x07,0x3b,0x0b,0x69,0x00,0x3b,0x0c,0x5b,0x00))
  RunCommonEvent(313)
  0()
 PAGE   2
  // condition: party contains actor #74
  0()
 PAGE   3
  // condition: party contains actor #75
  0()



EVENT   18
 PAGE   1
  // condition: switch 2060 is ON
  // condition: switch 1525 is ON
  ShowMessageFace("sonia_fc3",3,0,2,1)
  ShowMessage("\\n<Sonya>......")
  ShowMessageFace("",0,0,2,2)
  ShowMessage("\\n<Mermaid>She may look terrible, but her life isn't in danger. She drank a lot of seawater so we healed her up.")
  ShowMessageFace("",2,0,2,3)
  ShowMessage("\\n<Mermaid>This is my first time seeing someone faint with their eyes open, though...")
  0()



EVENT   23
 PAGE   1
  If(1,812,0,2,1)
   If(0,1555,1)
    ShowMessageFace("mob_murabito2_fc1",0,0,2,1)
    ShowMessage("\\n<Teresa>I want to join you too. May I?")
    ShowChoices(strings("Let her join","Decline for now"),0)
    IfPlayerPicksChoice(0,null)
     ShowMessageFace("mob_murabito2_fc1",0,0,2,2)
     ShowMessage("\\n<Teresa>Please take care of me.")
     PictureClear(5)
     205(0,bytes(0x04,0x08,0x6f,0x3a,0x13,0x52,0x50,0x47,0x3a,0x3a,0x4d,0x6f,0x76,0x65,0x52,0x6f,0x75,0x74,0x65,0x09,0x3a,0x0c,0x40,0x72,0x65,0x70,0x65,0x61,0x74,0x46,0x3a,0x0f,0x40,0x73,0x6b,0x69,0x70,0x70,0x61,0x62,0x6c,0x65,0x46,0x3a,0x0a,0x40,0x77,0x61,0x69,0x74,0x54,0x3a,0x0a,0x40,0x6c,0x69,0x73,0x74,0x5b,0x09,0x6f,0x3a,0x15,0x52,0x50,0x47,0x3a,0x3a,0x4d,0x6f,0x76,0x65,0x43,0x6f,0x6d,0x6d,0x61,0x6e,0x64,0x07,0x3a,0x0a,0x40,0x63,0x6f,0x64,0x65,0x69,0x2a,0x3a,0x10,0x40,0x70,0x61,0x72,0x61,0x6d,0x65,0x74,0x65,0x72,0x73,0x5b,0x00,0x6f,0x3b,0x0a,0x07,0x3b,0x0b,0x69,0x0f,0x3b,0x0c,0x5b,0x00,0x6f,0x3b,0x0a,0x07,0x3b,0x0b,0x69,0x2c,0x3b,0x0c,0x5b,0x00,0x6f,0x3b,0x0a,0x07,0x3b,0x0b,0x69,0x00,0x3b,0x0c,0x5b,0x00))
     355("add_actor_ex(555)")
     249(bytes(0x04,0x08,0x6f,0x3a,0x0c,0x52,0x50,0x47,0x3a,0x3a,0x4d,0x45,0x08,0x3a,0x0a,0x40,0x6e,0x61,0x6d,0x65,0x49,0x22,0x0c,0x66,0x61,0x6e,0x66,0x61,0x6c,0x65,0x06,0x3a,0x06,0x45,0x54,0x3a,0x0b,0x40,0x70,0x69,0x74,0x63,0x68,0x69,0x69,0x3a,0x0c,0x40,0x76,0x6f,0x6c,0x75,0x6d,0x65,0x69,0x69))
     ShowMessageFace("",0,0,2,3)
     ShowMessage("Teresa joined the party!")
     Wait(60)
     EndEventProcessing()
     0()
    IfPlayerPicksChoice(1,null)
     ShowMessageFace("mob_murabito2_fc1",0,0,2,4)
     ShowMessage("\\n<Teresa>*sad*...")
     0()
    404()
    0()
   EndIf()
   0()
  EndIf()
  RunCommonEvent(7111)
  0()
 PAGE   2
  // condition: party contains actor #555
  0()