
DisplayName "Pocket Castle Barracks"



EVENT   2
 PAGE   1
  0()



EVENT   3
 PAGE   1
  0()



EVENT   4
 PAGE   1
  0()



EVENT   5
 PAGE   1
  0()



EVENT   6
 PAGE   1
  0()



EVENT   7
 PAGE   1
  0()



EVENT   1
 PAGE   1
  281(0)
  250(bytes(0x04,0x08,0x6f,0x3a,0x0c,0x52,0x50,0x47,0x3a,0x3a,0x53,0x45,0x08,0x3a,0x0a,0x40,0x6e,0x61,0x6d,0x65,0x49,0x22,0x09,0x4d,0x6f,0x76,0x65,0x06,0x3a,0x06,0x45,0x54,0x3a,0x0b,0x40,0x70,0x69,0x74,0x63,0x68,0x69,0x69,0x3a,0x0c,0x40,0x76,0x6f,0x6c,0x75,0x6d,0x65,0x69,0x55))
  TeleportPlayer(0,229,1,14,6,0)
  0()



EVENT   14
 PAGE   1
  281(0)
  250(bytes(0x04,0x08,0x6f,0x3a,0x0c,0x52,0x50,0x47,0x3a,0x3a,0x53,0x45,0x08,0x3a,0x0a,0x40,0x6e,0x61,0x6d,0x65,0x49,0x22,0x09,0x4d,0x6f,0x76,0x65,0x06,0x3a,0x06,0x45,0x54,0x3a,0x0b,0x40,0x70,0x69,0x74,0x63,0x68,0x69,0x69,0x3a,0x0c,0x40,0x76,0x6f,0x6c,0x75,0x6d,0x65,0x69,0x55))
  TeleportPlayer(0,272,12,5,0,0)
  0()



EVENT   17
 PAGE   1
  281(0)
  250(bytes(0x04,0x08,0x6f,0x3a,0x0c,0x52,0x50,0x47,0x3a,0x3a,0x53,0x45,0x08,0x3a,0x0a,0x40,0x6e,0x61,0x6d,0x65,0x49,0x22,0x09,0x4d,0x6f,0x76,0x65,0x06,0x3a,0x06,0x45,0x54,0x3a,0x0b,0x40,0x70,0x69,0x74,0x63,0x68,0x69,0x69,0x3a,0x0c,0x40,0x76,0x6f,0x6c,0x75,0x6d,0x65,0x69,0x55))
  TeleportPlayer(0,276,26,17,0,0)
  0()



EVENT   15
 PAGE   1
  281(0)
  250(bytes(0x04,0x08,0x6f,0x3a,0x0c,0x52,0x50,0x47,0x3a,0x3a,0x53,0x45,0x08,0x3a,0x0a,0x40,0x6e,0x61,0x6d,0x65,0x49,0x22,0x09,0x4d,0x6f,0x76,0x65,0x06,0x3a,0x06,0x45,0x54,0x3a,0x0b,0x40,0x70,0x69,0x74,0x63,0x68,0x69,0x69,0x3a,0x0c,0x40,0x76,0x6f,0x6c,0x75,0x6d,0x65,0x69,0x55))
  TeleportPlayer(0,272,12,5,0,0)
  0()



EVENT   16
 PAGE   1
  281(0)
  250(bytes(0x04,0x08,0x6f,0x3a,0x0c,0x52,0x50,0x47,0x3a,0x3a,0x53,0x45,0x08,0x3a,0x0a,0x40,0x6e,0x61,0x6d,0x65,0x49,0x22,0x09,0x4d,0x6f,0x76,0x65,0x06,0x3a,0x06,0x45,0x54,0x3a,0x0b,0x40,0x70,0x69,0x74,0x63,0x68,0x69,0x69,0x3a,0x0c,0x40,0x76,0x6f,0x6c,0x75,0x6d,0x65,0x69,0x55))
  TeleportPlayer(0,272,12,5,0,0)
  0()



EVENT   18
 PAGE   1
  281(0)
  250(bytes(0x04,0x08,0x6f,0x3a,0x0c,0x52,0x50,0x47,0x3a,0x3a,0x53,0x45,0x08,0x3a,0x0a,0x40,0x6e,0x61,0x6d,0x65,0x49,0x22,0x09,0x4d,0x6f,0x76,0x65,0x06,0x3a,0x06,0x45,0x54,0x3a,0x0b,0x40,0x70,0x69,0x74,0x63,0x68,0x69,0x69,0x3a,0x0c,0x40,0x76,0x6f,0x6c,0x75,0x6d,0x65,0x69,0x55))
  TeleportPlayer(0,276,27,17,0,0)
  0()



EVENT   8
 PAGE   1
  281(0)
  250(bytes(0x04,0x08,0x6f,0x3a,0x0c,0x52,0x50,0x47,0x3a,0x3a,0x53,0x45,0x08,0x3a,0x0a,0x40,0x6e,0x61,0x6d,0x65,0x49,0x22,0x09,0x4d,0x6f,0x76,0x65,0x06,0x3a,0x06,0x45,0x54,0x3a,0x0b,0x40,0x70,0x69,0x74,0x63,0x68,0x69,0x69,0x3a,0x0c,0x40,0x76,0x6f,0x6c,0x75,0x6d,0x65,0x69,0x55))
  TeleportPlayer(0,229,1,14,6,0)
  0()



EVENT   9
 PAGE   1
  281(0)
  250(bytes(0x04,0x08,0x6f,0x3a,0x0c,0x52,0x50,0x47,0x3a,0x3a,0x53,0x45,0x08,0x3a,0x0a,0x40,0x6e,0x61,0x6d,0x65,0x49,0x22,0x09,0x4d,0x6f,0x76,0x65,0x06,0x3a,0x06,0x45,0x54,0x3a,0x0b,0x40,0x70,0x69,0x74,0x63,0x68,0x69,0x69,0x3a,0x0c,0x40,0x76,0x6f,0x6c,0x75,0x6d,0x65,0x69,0x55))
  TeleportPlayer(0,229,1,14,6,0)
  0()



EVENT   10
 PAGE   1
  281(0)
  250(bytes(0x04,0x08,0x6f,0x3a,0x0c,0x52,0x50,0x47,0x3a,0x3a,0x53,0x45,0x08,0x3a,0x0a,0x40,0x6e,0x61,0x6d,0x65,0x49,0x22,0x09,0x4d,0x6f,0x76,0x65,0x06,0x3a,0x06,0x45,0x54,0x3a,0x0b,0x40,0x70,0x69,0x74,0x63,0x68,0x69,0x69,0x3a,0x0c,0x40,0x76,0x6f,0x6c,0x75,0x6d,0x65,0x69,0x55))
  TeleportPlayer(0,229,1,14,6,0)
  0()



EVENT   11
 PAGE   1
  281(0)
  250(bytes(0x04,0x08,0x6f,0x3a,0x0c,0x52,0x50,0x47,0x3a,0x3a,0x53,0x45,0x08,0x3a,0x0a,0x40,0x6e,0x61,0x6d,0x65,0x49,0x22,0x09,0x4d,0x6f,0x76,0x65,0x06,0x3a,0x06,0x45,0x54,0x3a,0x0b,0x40,0x70,0x69,0x74,0x63,0x68,0x69,0x69,0x3a,0x0c,0x40,0x76,0x6f,0x6c,0x75,0x6d,0x65,0x69,0x55))
  TeleportPlayer(0,229,1,14,6,0)
  0()



EVENT   12
 PAGE   1
  281(0)
  250(bytes(0x04,0x08,0x6f,0x3a,0x0c,0x52,0x50,0x47,0x3a,0x3a,0x53,0x45,0x08,0x3a,0x0a,0x40,0x6e,0x61,0x6d,0x65,0x49,0x22,0x09,0x4d,0x6f,0x76,0x65,0x06,0x3a,0x06,0x45,0x54,0x3a,0x0b,0x40,0x70,0x69,0x74,0x63,0x68,0x69,0x69,0x3a,0x0c,0x40,0x76,0x6f,0x6c,0x75,0x6d,0x65,0x69,0x55))
  TeleportPlayer(0,229,1,14,6,0)
  0()



EVENT   13
 PAGE   1
  281(0)
  250(bytes(0x04,0x08,0x6f,0x3a,0x0c,0x52,0x50,0x47,0x3a,0x3a,0x53,0x45,0x08,0x3a,0x0a,0x40,0x6e,0x61,0x6d,0x65,0x49,0x22,0x09,0x4d,0x6f,0x76,0x65,0x06,0x3a,0x06,0x45,0x54,0x3a,0x0b,0x40,0x70,0x69,0x74,0x63,0x68,0x69,0x69,0x3a,0x0c,0x40,0x76,0x6f,0x6c,0x75,0x6d,0x65,0x69,0x55))
  TeleportPlayer(0,229,1,14,6,0)
  0()



EVENT   20
 PAGE   1
  RunCommonEvent(111)
  0()



EVENT   19
 PAGE   1
  // condition: switch 1529 is ON
  PictureDisplay(5,"80_sara_st01",0,0,0,0,100,100,0,0)
  PictureMove(5,null,0,0,0,0,100,100,255,0,30,true)
  If(1,3529,0,100,1)
   If(1,4529,0,0,0)
    ChangeVariable(4529,4529,0,0,1)
    ShowMessageFace("sara_fc1",1,0,2,1)
    ShowMessage("\\n<Sara (Affection:\\V[3529])>Here, take this, Luka. I've been in your care in many different ways, right?")
    250(bytes(0x04,0x08,0x6f,0x3a,0x0c,0x52,0x50,0x47,0x3a,0x3a,0x53,0x45,0x08,0x3a,0x0a,0x40,0x6e,0x61,0x6d,0x65,0x49,0x22,0x0a,0x49,0x74,0x65,0x6d,0x31,0x06,0x3a,0x06,0x45,0x54,0x3a,0x0b,0x40,0x70,0x69,0x74,0x63,0x68,0x69,0x69,0x3a,0x0c,0x40,0x76,0x6f,0x6c,0x75,0x6d,0x65,0x69,0x55))
    ChangeInventoryArmor(1145,0,0,1,false)
    0()
   EndIf()
   0()
  EndIf()
  If(1,3529,0,500,1)
   If(1,4529,0,1,0)
    ChangeVariable(4529,4529,0,0,2)
    ShowMessageFace("sara_fc1",1,0,2,2)
    ShowMessage("\\n<Sara (Affection:\\V[3529])>Here, take this, Luka. I've been in your care in many different ways, right?")
    250(bytes(0x04,0x08,0x6f,0x3a,0x0c,0x52,0x50,0x47,0x3a,0x3a,0x53,0x45,0x08,0x3a,0x0a,0x40,0x6e,0x61,0x6d,0x65,0x49,0x22,0x0a,0x49,0x74,0x65,0x6d,0x31,0x06,0x3a,0x06,0x45,0x54,0x3a,0x0b,0x40,0x70,0x69,0x74,0x63,0x68,0x69,0x69,0x3a,0x0c,0x40,0x76,0x6f,0x6c,0x75,0x6d,0x65,0x69,0x55))
    ChangeInventoryArmor(1736,0,0,1,false)
    0()
   EndIf()
   0()
  EndIf()
  If(1,3529,0,2000,1)
   If(1,4529,0,2,0)
    ChangeVariable(4529,4529,0,0,3)
    ShowMessageFace("sara_fc1",1,0,2,3)
    ShowMessage("\\n<Sara (Affection:\\V[3529])>Here, take this, Luka. I've been in your care in many different ways, right?")
    250(bytes(0x04,0x08,0x6f,0x3a,0x0c,0x52,0x50,0x47,0x3a,0x3a,0x53,0x45,0x08,0x3a,0x0a,0x40,0x6e,0x61,0x6d,0x65,0x49,0x22,0x0a,0x49,0x74,0x65,0x6d,0x31,0x06,0x3a,0x06,0x45,0x54,0x3a,0x0b,0x40,0x70,0x69,0x74,0x63,0x68,0x69,0x69,0x3a,0x0c,0x40,0x76,0x6f,0x6c,0x75,0x6d,0x65,0x69,0x55))
    ChangeInventoryArmor(1118,0,0,1,false)
    0()
   EndIf()
   0()
  EndIf()
  If(1,3529,0,4000,1)
   If(1,4529,0,3,0)
    ChangeVariable(4529,4529,0,0,4)
    ShowMessageFace("sara_fc1",1,0,2,4)
    ShowMessage("\\n<Sara (Affection:\\V[3529])>Here, take this, Luka. I've been in your care in many different ways, right?")
    250(bytes(0x04,0x08,0x6f,0x3a,0x0c,0x52,0x50,0x47,0x3a,0x3a,0x53,0x45,0x08,0x3a,0x0a,0x40,0x6e,0x61,0x6d,0x65,0x49,0x22,0x0a,0x49,0x74,0x65,0x6d,0x31,0x06,0x3a,0x06,0x45,0x54,0x3a,0x0b,0x40,0x70,0x69,0x74,0x63,0x68,0x69,0x69,0x3a,0x0c,0x40,0x76,0x6f,0x6c,0x75,0x6d,0x65,0x69,0x55))
    ChangeInventoryArmor(1623,0,0,1,false)
    0()
   EndIf()
   0()
  EndIf()
  355("actor_label_jump")
  ShowMessageFace("sara_fc1",1,0,2,5)
  ShowMessage("\\n<Sara (Affection:\\V[3529])>My succubus powers have been sealed for a while! But it'll be a problem if I can't learn how to control them.")
  JumpToLabel("メニュー")
  DefineLabel("132")
  ShowMessageFace("zonbe_fc2",0,0,2,6)
  ShowMessage("\\n<Eri (Affection:\\V[3132])>Her majesty, the Queen of Sabasa... In life, I was a soldier who served the Sabasa royal family...")
  ShowMessageFace("sara_fc1",1,0,2,7)
  ShowMessage("\\n<Sara (Affection:\\V[3529])>I thank you for your loyalty. Will you fight alongside me in the future?")
  ShowMessageFace("zonbe_fc2",0,0,2,8)
  ShowMessage("\\n<Eri (Affection:\\V[3132])>Gladly... My loyalty continues in death...")
  JumpToLabel("メニュー")
  DefineLabel("156")
  ShowMessageFace("sara_fc1",4,0,2,9)
  ShowMessage("\\n<Sara (Affection:\\V[3529])>Th-that armor...")
  ShowMessageFace("d_fighter_fc1",3,0,2,10)
  ShowMessage("\\n<Regina (Affection:\\V[3156])>Hmph. It's horrible and slutty, right?")
  ShowMessageFace("sara_fc1",1,0,2,11)
  ShowMessage("\\n<Sara (Affection:\\V[3529])>It's wonderful!")
  ShowMessageFace("d_fighter_fc1",0,0,2,12)
  ShowMessage("\\n<Regina (Affection:\\V[3156])>...Huh?")
  JumpToLabel("メニュー")
  DefineLabel("163")
  ShowMessageFace("lily_fc1",3,0,2,13)
  ShowMessage("\\n<Lily (Affection:\\V[3163])>Oh, princess. Is there something you want to say to me?")
  ShowMessageFace("sara_fc1",4,0,2,14)
  ShowMessage("\\n<Sara (Affection:\\V[3529])>Lily... My father... Do you have a grudge against the King of Sabasa?")
  ShowMessageFace("lily_fc1",5,0,2,15)
  ShowMessage("\\n<Lily (Affection:\\V[3163])>He was a politician. He had no choice but to do nothing. But it was we who paid the price.")
  ShowMessageFace("sara_fc1",4,0,2,16)
  ShowMessage("\\n<Sara (Affection:\\V[3529])>I'm sorry.")
  ShowMessageFace("lily_fc1",3,0,2,17)
  ShowMessage("\\n<Lily (Affection:\\V[3163])>There's no need for you to personally apologize. You were a little girl with no say in the matter.")
  ShowMessageFace("sara_fc1",1,0,2,18)
  ShowMessage("\\n<Sara (Affection:\\V[3529])>Yeah... Well, while you're here, you're my friend. It's a pleasure, Lily.")
  ShowMessageFace("lily_fc1",3,0,2,19)
  ShowMessage("\\n<Lily (Affection:\\V[3163])>Fufuu... It's a pleasure.")
  JumpToLabel("メニュー")
  DefineLabel("525")
  ShowMessageFace("sara_fc1",1,0,2,20)
  ShowMessage("\\n<Sara (Affection:\\V[3529])>Oh, Sonya. Have you had the rice in the dining room?")
  ShowMessageFace("sonia_fc1",0,0,2,21)
  ShowMessage("\\n<Sonya (Affection:\\V[3525])>Yup! I had it in their new dish, the salmon bowl.")
  ShowMessageFace("ruka_fc1",0,0,2,22)
  ShowMessage("\\n<Luka>Sonya, Sara, you two seem to get along.")
  ShowMessageFace("sonia_fc1",0,0,2,23)
  ShowMessage("\\n<Sonya (Affection:\\V[3525])>There weren't any girls my age in the village. She's like the friend I never had.")
  ShowMessageFace("sara_fc1",1,0,2,24)
  ShowMessage("\\n<Sara (Affection:\\V[3529])>The same goes for me. I guess you could say we're girlfriends.")
  ShowMessageFace("sonia_fc3",2,0,2,25)
  ShowMessage("\\n<Sonya (Affection:\\V[3525])>Yeah. ...Huh?!")
  ShowMessageFace("ruka_fc1",0,0,2,26)
  ShowMessage("\\n<Luka>Huh?!")
  ShowMessageFace("sara_fc1",3,0,2,27)
  ShowMessage("\\n<Sara (Affection:\\V[3529])>Huh?")
  JumpToLabel("メニュー")
  DefineLabel("531")
  ShowMessageFace("saniria_fc2",0,0,2,28)
  ShowMessage("\\n<King of San Ilia (Affection:\\V[3531])>Oh my, the Princess of Sabasa... No, you're the Queen now, aren't you. Your father told me to look after you if something were to happen with him.")
  ShowMessageFace("sara_fc1",3,0,2,29)
  ShowMessage("\\n<Sara (Affection:\\V[3529])>It has been quite a while, King of San Ilia. By 'if something were to happen,' did he mean... in case he died?")
  ShowMessageFace("saniria_fc2",0,0,2,30)
  ShowMessage("\\n<King of San Ilia (Affection:\\V[3531])>No, he meant in case he ran away from home or left for an adventure. That kind of thing.")
  ShowMessageFace("sara_fc1",4,0,2,31)
  ShowMessage("\\n<Sara (Affection:\\V[3529])>Father... Are you a kid...?")
  JumpToLabel("メニュー")
  DefineLabel("533")
  ShowMessageFace("sara_fc1",1,0,2,32)
  ShowMessage("\\n<Sara (Affection:\\V[3529])>The Queen of Grand Noah. Long time no see.")
  ShowMessageFace("grandnoa_fc1",0,0,2,33)
  ShowMessage("\\n<Queen of Grand Noah (Affection:\\V[3533])>Oh my, who have you mistaken me for? I am just a mysterious medal queen.")
  ShowMessageFace("sara_fc1",4,0,2,34)
  ShowMessage("\\n<Sara (Affection:\\V[3529])>You're that determined to keep up your persona?")
  JumpToLabel("メニュー")
  DefineLabel("メニュー")
  StartLoop()
   355("unlimited_choices(11, [\"Give presents\",")
   655("\"Add to party\",")
   655("\"View present list\",\"Request\",")
   655("\"Never mind\"])")
   If(1,11,0,0,0)
    355("present_start(529)")
    0()
   EndIf()
   If(1,11,0,1,0)
    PictureClear(5)
    355("move_actor_ex(529)")
    EndEventProcessing()
    0()
   EndIf()
   If(1,11,0,2,0)
    ShowMessageFace("",0,0,2,35)
    ShowMessage("Affection  100:\\ia[145]")
    ShowMessage("Affection  500:\\ia[1736]")
    ShowMessage("Affection 2000:\\ia[1118]")
    ShowMessage("Affection 4000:\\ia[1623]")
    0()
   EndIf()
   If(1,11,0,3,0)
    PictureClear(5)
    ShowMessageFace("",0,0,2,36)
    ShowMessage("Ask her for what? (Affection:\\V[3529])")
    ShowChoices(strings("Blowjob(Affection:10)","Reverse Rape(Affection:100)","Never mind"),3)
    IfPlayerPicksChoice(0,null)
     If(1,3529,0,10,1)
      355("call_novel_scene(4072)")
      EndEventProcessing()
      0()
     Else()
      ShowMessageFace("sara_fc1",4,0,2,37)
      ShowMessage("\\n<Sara (Affection:\\V[3529])>Sorry, but I need to mind appearances. ...Maybe when we're closer, okay?")
      0()
     EndIf()
     0()
    IfPlayerPicksChoice(1,null)
     If(1,3529,0,20,1)
      355("call_novel_scene(4073)")
      EndEventProcessing()
      0()
     Else()
      ShowMessageFace("sara_fc1",4,0,2,38)
      ShowMessage("\\n<Sara (Affection:\\V[3529])>Sorry, but I need to mind appearances. ...Maybe when we're closer, okay?")
      0()
     EndIf()
     0()
    IfPlayerPicksChoice(2,null)
     0()
    404()
    0()
   EndIf()
   If(1,11,0,4,1)
    PictureClear(5)
    EndEventProcessing()
    0()
   EndIf()
   0()
  EndLoop()
  0()
 PAGE   2
  // condition: party contains actor #529
  0()



EVENT   21
 PAGE   1
  // condition: switch 1156 is ON
  PictureDisplay(5,"80_d_fighter_st01",0,0,0,0,100,100,0,0)
  PictureMove(5,null,0,0,0,0,100,100,255,0,30,true)
  If(1,3156,0,10,1)
   If(1,4156,0,0,0)
    ChangeVariable(4156,4156,0,0,1)
    ShowMessageFace("d_fighter_fc1",2,0,2,1)
    ShowMessage("\\n<Regina (Affection:\\V[3156])>U-umm... This... isn't easy, so please take it.")
    250(bytes(0x04,0x08,0x6f,0x3a,0x0c,0x52,0x50,0x47,0x3a,0x3a,0x53,0x45,0x08,0x3a,0x0a,0x40,0x6e,0x61,0x6d,0x65,0x49,0x22,0x0a,0x49,0x74,0x65,0x6d,0x31,0x06,0x3a,0x06,0x45,0x54,0x3a,0x0b,0x40,0x70,0x69,0x74,0x63,0x68,0x69,0x69,0x3a,0x0c,0x40,0x76,0x6f,0x6c,0x75,0x6d,0x65,0x69,0x55))
    ChangeInventoryWeapon(94,0,0,1,false)
    0()
   EndIf()
   0()
  EndIf()
  If(1,3156,0,100,1)
   If(1,4156,0,1,0)
    ChangeVariable(4156,4156,0,0,2)
    ShowMessageFace("d_fighter_fc1",2,0,2,2)
    ShowMessage("\\n<Regina (Affection:\\V[3156])>U-umm... This... isn't easy, so please take it.")
    250(bytes(0x04,0x08,0x6f,0x3a,0x0c,0x52,0x50,0x47,0x3a,0x3a,0x53,0x45,0x08,0x3a,0x0a,0x40,0x6e,0x61,0x6d,0x65,0x49,0x22,0x0a,0x49,0x74,0x65,0x6d,0x31,0x06,0x3a,0x06,0x45,0x54,0x3a,0x0b,0x40,0x70,0x69,0x74,0x63,0x68,0x69,0x69,0x3a,0x0c,0x40,0x76,0x6f,0x6c,0x75,0x6d,0x65,0x69,0x55))
    ChangeInventoryArmor(1145,0,0,1,false)
    0()
   EndIf()
   0()
  EndIf()
  If(1,3156,0,500,1)
   If(1,4156,0,2,0)
    ChangeVariable(4156,4156,0,0,3)
    ShowMessageFace("d_fighter_fc1",2,0,2,3)
    ShowMessage("\\n<Regina (Affection:\\V[3156])>U-umm... This... isn't easy, so please take it.")
    250(bytes(0x04,0x08,0x6f,0x3a,0x0c,0x52,0x50,0x47,0x3a,0x3a,0x53,0x45,0x08,0x3a,0x0a,0x40,0x6e,0x61,0x6d,0x65,0x49,0x22,0x0a,0x49,0x74,0x65,0x6d,0x31,0x06,0x3a,0x06,0x45,0x54,0x3a,0x0b,0x40,0x70,0x69,0x74,0x63,0x68,0x69,0x69,0x3a,0x0c,0x40,0x76,0x6f,0x6c,0x75,0x6d,0x65,0x69,0x55))
    ChangeInventoryArmor(1285,0,0,1,false)
    0()
   EndIf()
   0()
  EndIf()
  If(1,3156,0,2000,1)
   If(1,4156,0,3,0)
    ChangeVariable(4156,4156,0,0,4)
    ShowMessageFace("d_fighter_fc1",2,0,2,4)
    ShowMessage("\\n<Regina (Affection:\\V[3156])>U-umm... This... isn't easy, so please take it.")
    250(bytes(0x04,0x08,0x6f,0x3a,0x0c,0x52,0x50,0x47,0x3a,0x3a,0x53,0x45,0x08,0x3a,0x0a,0x40,0x6e,0x61,0x6d,0x65,0x49,0x22,0x0a,0x49,0x74,0x65,0x6d,0x31,0x06,0x3a,0x06,0x45,0x54,0x3a,0x0b,0x40,0x70,0x69,0x74,0x63,0x68,0x69,0x69,0x3a,0x0c,0x40,0x76,0x6f,0x6c,0x75,0x6d,0x65,0x69,0x55))
    ChangeInventoryArmor(1018,0,0,1,false)
    0()
   EndIf()
   0()
  EndIf()
  355("actor_label_jump")
  ShowMessageFace("d_fighter_fc1",0,0,2,5)
  ShowMessage("\\n<Regina (Affection:\\V[3156])>I would love to do something about my embarrassing outfit, but my clan passed this armor down to me. I have to wear it.")
  JumpToLabel("メニュー")
  DefineLabel("95")
  ShowMessageFace("delh_a_fc1",0,0,2,6)
  ShowMessage("\\n<Lona (Affection:\\V[3095])>You seem to be an excellent warrior. (But you're dressed like a slut...)")
  ShowMessageFace("d_fighter_fc1",3,0,2,7)
  ShowMessage("\\n<Regina (Affection:\\V[3156])>I could say the same about you. (Whoa, it's a pervert elf. Pervelf for short.)")
  ShowMessageFace("delh_a_fc1",0,0,2,8)
  ShowMessage("\\n<Lona (Affection:\\V[3095])>Want to be my sparring partner for a bit? (Look at yourself. Have you no shame?)")
  ShowMessageFace("d_fighter_fc1",3,0,2,9)
  ShowMessage("\\n<Regina (Affection:\\V[3156])>As you wish. Here I come! (This pervert is completely exposed. She goes outside dressed like that?)")
  JumpToLabel("メニュー")
  DefineLabel("101")
  ShowMessageFace("d_fighter_fc1",0,0,2,10)
  ShowMessage("\\n<Regina (Affection:\\V[3156])>(This woman is only wearing a shirt. Her bottom half is completely naked.　Why am I the one who gets treated like a slut?)")
  ShowMessageFace("cent2_fc1",0,0,2,11)
  ShowMessage("\\n<Lihitinu (Affection:\\V[3101])>Judging from your expression, you aren't thinking nice things...")
  JumpToLabel("メニュー")
  DefineLabel("132")
  ShowMessageFace("zonbe_fc2",0,0,2,12)
  ShowMessage("\\n<Eri (Affection:\\V[3132])>Ah... Uhh...")
  ShowMessageFace("d_fighter_fc1",0,0,2,13)
  ShowMessage("\\n<Regina (Affection:\\V[3156])>I wonder, would I still wander around in this outfit if I became undead...? Well, being a zombie, at least I'd stop being embarrassed.")
  ShowMessageFace("zonbe_fc2",0,0,2,14)
  ShowMessage("\\n<Eri (Affection:\\V[3132])>...What a shameful appearance...")
  ShowMessageFace("d_fighter_fc1",3,0,2,15)
  ShowMessage("\\n<Regina (Affection:\\V[3156])>W-what?! I don't want to be told that by a zombie!")
  JumpToLabel("メニュー")
  DefineLabel("143")
  ShowMessageFace("eva_fc1",2,0,2,16)
  ShowMessage("\\n<Eva (Affection:\\V[3143])>Wow! What a perverted outfit!")
  ShowMessageFace("d_fighter_fc1",3,0,2,17)
  ShowMessage("\\n<Regina (Affection:\\V[3156])>Y-you're pretty exposed too!")
  ShowMessageFace("eva_fc1",2,0,2,18)
  ShowMessage("\\n<Eva (Affection:\\V[3143])>Are you broke?")
  ShowMessageFace("d_fighter_fc1",3,0,2,19)
  ShowMessage("\\n<Regina (Affection:\\V[3156])>Money isn't the problem! This is a combat uniform passed down from generation to generation by my ancestors!")
  ShowMessageFace("eva_fc1",0,0,2,20)
  ShowMessage("\\n<Eva (Affection:\\V[3143])>So it's ancestral... Why not sell it?")
  ShowMessageFace("d_fighter_fc1",0,0,2,21)
  ShowMessage("\\n<Regina (Affection:\\V[3156])>(This succubus moves at her own pace, huh?)")
  JumpToLabel("メニュー")
  DefineLabel("529")
  ShowMessageFace("sara_fc1",4,0,2,22)
  ShowMessage("\\n<Sara (Affection:\\V[3529])>Th-that armor...")
  ShowMessageFace("d_fighter_fc1",3,0,2,23)
  ShowMessage("\\n<Regina (Affection:\\V[3156])>Hmph. It's horrible and slutty, right?")
  ShowMessageFace("sara_fc1",1,0,2,24)
  ShowMessage("\\n<Sara (Affection:\\V[3529])>It's wonderful!")
  ShowMessageFace("d_fighter_fc1",0,0,2,25)
  ShowMessage("\\n<Regina (Affection:\\V[3156])>...Huh?")
  JumpToLabel("メニュー")
  DefineLabel("メニュー")
  StartLoop()
   355("unlimited_choices(11, [\"Give presents\",")
   655("\"Add to party\",")
   655("\"View present list\",\"Request\",")
   655("\"Never mind\"])")
   If(1,11,0,0,0)
    355("present_start(156)")
    0()
   EndIf()
   If(1,11,0,1,0)
    PictureClear(5)
    355("move_actor_ex(156)")
    EndEventProcessing()
    0()
   EndIf()
   If(1,11,0,2,0)
    ShowMessageFace("",0,0,2,26)
    ShowMessage("Affection   10:\\iw[94]")
    ShowMessage("Affection  100:\\ia[1145]")
    ShowMessage("Affection  500:\\ia[1285]")
    ShowMessage("Affection 2000:\\ia[1018]")
    0()
   EndIf()
   If(1,11,0,3,0)
    PictureClear(5)
    ShowMessageFace("",0,0,2,27)
    ShowMessage("Ask her for what? (Affection:\\V[3156])")
    ShowChoices(strings("Blowjob(Affection:10)","Reverse Rape(Affection:100)","Never mind"),3)
    IfPlayerPicksChoice(0,null)
     If(1,3156,0,10,1)
      355("call_novel_scene(4581)")
      EndEventProcessing()
      0()
     Else()
      ShowMessageFace("d_fighter_fc1",0,0,2,28)
      ShowMessage("\\n<Regina (Affection:\\V[3156])>Th-that kind of thing is... I don't know...")
      0()
     EndIf()
     0()
    IfPlayerPicksChoice(1,null)
     If(1,3156,0,100,1)
      355("call_novel_scene(4582)")
      EndEventProcessing()
      0()
     Else()
      ShowMessageFace("d_fighter_fc1",0,0,2,29)
      ShowMessage("\\n<Regina (Affection:\\V[3156])>Th-that kind of thing is... I don't know...")
      0()
     EndIf()
     0()
    IfPlayerPicksChoice(2,null)
     0()
    404()
    0()
   EndIf()
   If(1,11,0,4,1)
    PictureClear(5)
    EndEventProcessing()
    0()
   EndIf()
   0()
  EndLoop()
  0()
 PAGE   2
  // condition: party contains actor #156
  0()



EVENT   22
 PAGE   1
  // condition: switch 1106 is ON
  PictureDisplay(5,"80_nanabi_st01",0,0,0,0,100,100,0,0)
  PictureMove(5,null,0,0,0,0,100,100,255,0,30,true)
  If(1,3106,0,500,1)
   If(1,4106,0,0,0)
    ChangeVariable(4106,4106,0,0,1)
    ShowMessageFace("nanabi_fc1",0,0,2,1)
    ShowMessage("\\n<Nanabi (Affection:\\V[3106])>Don't be shy; please accept this. Let's continue to improve our relationship from now on.")
    250(bytes(0x04,0x08,0x6f,0x3a,0x0c,0x52,0x50,0x47,0x3a,0x3a,0x53,0x45,0x08,0x3a,0x0a,0x40,0x6e,0x61,0x6d,0x65,0x49,0x22,0x0a,0x49,0x74,0x65,0x6d,0x31,0x06,0x3a,0x06,0x45,0x54,0x3a,0x0b,0x40,0x70,0x69,0x74,0x63,0x68,0x69,0x69,0x3a,0x0c,0x40,0x76,0x6f,0x6c,0x75,0x6d,0x65,0x69,0x55))
    ChangeInventoryArmor(1086,0,0,1,false)
    0()
   EndIf()
   0()
  EndIf()
  If(1,3106,0,2000,1)
   If(1,4106,0,1,0)
    ChangeVariable(4106,4106,0,0,2)
    ShowMessageFace("nanabi_fc1",0,0,2,2)
    ShowMessage("\\n<Nanabi (Affection:\\V[3106])>Don't be shy; please accept this. Let's continue to improve our relationship from now on.")
    250(bytes(0x04,0x08,0x6f,0x3a,0x0c,0x52,0x50,0x47,0x3a,0x3a,0x53,0x45,0x08,0x3a,0x0a,0x40,0x6e,0x61,0x6d,0x65,0x49,0x22,0x0a,0x49,0x74,0x65,0x6d,0x31,0x06,0x3a,0x06,0x45,0x54,0x3a,0x0b,0x40,0x70,0x69,0x74,0x63,0x68,0x69,0x69,0x3a,0x0c,0x40,0x76,0x6f,0x6c,0x75,0x6d,0x65,0x69,0x55))
    ChangeInventoryArmor(1192,0,0,1,false)
    0()
   EndIf()
   0()
  EndIf()
  If(1,3106,0,4000,1)
   If(1,4106,0,2,0)
    ChangeVariable(4106,4106,0,0,3)
    ShowMessageFace("nanabi_fc1",0,0,2,3)
    ShowMessage("\\n<Nanabi (Affection:\\V[3106])>Don't be shy; please accept this. Let's continue to improve our relationship from now on.")
    250(bytes(0x04,0x08,0x6f,0x3a,0x0c,0x52,0x50,0x47,0x3a,0x3a,0x53,0x45,0x08,0x3a,0x0a,0x40,0x6e,0x61,0x6d,0x65,0x49,0x22,0x0a,0x49,0x74,0x65,0x6d,0x31,0x06,0x3a,0x06,0x45,0x54,0x3a,0x0b,0x40,0x70,0x69,0x74,0x63,0x68,0x69,0x69,0x3a,0x0c,0x40,0x76,0x6f,0x6c,0x75,0x6d,0x65,0x69,0x55))
    ChangeInventoryArmor(1379,0,0,1,false)
    0()
   EndIf()
   0()
  EndIf()
  If(1,3106,0,6000,1)
   If(1,4106,0,3,0)
    ChangeVariable(4106,4106,0,0,4)
    ShowMessageFace("nanabi_fc1",0,0,2,4)
    ShowMessage("\\n<Nanabi (Affection:\\V[3106])>Don't be shy; please accept this. Let's continue to improve our relationship from now on.")
    250(bytes(0x04,0x08,0x6f,0x3a,0x0c,0x52,0x50,0x47,0x3a,0x3a,0x53,0x45,0x08,0x3a,0x0a,0x40,0x6e,0x61,0x6d,0x65,0x49,0x22,0x0a,0x49,0x74,0x65,0x6d,0x31,0x06,0x3a,0x06,0x45,0x54,0x3a,0x0b,0x40,0x70,0x69,0x74,0x63,0x68,0x69,0x69,0x3a,0x0c,0x40,0x76,0x6f,0x6c,0x75,0x6d,0x65,0x69,0x55))
    ChangeInventoryArmor(1651,0,0,1,false)
    0()
   EndIf()
   0()
  EndIf()
  355("actor_label_jump")
  ShowMessageFace("nanabi_fc1",0,0,2,5)
  ShowMessage("\\n<Nanabi (Affection:\\V[3106])>It's good to go out on a date every now and then. Better yet, how about the two of us go off on our own journey?")
  JumpToLabel("メニュー")
  DefineLabel("5")
  ShowMessageFace("alice_fc5",0,0,2,6)
  ShowMessage("\\n<Alice (Affection:\\V[3005])>Kitsune...")
  ShowMessageFace("nanabi_fc1",0,0,2,7)
  ShowMessage("\\n<Nanabi (Affection:\\V[3106])>Please don't hate us, Monster Lord. The entire kitsune clan is devoted to you.")
  ShowMessageFace("alice_fc5",0,0,2,8)
  ShowMessage("\\n<Alice (Affection:\\V[3005])>Treating me like a child...")
  ShowMessageFace("nanabi_fc1",0,0,2,9)
  ShowMessage("\\n<Nanabi (Affection:\\V[3106])>I know you aren't a child. ...Here, have some candy.")
  ShowMessageFace("alice_fc5",7,0,2,10)
  ShowMessage("\\n<Alice (Affection:\\V[3005])>....... ♪")
  ShowMessageFace("alice_fc5",3,0,2,11)
  ShowMessage("\\n<Alice (Affection:\\V[3005])>Do you think I can be enticed with this?")
  ShowMessageFace("nanabi_fc1",0,0,2,12)
  ShowMessage("\\n<Nanabi (Affection:\\V[3106])>So you weren't enticed?")
  JumpToLabel("メニュー")
  DefineLabel("102")
  ShowMessageFace("youko_fc1",2,0,2,13)
  ShowMessage("\\n<Kitsu (Affection:\\V[3102])>Nanabi heeelp! Kamuro is going to surpass meee!")
  ShowMessageFace("nanabi_fc1",0,0,2,14)
  ShowMessage("\\n<Nanabi (Affection:\\V[3106])>There are more important things than putting forth more effort than your juniors. You must always show them how reliable you are, even if they can only see your back.")
  ShowMessageFace("youko_fc1",0,0,2,15)
  ShowMessage("\\n<Kitsu (Affection:\\V[3102])>Back? Even my tiny back will be reliable in the future!")
  ShowMessageFace("nanabi_fc1",0,0,2,16)
  ShowMessage("\\n<Nanabi (Affection:\\V[3106])>Well, your age won't make a difference... But do your best.")
  JumpToLabel("メニュー")
  DefineLabel("103")
  ShowMessageFace("kamuro_fc1",0,0,2,17)
  ShowMessage("\\n<Kamuro (Affection:\\V[3103])>Miss Nanabi, I can't seem to become completely confident in myself. I do my best, so why is that?")
  ShowMessageFace("nanabi_fc1",0,0,2,18)
  ShowMessage("\\n<Nanabi (Affection:\\V[3106])>Have you tried not working so hard? That way you can keep up your fighting spirit.")
  ShowMessageFace("kamuro_fc1",1,0,2,19)
  ShowMessage("\\n<Kamuro (Affection:\\V[3103])>I see! Don't do my best... I'll do my best!")
  ShowMessageFace("nanabi_fc1",2,0,2,20)
  ShowMessage("\\n<Nanabi (Affection:\\V[3106])>So you're working hard regardless?")
  JumpToLabel("メニュー")
  DefineLabel("メニュー")
  StartLoop()
   355("unlimited_choices(11, [\"Give presents\",")
   655("\"Add to party\",")
   655("\"View present list\",\"Request\",")
   655("\"Never mind\"])")
   If(1,11,0,0,0)
    355("present_start(106)")
    0()
   EndIf()
   If(1,11,0,1,0)
    PictureClear(5)
    355("move_actor_ex(106)")
    EndEventProcessing()
    0()
   EndIf()
   If(1,11,0,2,0)
    ShowMessageFace("",0,0,2,21)
    ShowMessage("Affection  500:\\ia[1086]")
    ShowMessage("Affection 2000:\\ia[1192]")
    ShowMessage("Affection 4000:\\ia[1379]")
    ShowMessage("Affection 6000:\\ia[1651]")
    0()
   EndIf()
   If(1,11,0,3,0)
    PictureClear(5)
    ShowMessageFace("",0,0,2,22)
    ShowMessage("Ask her for what? (Affection:\\V[3106])")
    ShowChoices(strings("Semen Squeezing Tails(Affection:10)","Reverse Rape(Affection:100)","Never mind"),3)
    IfPlayerPicksChoice(0,null)
     If(1,3106,0,10,1)
      355("call_novel_scene(4321)")
      EndEventProcessing()
      0()
     Else()
      ShowMessageFace("nanabi_fc1",0,0,2,23)
      ShowMessage("\\n<Nanabi (Affection:\\V[3106])>Not yet. I want to be pampered some more.")
      0()
     EndIf()
     0()
    IfPlayerPicksChoice(1,null)
     If(1,3106,0,100,1)
      355("call_novel_scene(4322)")
      EndEventProcessing()
      0()
     Else()
      ShowMessageFace("nanabi_fc1",0,0,2,24)
      ShowMessage("\\n<Nanabi (Affection:\\V[3106])>Not yet. I want to be pampered some more.")
      0()
     EndIf()
     0()
    IfPlayerPicksChoice(2,null)
     0()
    404()
    0()
   EndIf()
   If(1,11,0,4,1)
    PictureClear(5)
    EndEventProcessing()
    0()
   EndIf()
   0()
  EndLoop()
  0()
 PAGE   2
  // condition: party contains actor #106
  0()



EVENT   23
 PAGE   1
  // condition: switch 1080 is ON
  PictureDisplay(5,"80_orc_st01",0,0,0,0,100,100,0,0)
  PictureMove(5,null,0,0,0,0,100,100,255,0,30,true)
  If(1,3080,0,10,1)
   If(1,4080,0,0,0)
    ChangeVariable(4080,4080,0,0,1)
    ShowMessageFace("orc_fc1",1,0,2,1)
    ShowMessage("\\n<Hip (Affection:\\V[3080])>You'll accept this, right boss?")
    250(bytes(0x04,0x08,0x6f,0x3a,0x0c,0x52,0x50,0x47,0x3a,0x3a,0x53,0x45,0x08,0x3a,0x0a,0x40,0x6e,0x61,0x6d,0x65,0x49,0x22,0x0a,0x49,0x74,0x65,0x6d,0x31,0x06,0x3a,0x06,0x45,0x54,0x3a,0x0b,0x40,0x70,0x69,0x74,0x63,0x68,0x69,0x69,0x3a,0x0c,0x40,0x76,0x6f,0x6c,0x75,0x6d,0x65,0x69,0x55))
    ChangeInventoryWeapon(401,0,0,1,false)
    0()
   EndIf()
   0()
  EndIf()
  If(1,3080,0,100,1)
   If(1,4080,0,1,0)
    ChangeVariable(4080,4080,0,0,2)
    ShowMessageFace("orc_fc1",1,0,2,2)
    ShowMessage("\\n<Hip (Affection:\\V[3080])>You'll accept this, right boss?")
    250(bytes(0x04,0x08,0x6f,0x3a,0x0c,0x52,0x50,0x47,0x3a,0x3a,0x53,0x45,0x08,0x3a,0x0a,0x40,0x6e,0x61,0x6d,0x65,0x49,0x22,0x0a,0x49,0x74,0x65,0x6d,0x31,0x06,0x3a,0x06,0x45,0x54,0x3a,0x0b,0x40,0x70,0x69,0x74,0x63,0x68,0x69,0x69,0x3a,0x0c,0x40,0x76,0x6f,0x6c,0x75,0x6d,0x65,0x69,0x55))
    ChangeInventoryArmor(1016,0,0,1,false)
    0()
   EndIf()
   0()
  EndIf()
  If(1,3080,0,500,1)
   If(1,4080,0,2,0)
    ChangeVariable(4080,4080,0,0,3)
    ShowMessageFace("orc_fc1",1,0,2,3)
    ShowMessage("\\n<Hip (Affection:\\V[3080])>You'll accept this, right boss?")
    250(bytes(0x04,0x08,0x6f,0x3a,0x0c,0x52,0x50,0x47,0x3a,0x3a,0x53,0x45,0x08,0x3a,0x0a,0x40,0x6e,0x61,0x6d,0x65,0x49,0x22,0x0a,0x49,0x74,0x65,0x6d,0x31,0x06,0x3a,0x06,0x45,0x54,0x3a,0x0b,0x40,0x70,0x69,0x74,0x63,0x68,0x69,0x69,0x3a,0x0c,0x40,0x76,0x6f,0x6c,0x75,0x6d,0x65,0x69,0x55))
    ChangeInventoryArmor(1309,0,0,1,false)
    0()
   EndIf()
   0()
  EndIf()
  If(1,3080,0,2000,1)
   If(1,4080,0,3,0)
    ChangeVariable(4080,4080,0,0,4)
    ShowMessageFace("orc_fc1",1,0,2,4)
    ShowMessage("\\n<Hip (Affection:\\V[3080])>You'll accept this, right boss?")
    250(bytes(0x04,0x08,0x6f,0x3a,0x0c,0x52,0x50,0x47,0x3a,0x3a,0x53,0x45,0x08,0x3a,0x0a,0x40,0x6e,0x61,0x6d,0x65,0x49,0x22,0x0a,0x49,0x74,0x65,0x6d,0x31,0x06,0x3a,0x06,0x45,0x54,0x3a,0x0b,0x40,0x70,0x69,0x74,0x63,0x68,0x69,0x69,0x3a,0x0c,0x40,0x76,0x6f,0x6c,0x75,0x6d,0x65,0x69,0x55))
    ChangeInventoryArmor(1018,0,0,1,false)
    0()
   EndIf()
   0()
  EndIf()
  355("actor_label_jump")
  ShowMessageFace("orc_fc1",1,0,2,5)
  ShowMessage("\\n<Hip (Affection:\\V[3080])>Oink! What place am I going to attack today?!")
  JumpToLabel("メニュー")
  DefineLabel("62")
  ShowMessageFace("orc_fc1",0,0,2,6)
  ShowMessage("\\n<Hip (Affection:\\V[3080])>You're... a fellow club user! Are you an orc too?")
  ShowMessageFace("gob_fc1",0,0,2,7)
  ShowMessage("\\n<Gob (Affection:\\V[3062])>I'm a goblin!")
  ShowMessageFace("orc_fc1",1,0,2,8)
  ShowMessage("\\n<Hip (Affection:\\V[3080])>I feel like we can get along, goblin!　Let's go raid a village together!")
  ShowMessageFace("gob_fc1",3,0,2,9)
  ShowMessage("\\n<Gob (Affection:\\V[3062])>M-maybe next time...")
  JumpToLabel("メニュー")
  DefineLabel("164")
  ShowMessageFace("orc_fc1",0,0,2,10)
  ShowMessage("\\n<Hip (Affection:\\V[3080])>You're... a fellow club user! Are you an orc too?")
  ShowMessageFace("kooni_fc1",2,0,2,11)
  ShowMessage("\\n<Shizuku (Affection:\\V[3164])>No, I'm an oni.")
  ShowMessageFace("orc_fc1",1,0,2,12)
  ShowMessage("\\n<Hip (Affection:\\V[3080])>An oni?! They're the very definition of evil! I'm an orc, so let's get along.")
  ShowMessageFace("kooni_fc1",2,0,2,13)
  ShowMessage("\\n<Shizuku (Affection:\\V[3164])>Y-yeah... Nice to meet you...")
  JumpToLabel("メニュー")
  DefineLabel("525")
  ShowMessageFace("orc_fc1",0,0,2,14)
  ShowMessage("\\n<Hip (Affection:\\V[3080])>You're... a fellow club user! Are you an orc too?")
  ShowMessageFace("sonia_fc2",2,0,2,15)
  ShowMessage("\\n<Sonya (Affection:\\V[3525])>No, I'm human. Can't you tell just by looking?")
  ShowMessageFace("orc_fc1",0,0,2,16)
  ShowMessage("\\n<Hip (Affection:\\V[3080])>..........")
  ShowMessageFace("sonia_fc3",2,0,2,17)
  ShowMessage("\\n<Sonya (Affection:\\V[3525])>Hey! Why aren't you saying anything?!")
  ShowMessageFace("orc_fc1",0,0,2,18)
  ShowMessage("\\n<Hip (Affection:\\V[3080])>No, your voluptuousness is clearly that of an orc.")
  JumpToLabel("メニュー")
  DefineLabel("メニュー")
  StartLoop()
   355("unlimited_choices(11, [\"Give presents\",")
   655("\"Add to party\",")
   655("\"View present list\",\"Request\",")
   655("\"Never mind\"])")
   If(1,11,0,0,0)
    355("present_start(80)")
    0()
   EndIf()
   If(1,11,0,1,0)
    PictureClear(5)
    355("move_actor_ex(80)")
    EndEventProcessing()
    0()
   EndIf()
   If(1,11,0,2,0)
    ShowMessageFace("",0,0,2,19)
    ShowMessage("Affection   10:\\iw[401]")
    ShowMessage("Affection  100:\\ia[1016]")
    ShowMessage("Affection  500:\\ia[1309]")
    ShowMessage("Affection 2000:\\ia[1018]")
    0()
   EndIf()
   If(1,11,0,3,0)
    PictureClear(5)
    ShowMessageFace("",0,0,2,20)
    ShowMessage("Ask her for what? (Affection:\\V[3080])")
    ShowChoices(strings("Reverse Rape(Affection:10)","Never mind"),2)
    IfPlayerPicksChoice(0,null)
     If(1,3080,0,10,1)
      355("call_novel_scene(4191)")
      EndEventProcessing()
      0()
     Else()
      ShowMessageFace("orc_fc1",0,0,2,21)
      ShowMessage("\\n<Hip (Affection:\\V[3080])>Let's do it next time...")
      0()
     EndIf()
     0()
    IfPlayerPicksChoice(1,null)
     0()
    404()
    0()
   EndIf()
   If(1,11,0,4,1)
    PictureClear(5)
    EndEventProcessing()
    0()
   EndIf()
   0()
  EndLoop()
  0()
 PAGE   2
  // condition: party contains actor #80
  0()



EVENT   26
 PAGE   1
  // condition: switch 1132 is ON
  PictureDisplay(5,"80_zonbe_st11",0,0,0,0,100,100,0,0)
  PictureMove(5,null,0,0,0,0,100,100,255,0,30,true)
  If(1,3132,0,10,1)
   If(1,4132,0,0,0)
    ChangeVariable(4132,4132,0,0,1)
    ShowMessageFace("zonbe_fc2",0,0,2,1)
    ShowMessage("\\n<Eri (Affection:\\V[3132])>This was left at my grave... It would be a shame if it were left to rot... Use it...")
    250(bytes(0x04,0x08,0x6f,0x3a,0x0c,0x52,0x50,0x47,0x3a,0x3a,0x53,0x45,0x08,0x3a,0x0a,0x40,0x6e,0x61,0x6d,0x65,0x49,0x22,0x0a,0x49,0x74,0x65,0x6d,0x31,0x06,0x3a,0x06,0x45,0x54,0x3a,0x0b,0x40,0x70,0x69,0x74,0x63,0x68,0x69,0x69,0x3a,0x0c,0x40,0x76,0x6f,0x6c,0x75,0x6d,0x65,0x69,0x55))
    ChangeInventoryWeapon(11,0,0,1,false)
    0()
   EndIf()
   0()
  EndIf()
  If(1,3132,0,100,1)
   If(1,4132,0,1,0)
    ChangeVariable(4132,4132,0,0,2)
    ShowMessageFace("zonbe_fc2",0,0,2,2)
    ShowMessage("\\n<Eri (Affection:\\V[3132])>This was left at my grave... It would be a shame if it were left to rot... Use it...")
    250(bytes(0x04,0x08,0x6f,0x3a,0x0c,0x52,0x50,0x47,0x3a,0x3a,0x53,0x45,0x08,0x3a,0x0a,0x40,0x6e,0x61,0x6d,0x65,0x49,0x22,0x0a,0x49,0x74,0x65,0x6d,0x31,0x06,0x3a,0x06,0x45,0x54,0x3a,0x0b,0x40,0x70,0x69,0x74,0x63,0x68,0x69,0x69,0x3a,0x0c,0x40,0x76,0x6f,0x6c,0x75,0x6d,0x65,0x69,0x55))
    ChangeInventoryArmor(1011,0,0,1,false)
    0()
   EndIf()
   0()
  EndIf()
  If(1,3132,0,500,1)
   If(1,4132,0,2,0)
    ChangeVariable(4132,4132,0,0,3)
    ShowMessageFace("zonbe_fc2",0,0,2,3)
    ShowMessage("\\n<Eri (Affection:\\V[3132])>This was left at my grave... It would be a shame if it were left to rot... Use it...")
    250(bytes(0x04,0x08,0x6f,0x3a,0x0c,0x52,0x50,0x47,0x3a,0x3a,0x53,0x45,0x08,0x3a,0x0a,0x40,0x6e,0x61,0x6d,0x65,0x49,0x22,0x0a,0x49,0x74,0x65,0x6d,0x31,0x06,0x3a,0x06,0x45,0x54,0x3a,0x0b,0x40,0x70,0x69,0x74,0x63,0x68,0x69,0x69,0x3a,0x0c,0x40,0x76,0x6f,0x6c,0x75,0x6d,0x65,0x69,0x55))
    ChangeInventoryArmor(1285,0,0,1,false)
    0()
   EndIf()
   0()
  EndIf()
  If(1,3132,0,2000,1)
   If(1,4132,0,3,0)
    ChangeVariable(4132,4132,0,0,4)
    ShowMessageFace("zonbe_fc2",0,0,2,4)
    ShowMessage("\\n<Eri (Affection:\\V[3132])>This was left at my grave... It would be a shame if it were left to rot... Use it...")
    250(bytes(0x04,0x08,0x6f,0x3a,0x0c,0x52,0x50,0x47,0x3a,0x3a,0x53,0x45,0x08,0x3a,0x0a,0x40,0x6e,0x61,0x6d,0x65,0x49,0x22,0x0a,0x49,0x74,0x65,0x6d,0x31,0x06,0x3a,0x06,0x45,0x54,0x3a,0x0b,0x40,0x70,0x69,0x74,0x63,0x68,0x69,0x69,0x3a,0x0c,0x40,0x76,0x6f,0x6c,0x75,0x6d,0x65,0x69,0x55))
    ChangeInventoryArmor(1458,0,0,1,false)
    0()
   EndIf()
   0()
  EndIf()
  355("actor_label_jump")
  ShowMessageFace("zonbe_fc2",0,0,2,5)
  ShowMessage("\\n<Eri (Affection:\\V[3132])>I can still swing a sword... I can still fight...")
  JumpToLabel("メニュー")
  DefineLabel("133")
  ShowMessageFace("zonbe_fc3",3,0,2,6)
  ShowMessage("\\n<Zombies (Affection:\\V[3133])>Uh... Ahhhh...")
  ShowMessageFace("zonbe_fc2",0,0,2,7)
  ShowMessage("\\n<Eri (Affection:\\V[3132])>Someday my mind will rot away as well... Just like these zombies'...")
  ShowMessageFace("zonbe_fc3",0,0,2,8)
  ShowMessage("\\n<Zombie (Affection:\\V[3133])>How rude... We don't rot...")
  ShowMessageFace("zonbe_fc2",0,0,2,9)
  ShowMessage("\\n<Eri (Affection:\\V[3132])>.......?!")
  JumpToLabel("メニュー")
  DefineLabel("156")
  ShowMessageFace("zonbe_fc2",0,0,2,10)
  ShowMessage("\\n<Eri (Affection:\\V[3132])>Ah... Uhh...")
  ShowMessageFace("d_fighter_fc1",0,0,2,11)
  ShowMessage("\\n<Regina (Affection:\\V[3156])>I wonder, would I still wander around in this outfit if I became undead...? Well, being a zombie, at least I'd stop being embarrassed.")
  ShowMessageFace("zonbe_fc2",0,0,2,12)
  ShowMessage("\\n<Eri (Affection:\\V[3132])>...What a shameful appearance...")
  ShowMessageFace("d_fighter_fc1",3,0,2,13)
  ShowMessage("\\n<Regina (Affection:\\V[3156])>W-what?! I don't want to be told that by a zombie!")
  JumpToLabel("メニュー")
  DefineLabel("529")
  ShowMessageFace("zonbe_fc2",0,0,2,14)
  ShowMessage("\\n<Eri (Affection:\\V[3132])>Her majesty, the Queen of Sabasa... In life, I was a soldier who served the Sabasa royal family...")
  ShowMessageFace("sara_fc1",1,0,2,15)
  ShowMessage("\\n<Sara (Affection:\\V[3529])>I thank you for your loyalty. Will you fight alongside me in the future?")
  ShowMessageFace("zonbe_fc2",0,0,2,16)
  ShowMessage("\\n<Eri (Affection:\\V[3132])>Gladly... My loyalty continues in death...")
  JumpToLabel("メニュー")
  DefineLabel("メニュー")
  StartLoop()
   355("unlimited_choices(11, [\"Give presents\",")
   655("\"Add to party\",")
   655("\"View present list\",\"Request\",")
   655("\"Never mind\"])")
   If(1,11,0,0,0)
    355("present_start(132)")
    0()
   EndIf()
   If(1,11,0,1,0)
    PictureClear(5)
    355("move_actor_ex(132)")
    EndEventProcessing()
    0()
   EndIf()
   If(1,11,0,2,0)
    ShowMessageFace("",0,0,2,17)
    ShowMessage("Affection   10:\\iw[11]")
    ShowMessage("Affection  100:\\ia[1011]")
    ShowMessage("Affection  500:\\ia[1285]")
    ShowMessage("Affection 2000:\\ia[1458]")
    0()
   EndIf()
   If(1,11,0,3,0)
    PictureClear(5)
    ShowMessageFace("",0,0,2,18)
    ShowMessage("Ask her for what? (Affection:\\V[3132])")
    ShowChoices(strings("Pointless Mating(Affection:10)","Never mind"),2)
    IfPlayerPicksChoice(0,null)
     If(1,3132,0,10,1)
      355("call_novel_scene(4456)")
      EndEventProcessing()
      0()
     Else()
      ShowMessageFace("zonbe_fc2",0,0,2,19)
      ShowMessage("\\n<Eri (Affection:\\V[3132])>I feel my soul leaving my body... Maybe some other time...")
      0()
     EndIf()
     0()
    IfPlayerPicksChoice(1,null)
     0()
    404()
    0()
   EndIf()
   If(1,11,0,4,1)
    PictureClear(5)
    EndEventProcessing()
    0()
   EndIf()
   0()
  EndLoop()
  0()
 PAGE   2
  // condition: party contains actor #132
  0()



EVENT   25
 PAGE   1
  // condition: switch 1096 is ON
  PictureDisplay(5,"80_delh_b_st01",0,0,0,0,100,100,0,0)
  PictureMove(5,null,0,0,0,0,100,100,255,0,30,true)
  If(1,3096,0,10,1)
   If(1,4096,0,0,0)
    ChangeVariable(4096,4096,0,0,1)
    ShowMessageFace("delh_b_fc1",0,0,2,1)
    ShowMessage("\\n<Marion (Affection:\\V[3096])>Take this with you. It's pretty expensive, fufuu...")
    250(bytes(0x04,0x08,0x6f,0x3a,0x0c,0x52,0x50,0x47,0x3a,0x3a,0x53,0x45,0x08,0x3a,0x0a,0x40,0x6e,0x61,0x6d,0x65,0x49,0x22,0x0a,0x49,0x74,0x65,0x6d,0x31,0x06,0x3a,0x06,0x45,0x54,0x3a,0x0b,0x40,0x70,0x69,0x74,0x63,0x68,0x69,0x69,0x3a,0x0c,0x40,0x76,0x6f,0x6c,0x75,0x6d,0x65,0x69,0x55))
    ChangeInventoryArmor(237,0,0,1,false)
    0()
   EndIf()
   0()
  EndIf()
  If(1,3096,0,100,1)
   If(1,4096,0,1,0)
    ChangeVariable(4096,4096,0,0,2)
    ShowMessageFace("delh_b_fc1",0,0,2,2)
    ShowMessage("\\n<Marion (Affection:\\V[3096])>Take this with you. It's pretty expensive, fufuu...")
    250(bytes(0x04,0x08,0x6f,0x3a,0x0c,0x52,0x50,0x47,0x3a,0x3a,0x53,0x45,0x08,0x3a,0x0a,0x40,0x6e,0x61,0x6d,0x65,0x49,0x22,0x0a,0x49,0x74,0x65,0x6d,0x31,0x06,0x3a,0x06,0x45,0x54,0x3a,0x0b,0x40,0x70,0x69,0x74,0x63,0x68,0x69,0x69,0x3a,0x0c,0x40,0x76,0x6f,0x6c,0x75,0x6d,0x65,0x69,0x55))
    ChangeInventoryArmor(1006,0,0,1,false)
    0()
   EndIf()
   0()
  EndIf()
  If(1,3096,0,500,1)
   If(1,4096,0,2,0)
    ChangeVariable(4096,4096,0,0,3)
    ShowMessageFace("delh_b_fc1",0,0,2,3)
    ShowMessage("\\n<Marion (Affection:\\V[3096])>Take this with you. It's pretty expensive, fufuu...")
    250(bytes(0x04,0x08,0x6f,0x3a,0x0c,0x52,0x50,0x47,0x3a,0x3a,0x53,0x45,0x08,0x3a,0x0a,0x40,0x6e,0x61,0x6d,0x65,0x49,0x22,0x0a,0x49,0x74,0x65,0x6d,0x31,0x06,0x3a,0x06,0x45,0x54,0x3a,0x0b,0x40,0x70,0x69,0x74,0x63,0x68,0x69,0x69,0x3a,0x0c,0x40,0x76,0x6f,0x6c,0x75,0x6d,0x65,0x69,0x55))
    ChangeInventoryArmor(1246,0,0,1,false)
    0()
   EndIf()
   0()
  EndIf()
  If(1,3096,0,2000,1)
   If(1,4096,0,3,0)
    ChangeVariable(4096,4096,0,0,4)
    ShowMessageFace("delh_b_fc1",0,0,2,4)
    ShowMessage("\\n<Marion (Affection:\\V[3096])>Take this with you. It's pretty expensive, fufuu...")
    250(bytes(0x04,0x08,0x6f,0x3a,0x0c,0x52,0x50,0x47,0x3a,0x3a,0x53,0x45,0x08,0x3a,0x0a,0x40,0x6e,0x61,0x6d,0x65,0x49,0x22,0x0a,0x49,0x74,0x65,0x6d,0x31,0x06,0x3a,0x06,0x45,0x54,0x3a,0x0b,0x40,0x70,0x69,0x74,0x63,0x68,0x69,0x69,0x3a,0x0c,0x40,0x76,0x6f,0x6c,0x75,0x6d,0x65,0x69,0x55))
    ChangeInventoryArmor(1203,0,0,1,false)
    0()
   EndIf()
   0()
  EndIf()
  355("actor_label_jump")
  ShowMessageFace("delh_b_fc1",0,0,2,5)
  ShowMessage("\\n<Marion (Affection:\\V[3096])>My tentacles are lively today. Care to see for yourself? Fufufuu...")
  JumpToLabel("メニュー")
  DefineLabel("95")
  ShowMessageFace("delh_b_fc1",0,0,2,6)
  ShowMessage("\\n<Marion (Affection:\\V[3096])>I see you're diligently training your sword skills, as usual. You're a dark elf. You should be drowning in your own desires.")
  ShowMessageFace("delh_a_fc1",0,0,2,7)
  ShowMessage("\\n<Lona (Affection:\\V[3095])>But my skills dull if I don't train...")
  ShowMessageFace("delh_b_fc1",0,0,2,8)
  ShowMessage("\\n<Marion (Affection:\\V[3096])>Are those really the words of someone who succumbed to darkness? Are you sure you're not just an elf with a good tan?")
  ShowMessageFace("delh_a_fc1",1,0,2,9)
  ShowMessage("\\n<Lona (Affection:\\V[3095])>Well, I just woke up! I can't just immediately go fuck someone!")
  ShowMessageFace("sonia_fc4",0,0,2,10)
  ShowMessage("\\n<Sonya>(The world of dark elves has its own hardships...)")
  JumpToLabel("メニュー")
  DefineLabel("136")
  ShowMessageFace("elf_fc1",0,0,2,11)
  ShowMessage("\\n<Claudia (Affection:\\V[3136])>Hmph. If it isn't a fallen elf. To have such a body... How disgraceful.")
  ShowMessageFace("delh_b_fc1",0,0,2,12)
  ShowMessage("\\n<Marion (Affection:\\V[3096])>Do you want to try falling with this tentacle too?")
  ShowMessageFace("elf_fc1",2,0,2,13)
  ShowMessage("\\n<Claudia (Affection:\\V[3136])>N-no way... Tentacles in every hole... No way... I... Ahh, stop...")
  ShowMessageFace("delh_b_fc1",2,0,2,14)
  ShowMessage("\\n<Marion (Affection:\\V[3096])>You're actually falling?")
  JumpToLabel("メニュー")
  DefineLabel("160")
  ShowMessageFace("wormv_fc1",0,0,2,15)
  ShowMessage("\\n<Julia (Affection:\\V[3160])>Oh? We're the same? Did Lily give you power too?")
  ShowMessageFace("delh_b_fc1",0,0,2,16)
  ShowMessage("\\n<Marion (Affection:\\V[3096])>No, but summoning tentacles should always follow the same basic principles. I used my body as a catalyst, and fused tentacles into it.")
  ShowMessageFace("wormv_fc1",0,0,2,17)
  ShowMessage("\\n<Julia (Affection:\\V[3160])>...In other words, you're basically a worm elf.")
  ShowMessageFace("delh_b_fc1",2,0,2,18)
  ShowMessage("\\n<Marion (Affection:\\V[3096])>And you're a dark human. ...The naming could be better.")
  JumpToLabel("メニュー")
  DefineLabel("メニュー")
  StartLoop()
   355("unlimited_choices(11, [\"Give presents\",")
   655("\"Add to party\",")
   655("\"View present list\",\"Request\",")
   655("\"Never mind\"])")
   If(1,11,0,0,0)
    355("present_start(96)")
    0()
   EndIf()
   If(1,11,0,1,0)
    PictureClear(5)
    355("move_actor_ex(96)")
    EndEventProcessing()
    0()
   EndIf()
   If(1,11,0,2,0)
    ShowMessageFace("",0,0,2,19)
    ShowMessage("Affection   10:\\ia[237]")
    ShowMessage("Affection  100:\\ia[1006]")
    ShowMessage("Affection  500:\\ia[1246]")
    ShowMessage("Affection 2000:\\ia[1203]")
    0()
   EndIf()
   If(1,11,0,3,0)
    PictureClear(5)
    ShowMessageFace("",0,0,2,20)
    ShowMessage("Ask her for what? (Affection:\\V[3096])")
    ShowChoices(strings("Tentacle Drain 1(Affection:10)","Tentacle Drain 2(Affection:100)","Never mind"),3)
    IfPlayerPicksChoice(0,null)
     If(1,3096,0,10,1)
      355("call_novel_scene(4271)")
      EndEventProcessing()
      0()
     Else()
      ShowMessageFace("delh_b_fc1",0,0,2,21)
      ShowMessage("\\n<Marion (Affection:\\V[3096])>Wait a little longer... Fufufuu.")
      0()
     EndIf()
     0()
    IfPlayerPicksChoice(1,null)
     If(1,3096,0,100,1)
      355("call_novel_scene(4272)")
      EndEventProcessing()
      0()
     Else()
      ShowMessageFace("delh_b_fc1",0,0,2,22)
      ShowMessage("\\n<Marion (Affection:\\V[3096])>Wait a little longer.... Fufufuu.")
      0()
     EndIf()
     0()
    IfPlayerPicksChoice(2,null)
     0()
    404()
    0()
   EndIf()
   If(1,11,0,4,1)
    PictureClear(5)
    EndEventProcessing()
    0()
   EndIf()
   0()
  EndLoop()
  0()
 PAGE   2
  // condition: party contains actor #96
  0()



EVENT   27
 PAGE   1
  // condition: switch 1093 is ON
  PictureDisplay(5,"80_liot_st01",0,0,0,0,100,100,0,0)
  PictureMove(5,null,0,0,0,0,100,100,255,0,30,true)
  If(1,3093,0,10,1)
   If(1,4093,0,0,0)
    ChangeVariable(4093,4093,0,0,1)
    ShowMessageFace("liot_fc1",0,0,2,1)
    ShowMessage("\\n<Riot (Affection:\\V[3093])>Take this with you. It's... just something I picked up.")
    250(bytes(0x04,0x08,0x6f,0x3a,0x0c,0x52,0x50,0x47,0x3a,0x3a,0x53,0x45,0x08,0x3a,0x0a,0x40,0x6e,0x61,0x6d,0x65,0x49,0x22,0x0a,0x49,0x74,0x65,0x6d,0x31,0x06,0x3a,0x06,0x45,0x54,0x3a,0x0b,0x40,0x70,0x69,0x74,0x63,0x68,0x69,0x69,0x3a,0x0c,0x40,0x76,0x6f,0x6c,0x75,0x6d,0x65,0x69,0x55))
    ChangeInventoryWeapon(337,0,0,1,false)
    0()
   EndIf()
   0()
  EndIf()
  If(1,3093,0,100,1)
   If(1,4093,0,1,0)
    ChangeVariable(4093,4093,0,0,2)
    ShowMessageFace("liot_fc1",0,0,2,2)
    ShowMessage("\\n<Riot (Affection:\\V[3093])>Take this with you. It's... just something I picked up.")
    250(bytes(0x04,0x08,0x6f,0x3a,0x0c,0x52,0x50,0x47,0x3a,0x3a,0x53,0x45,0x08,0x3a,0x0a,0x40,0x6e,0x61,0x6d,0x65,0x49,0x22,0x0a,0x49,0x74,0x65,0x6d,0x31,0x06,0x3a,0x06,0x45,0x54,0x3a,0x0b,0x40,0x70,0x69,0x74,0x63,0x68,0x69,0x69,0x3a,0x0c,0x40,0x76,0x6f,0x6c,0x75,0x6d,0x65,0x69,0x55))
    ChangeInventoryArmor(1036,0,0,1,false)
    0()
   EndIf()
   0()
  EndIf()
  If(1,3093,0,500,1)
   If(1,4093,0,2,0)
    ChangeVariable(4093,4093,0,0,3)
    ShowMessageFace("liot_fc1",0,0,2,3)
    ShowMessage("\\n<Riot (Affection:\\V[3093])>Take this with you. It's... just something I picked up.")
    250(bytes(0x04,0x08,0x6f,0x3a,0x0c,0x52,0x50,0x47,0x3a,0x3a,0x53,0x45,0x08,0x3a,0x0a,0x40,0x6e,0x61,0x6d,0x65,0x49,0x22,0x0a,0x49,0x74,0x65,0x6d,0x31,0x06,0x3a,0x06,0x45,0x54,0x3a,0x0b,0x40,0x70,0x69,0x74,0x63,0x68,0x69,0x69,0x3a,0x0c,0x40,0x76,0x6f,0x6c,0x75,0x6d,0x65,0x69,0x55))
    ChangeInventoryArmor(1037,0,0,1,false)
    0()
   EndIf()
   0()
  EndIf()
  If(1,3093,0,2000,1)
   If(1,4093,0,3,0)
    ChangeVariable(4093,4093,0,0,4)
    ShowMessageFace("liot_fc1",0,0,2,4)
    ShowMessage("\\n<Riot (Affection:\\V[3093])>Take this with you. It's... just something I picked up.")
    250(bytes(0x04,0x08,0x6f,0x3a,0x0c,0x52,0x50,0x47,0x3a,0x3a,0x53,0x45,0x08,0x3a,0x0a,0x40,0x6e,0x61,0x6d,0x65,0x49,0x22,0x0a,0x49,0x74,0x65,0x6d,0x31,0x06,0x3a,0x06,0x45,0x54,0x3a,0x0b,0x40,0x70,0x69,0x74,0x63,0x68,0x69,0x69,0x3a,0x0c,0x40,0x76,0x6f,0x6c,0x75,0x6d,0x65,0x69,0x55))
    ChangeInventoryArmor(1154,0,0,1,false)
    0()
   EndIf()
   0()
  EndIf()
  355("actor_label_jump")
  ShowMessageFace("liot_fc1",0,0,2,5)
  ShowMessage("\\n<Riot (Affection:\\V[3093])>At this rate, my body will become weak. Come on, it's time for a hunt.")
  JumpToLabel("メニュー")
  DefineLabel("68")
  ShowMessageFace("dragonp_fc1",0,0,2,6)
  ShowMessage("\\n<Papi (Affection:\\V[3068])>You're my dragon big sis, so you're probably pretty strong!")
  ShowMessageFace("liot_fc1",0,0,2,7)
  ShowMessage("\\n<Riot (Affection:\\V[3093])>...Scram, runt. I don't have time to play with some kid.")
  ShowMessageFace("dragonp_fc1",0,0,2,8)
  ShowMessage("\\n<Papi (Affection:\\V[3068])>Wow, and your claws are so sharp! You must be really strong! I'm jealous!")
  ShowMessageFace("liot_fc1",3,0,2,9)
  ShowMessage("\\n<Riot (Affection:\\V[3093])>G-go away...")
  JumpToLabel("メニュー")
  DefineLabel("150")
  ShowMessageFace("mummy_fc1",2,0,2,10)
  ShowMessage("\\n<Patra (Affection:\\V[3150])>Oh my, a dragon... Do you want to get married?　Are you dating someone?")
  ShowMessageFace("liot_fc1",0,0,2,11)
  ShowMessage("\\n<Riot (Affection:\\V[3093])>Where's this coming from?")
  ShowMessageFace("mummy_fc1",2,0,2,12)
  ShowMessage("\\n<Patra (Affection:\\V[3150])>Well, there's this Dragon Seal Trial. For some reason it's become pretty unpopular in recent years...")
  ShowMessageFace("liot_fc1",0,0,2,13)
  ShowMessage("\\n<Riot (Affection:\\V[3093])>So you have to personally solicit people into taking it? Seems the Trial officials have their own trials to face...")
  JumpToLabel("メニュー")
  DefineLabel("171")
  ShowMessageFace("liot_fc1",0,0,2,14)
  ShowMessage("\\n<Riot (Affection:\\V[3093])>Geez, a senior dragonkin...")
  ShowMessageFace("lizardboss_fc1",3,0,2,15)
  ShowMessage("\\n<Miranda (Affection:\\V[3171])>You're... a dragonkin? But you seem different... Where are you from?")
  ShowMessageFace("liot_fc1",0,0,2,16)
  ShowMessage("\\n<Riot (Affection:\\V[3093])>I don't remember...")
  ShowMessageFace("lizardboss_fc1",0,0,2,17)
  ShowMessage("\\n<Miranda (Affection:\\V[3171])>So forgetful at your age; how tragic. Do you want to join the Scale Bandits?")
  ShowMessageFace("liot_fc1",0,0,2,18)
  ShowMessage("\\n<Riot (Affection:\\V[3093])>...I'll think about it.")
  JumpToLabel("メニュー")
  DefineLabel("メニュー")
  StartLoop()
   355("unlimited_choices(11, [\"Give presents\",")
   655("\"Add to party\",")
   655("\"View present list\",\"Request\",")
   655("\"Never mind\"])")
   If(1,11,0,0,0)
    355("present_start(93)")
    0()
   EndIf()
   If(1,11,0,1,0)
    PictureClear(5)
    355("move_actor_ex(93)")
    EndEventProcessing()
    0()
   EndIf()
   If(1,11,0,2,0)
    ShowMessageFace("",0,0,2,19)
    ShowMessage("Affection   10:\\iw[337]")
    ShowMessage("Affection  100:\\ia[1036]")
    ShowMessage("Affection  500:\\ia[1037]")
    ShowMessage("Affection 2000:\\ia[1154]")
    0()
   EndIf()
   If(1,11,0,3,0)
    PictureClear(5)
    ShowMessageFace("",0,0,2,20)
    ShowMessage("Ask her for what? (Affection:\\V[3093])")
    ShowChoices(strings("Mating(Affection:10)","Onahole(Affection:100)","Never mind"),3)
    IfPlayerPicksChoice(0,null)
     If(1,3093,0,10,1)
      355("call_novel_scene(4256)")
      EndEventProcessing()
      0()
     Else()
      ShowMessageFace("liot_fc1",0,0,2,21)
      ShowMessage("\\n<Riot (Affection:\\V[3093])>I'm not in the mood right now...")
      0()
     EndIf()
     0()
    IfPlayerPicksChoice(1,null)
     If(1,3093,0,100,1)
      355("call_novel_scene(4257)")
      EndEventProcessing()
      0()
     Else()
      ShowMessageFace("liot_fc1",0,0,2,22)
      ShowMessage("\\n<Riot (Affection:\\V[3093])>I'm not in the mood right now...")
      0()
     EndIf()
     0()
    IfPlayerPicksChoice(2,null)
     0()
    404()
    0()
   EndIf()
   If(1,11,0,4,1)
    PictureClear(5)
    EndEventProcessing()
    0()
   EndIf()
   0()
  EndLoop()
  0()
 PAGE   2
  // condition: party contains actor #93
  0()



EVENT   29
 PAGE   1
  // condition: switch 1557 is ON
  PictureDisplay(5,"80_justice_st01",0,0,0,0,100,100,0,0)
  PictureMove(5,null,0,0,0,0,100,100,255,0,30,true)
  355("actor_label_jump")
  ShowMessageFace("justice_fc1",0,0,2,1)
  ShowMessage("\\n<Jessica (Affection:\\V[3557])>A burning soul and\\*\\fi spirit\\*\\fi! It is the flame, the\\*\\fi fire\\*\\fi, of justice!")
  JumpToLabel("メニュー")
  DefineLabel("143")
  ShowMessageFace("justice_fc1",0,0,2,2)
  ShowMessage("\\n<Jessica (Affection:\\V[3557])>There you are, demon\\*\\fi succubus\\*\\fi!")
  ShowMessageFace("eva_fc1",2,0,2,3)
  ShowMessage("\\n<Eva (Affection:\\V[3143])>That troublesome cosplay woman is in a place like this?! Aren't you ashamed of doing such a thing at your age?!")
  ShowMessageFace("justice_fc1",0,0,2,4)
  ShowMessage("\\n<Jessica (Affection:\\V[3557])>You must work hard for the people of the world!")
  ShowMessageFace("eva_fc1",2,0,2,5)
  ShowMessage("\\n<Eva (Affection:\\V[3143])>I don't want to hear that from you!")
  JumpToLabel("メニュー")
  DefineLabel("メニュー")
  ShowChoices(strings("Add to party","Never mind"),2)
  IfPlayerPicksChoice(0,null)
   PictureClear(5)
   355("move_actor_ex(557)")
   EndEventProcessing()
   0()
  IfPlayerPicksChoice(1,null)
   PictureClear(5)
   EndEventProcessing()
   0()
  404()
  0()
 PAGE   2
  // condition: party contains actor #557
  0()



EVENT   28
 PAGE   1
  // condition: switch 1550 is ON
  PictureDisplay(5,"80_mob_kakutou_st01",0,0,0,0,100,100,0,0)
  PictureMove(5,null,0,0,0,0,100,100,255,0,30,true)
  355("actor_label_jump")
  ShowMessageFace("mob_kakutou_fc1",0,0,2,1)
  ShowMessage("\\n<Mei-Lin (Affection:\\V[3550])>My arms are going to get stiff in here. Hey! Take me on a training expedition!")
  JumpToLabel("メニュー")
  DefineLabel("メニュー")
  ShowChoices(strings("Add to party","Never mind"),2)
  IfPlayerPicksChoice(0,null)
   PictureClear(5)
   355("move_actor_ex(550)")
   EndEventProcessing()
   0()
  IfPlayerPicksChoice(1,null)
   PictureClear(5)
   EndEventProcessing()
   0()
  404()
  0()
 PAGE   2
  // condition: party contains actor #550
  0()



EVENT   30
 PAGE   1
  // condition: switch 1559 is ON
  PictureDisplay(5,"80_mob_assasin1_st01",0,0,0,0,100,100,0,0)
  PictureMove(5,null,0,0,0,0,100,100,255,0,30,true)
  355("actor_label_jump")
  ShowMessageFace("mob_assasin1_fc1",1,0,2,1)
  ShowMessage("\\n<Saran (Affection:\\V[3559])>I am a blade of the shadows. You decide who I am to point at...")
  JumpToLabel("メニュー")
  DefineLabel("メニュー")
  ShowChoices(strings("Add to party","Never mind"),2)
  IfPlayerPicksChoice(0,null)
   PictureClear(5)
   355("move_actor_ex(559)")
   EndEventProcessing()
   0()
  IfPlayerPicksChoice(1,null)
   PictureClear(5)
   EndEventProcessing()
   0()
  404()
  0()
 PAGE   2
  // condition: party contains actor #559
  0()



EVENT   24
 PAGE   1
  // condition: switch 1095 is ON
  PictureDisplay(5,"80_delh_a_st01",0,0,0,0,100,100,0,0)
  PictureMove(5,null,0,0,0,0,100,100,255,0,30,true)
  If(1,3095,0,10,1)
   If(1,4095,0,0,0)
    ChangeVariable(4095,4095,0,0,1)
    ShowMessageFace("delh_a_fc1",0,0,2,1)
    ShowMessage("\\n<Lona (Affection:\\V[3095])>Will you accept this? Th-there's no special meaning behind it.")
    250(bytes(0x04,0x08,0x6f,0x3a,0x0c,0x52,0x50,0x47,0x3a,0x3a,0x53,0x45,0x08,0x3a,0x0a,0x40,0x6e,0x61,0x6d,0x65,0x49,0x22,0x0a,0x49,0x74,0x65,0x6d,0x31,0x06,0x3a,0x06,0x45,0x54,0x3a,0x0b,0x40,0x70,0x69,0x74,0x63,0x68,0x69,0x69,0x3a,0x0c,0x40,0x76,0x6f,0x6c,0x75,0x6d,0x65,0x69,0x55))
    ChangeInventoryWeapon(56,0,0,1,false)
    0()
   EndIf()
   0()
  EndIf()
  If(1,3095,0,100,1)
   If(1,4095,0,1,0)
    ChangeVariable(4095,4095,0,0,2)
    ShowMessageFace("delh_a_fc1",0,0,2,2)
    ShowMessage("\\n<Lona (Affection:\\V[3095])>Will you accept this? Th-there's no special meaning behind it.")
    250(bytes(0x04,0x08,0x6f,0x3a,0x0c,0x52,0x50,0x47,0x3a,0x3a,0x53,0x45,0x08,0x3a,0x0a,0x40,0x6e,0x61,0x6d,0x65,0x49,0x22,0x0a,0x49,0x74,0x65,0x6d,0x31,0x06,0x3a,0x06,0x45,0x54,0x3a,0x0b,0x40,0x70,0x69,0x74,0x63,0x68,0x69,0x69,0x3a,0x0c,0x40,0x76,0x6f,0x6c,0x75,0x6d,0x65,0x69,0x55))
    ChangeInventoryArmor(1011,0,0,1,false)
    0()
   EndIf()
   0()
  EndIf()
  If(1,3095,0,500,1)
   If(1,4095,0,2,0)
    ChangeVariable(4095,4095,0,0,3)
    ShowMessageFace("delh_a_fc1",0,0,2,3)
    ShowMessage("\\n<Lona (Affection:\\V[3095])>Will you accept this? Th-there's no special meaning behind it.")
    250(bytes(0x04,0x08,0x6f,0x3a,0x0c,0x52,0x50,0x47,0x3a,0x3a,0x53,0x45,0x08,0x3a,0x0a,0x40,0x6e,0x61,0x6d,0x65,0x49,0x22,0x0a,0x49,0x74,0x65,0x6d,0x31,0x06,0x3a,0x06,0x45,0x54,0x3a,0x0b,0x40,0x70,0x69,0x74,0x63,0x68,0x69,0x69,0x3a,0x0c,0x40,0x76,0x6f,0x6c,0x75,0x6d,0x65,0x69,0x55))
    ChangeInventoryArmor(1285,0,0,1,false)
    0()
   EndIf()
   0()
  EndIf()
  If(1,3095,0,2000,1)
   If(1,4095,0,3,0)
    ChangeVariable(4095,4095,0,0,4)
    ShowMessageFace("delh_a_fc1",0,0,2,4)
    ShowMessage("\\n<Lona (Affection:\\V[3095])>Will you accept this? Th-there's no special meaning behind it.")
    250(bytes(0x04,0x08,0x6f,0x3a,0x0c,0x52,0x50,0x47,0x3a,0x3a,0x53,0x45,0x08,0x3a,0x0a,0x40,0x6e,0x61,0x6d,0x65,0x49,0x22,0x0a,0x49,0x74,0x65,0x6d,0x31,0x06,0x3a,0x06,0x45,0x54,0x3a,0x0b,0x40,0x70,0x69,0x74,0x63,0x68,0x69,0x69,0x3a,0x0c,0x40,0x76,0x6f,0x6c,0x75,0x6d,0x65,0x69,0x55))
    ChangeInventoryArmor(1047,0,0,1,false)
    0()
   EndIf()
   0()
  EndIf()
  355("actor_label_jump")
  ShowMessageFace("delh_a_fc1",0,0,2,5)
  ShowMessage("\\n<Lona (Affection:\\V[3095])>Obediently turn to darkness. Now, take me with you!")
  JumpToLabel("メニュー")
  DefineLabel("96")
  ShowMessageFace("delh_b_fc1",0,0,2,6)
  ShowMessage("\\n<Marion (Affection:\\V[3096])>I see you're diligently training your sword skills, as usual. You're a dark elf. You should be drowning in your own desires.")
  ShowMessageFace("delh_a_fc1",0,0,2,7)
  ShowMessage("\\n<Lona (Affection:\\V[3095])>But my skills dull if I don't train...")
  ShowMessageFace("delh_b_fc1",0,0,2,8)
  ShowMessage("\\n<Marion (Affection:\\V[3096])>Are those really the words of someone who succumbed to darkness? Are you sure you're not just an elf with a good tan?")
  ShowMessageFace("delh_a_fc1",1,0,2,9)
  ShowMessage("\\n<Lona (Affection:\\V[3095])>Well, I just woke up! I can't just immediately go fuck someone!")
  ShowMessageFace("sonia_fc4",0,0,2,10)
  ShowMessage("\\n<Sonya>(The world of dark elves has its own hardships...)")
  JumpToLabel("メニュー")
  DefineLabel("156")
  ShowMessageFace("delh_a_fc1",0,0,2,11)
  ShowMessage("\\n<Lona (Affection:\\V[3095])>You seem to be an excellent warrior. (But you're dressed like a slut...)")
  ShowMessageFace("d_fighter_fc1",3,0,2,12)
  ShowMessage("\\n<Regina (Affection:\\V[3156])>I could say the same about you. (Whoa, it's a pervert elf. Pervelf for short.)")
  ShowMessageFace("delh_a_fc1",0,0,2,13)
  ShowMessage("\\n<Lona (Affection:\\V[3095])>Want to be my sparring partner for a bit? (Look at yourself. Have you no shame?)")
  ShowMessageFace("d_fighter_fc1",3,0,2,14)
  ShowMessage("\\n<Regina (Affection:\\V[3156])>As you wish. Here I come! (This pervert is completely exposed. She goes outside dressed like that?)")
  JumpToLabel("メニュー")
  DefineLabel("170")
  ShowMessageFace("delh_a_fc1",0,0,2,15)
  ShowMessage("\\n<Lona (Affection:\\V[3095])>You seem pretty skilled, despite being a theif.")
  ShowMessageFace("lizardthief_fc2",0,0,2,16)
  ShowMessage("\\n<Len (Affection:\\V[3170])>And you seem pretty disciplined, despite being a dark elf.")
  ShowMessageFace("delh_a_fc1",0,0,2,17)
  ShowMessage("\\n<Lona (Affection:\\V[3095])>Well then, shall we have a match?")
  ShowMessageFace("lizardthief_fc2",0,0,2,18)
  ShowMessage("\\n<Len (Affection:\\V[3170])>Makes no difference to me. Shall we begin?")
  ShowMessageFace("sonia_fc2",5,0,2,19)
  ShowMessage("\\n<Sonya>You too?! You can't fight here!")
  JumpToLabel("メニュー")
  DefineLabel("メニュー")
  StartLoop()
   355("unlimited_choices(11, [\"Give presents\",")
   655("\"Add to party\",")
   655("\"View present list\",\"Request\",")
   655("\"Never mind\"])")
   If(1,11,0,0,0)
    355("present_start(95)")
    0()
   EndIf()
   If(1,11,0,1,0)
    PictureClear(5)
    355("move_actor_ex(95)")
    EndEventProcessing()
    0()
   EndIf()
   If(1,11,0,2,0)
    ShowMessageFace(binary"",0,0,2,20)
    ShowMessage("Affection   10:\\iw[56]")
    ShowMessage("Affection  100:\\ia[1011]")
    ShowMessage("Affection  500:\\ia[1285]")
    ShowMessage("Affection 2000:\\ia[1047]")
    0()
   EndIf()
   If(1,11,0,3,0)
    PictureClear(5)
    ShowMessageFace("",0,0,2,21)
    ShowMessage("Ask her for what? (Affection:\\V[3095])")
    ShowChoices(strings("Elf Reverse Rape(Affection:10)","Never mind"),2)
    IfPlayerPicksChoice(0,null)
     If(1,3095,0,10,1)
      355("call_novel_scene(4266)")
      EndEventProcessing()
      0()
     Else()
      ShowMessageFace("delh_a_fc1",2,0,2,22)
      ShowMessage("\\n<Lona (Affection:\\V[3095])>I'm falling further and further into darkness, and my desires are too strong...")
      0()
     EndIf()
     0()
    IfPlayerPicksChoice(1,null)
     0()
    404()
    0()
   EndIf()
   If(1,11,0,4,1)
    PictureClear(5)
    EndEventProcessing()
    0()
   EndIf()
   0()
  EndLoop()
  0()
 PAGE   2
  // condition: party contains actor #95
  0()