
DisplayName "Lily's Mansion 1F (West)"



EVENT   1
 PAGE   1
  0()



EVENT   6
 PAGE   1
  108("明かり設定3000800")
  0()



EVENT   8
 PAGE   1
  108("明かり設定3300300")
  0()



EVENT   11
 PAGE   1
  108("明かり設定3300300")
  0()



EVENT   12
 PAGE   1
  If(1,1029,0,5,1)
   250(bytes(0x04,0x08,0x6f,0x3a,0x0c,0x52,0x50,0x47,0x3a,0x3a,0x53,0x45,0x08,0x3a,0x0a,0x40,0x6e,0x61,0x6d,0x65,0x49,0x22,0x09,0x4d,0x6f,0x76,0x65,0x06,0x3a,0x06,0x45,0x54,0x3a,0x0b,0x40,0x70,0x69,0x74,0x63,0x68,0x69,0x69,0x3a,0x0c,0x40,0x76,0x6f,0x6c,0x75,0x6d,0x65,0x69,0x55))
   TeleportPlayer(0,359,38,23,0,0)
   EndEventProcessing()
   0()
  EndIf()
  If(0,2091,1)
   ShowMessageFace("",0,0,2,1)
   ShowMessage("The door is firmly shut...")
   EndEventProcessing()
   0()
  Else()
   250(bytes(0x04,0x08,0x6f,0x3a,0x0c,0x52,0x50,0x47,0x3a,0x3a,0x53,0x45,0x08,0x3a,0x0a,0x40,0x6e,0x61,0x6d,0x65,0x49,0x22,0x09,0x4d,0x6f,0x76,0x65,0x06,0x3a,0x06,0x45,0x54,0x3a,0x0b,0x40,0x70,0x69,0x74,0x63,0x68,0x69,0x69,0x3a,0x0c,0x40,0x76,0x6f,0x6c,0x75,0x6d,0x65,0x69,0x55))
   TeleportPlayer(0,359,38,23,0,0)
   EndEventProcessing()
   0()
  EndIf()
  0()



EVENT   13
 PAGE   1
  108("明かり設定3300300")
  0()



EVENT   14
 PAGE   1
  108("明かり設定3300300")
  0()



EVENT   15
 PAGE   1
  108("明かり設定3300300")
  0()



EVENT   17
 PAGE   1
  108("明かり設定3300300")
  0()



EVENT   18
 PAGE   1
  108("明かり設定3300300")
  0()



EVENT   19
 PAGE   1
  108("明かり設定3300300")
  0()



EVENT   21
 PAGE   1
  108("明かり設定3300300")
  0()



EVENT   23
 PAGE   1
  108("明かり設定3300300")
  0()



EVENT   24
 PAGE   1
  108("明かり設定3300300")
  0()



EVENT   16
 PAGE   1
  250(bytes(0x04,0x08,0x6f,0x3a,0x0c,0x52,0x50,0x47,0x3a,0x3a,0x53,0x45,0x08,0x3a,0x0a,0x40,0x6e,0x61,0x6d,0x65,0x49,0x22,0x09,0x4d,0x6f,0x76,0x65,0x06,0x3a,0x06,0x45,0x54,0x3a,0x0b,0x40,0x70,0x69,0x74,0x63,0x68,0x69,0x69,0x3a,0x0c,0x40,0x76,0x6f,0x6c,0x75,0x6d,0x65,0x69,0x55))
  TeleportPlayer(0,359,38,28,0,0)
  0()



EVENT   20
 PAGE   1
  250(bytes(0x04,0x08,0x6f,0x3a,0x0c,0x52,0x50,0x47,0x3a,0x3a,0x53,0x45,0x08,0x3a,0x0a,0x40,0x6e,0x61,0x6d,0x65,0x49,0x22,0x09,0x4d,0x6f,0x76,0x65,0x06,0x3a,0x06,0x45,0x54,0x3a,0x0b,0x40,0x70,0x69,0x74,0x63,0x68,0x69,0x69,0x3a,0x0c,0x40,0x76,0x6f,0x6c,0x75,0x6d,0x65,0x69,0x55))
  TeleportPlayer(0,359,39,28,0,0)
  0()



EVENT   26
 PAGE   1
  0()



EVENT   27
 PAGE   1
  0()



EVENT   9
 PAGE   1
  0()



EVENT   22
 PAGE   1
  0()



EVENT   30
 PAGE   1
  108("明かり設定3300300")
  0()



EVENT   31
 PAGE   1
  108("明かり設定3300300")
  0()



EVENT   4
 PAGE   1
  250(bytes(0x04,0x08,0x6f,0x3a,0x0c,0x52,0x50,0x47,0x3a,0x3a,0x53,0x45,0x08,0x3a,0x0a,0x40,0x6e,0x61,0x6d,0x65,0x49,0x22,0x09,0x4d,0x6f,0x76,0x65,0x06,0x3a,0x06,0x45,0x54,0x3a,0x0b,0x40,0x70,0x69,0x74,0x63,0x68,0x69,0x69,0x3a,0x0c,0x40,0x76,0x6f,0x6c,0x75,0x6d,0x65,0x69,0x55))
  TeleportPlayer(0,360,1,9,6,0)
  0()



EVENT   7
 PAGE   1
  223(bytes(0x04,0x08,0x75,0x3a,0x09,0x54,0x6f,0x6e,0x65,0x25,0x00,0x00,0x00,0x00,0x00,0x00,0x51,0xc0,0x00,0x00,0x00,0x00,0x00,0x00,0x51,0xc0,0x00,0x00,0x00,0x00,0x00,0x00,0x00,0x00,0x00,0x00,0x00,0x00,0x00,0x00,0x51,0x40),1,true)
  TemporaryRemoveEvent()
  0()



EVENT   5
 PAGE   1
  If(8,521)
   250(bytes(0x04,0x08,0x6f,0x3a,0x0c,0x52,0x50,0x47,0x3a,0x3a,0x53,0x45,0x08,0x3a,0x0a,0x40,0x6e,0x61,0x6d,0x65,0x49,0x22,0x09,0x4d,0x6f,0x76,0x65,0x06,0x3a,0x06,0x45,0x54,0x3a,0x0b,0x40,0x70,0x69,0x74,0x63,0x68,0x69,0x69,0x3a,0x0c,0x40,0x76,0x6f,0x6c,0x75,0x6d,0x65,0x69,0x55))
   TeleportPlayer(0,361,13,38,8,0)
   0()
  Else()
   ChangeSwitch(2093,2093,0)
   250(bytes(0x04,0x08,0x6f,0x3a,0x0c,0x52,0x50,0x47,0x3a,0x3a,0x53,0x45,0x08,0x3a,0x0a,0x40,0x6e,0x61,0x6d,0x65,0x49,0x22,0x0b,0x4d,0x61,0x67,0x69,0x63,0x31,0x06,0x3a,0x06,0x45,0x54,0x3a,0x0b,0x40,0x70,0x69,0x74,0x63,0x68,0x69,0x69,0x3a,0x0c,0x40,0x76,0x6f,0x6c,0x75,0x6d,0x65,0x69,0x55))
   250(bytes(0x04,0x08,0x6f,0x3a,0x0c,0x52,0x50,0x47,0x3a,0x3a,0x53,0x45,0x08,0x3a,0x0a,0x40,0x6e,0x61,0x6d,0x65,0x49,0x22,0x09,0x4d,0x6f,0x76,0x65,0x06,0x3a,0x06,0x45,0x54,0x3a,0x0b,0x40,0x70,0x69,0x74,0x63,0x68,0x69,0x69,0x3a,0x0c,0x40,0x76,0x6f,0x6c,0x75,0x6d,0x65,0x69,0x55))
   TeleportPlayer(0,360,16,22,2,0)
   If(0,4,0)
    ShowMessageFace("alice_fc5",0,0,2,1)
    ShowMessage("\\n<Alice>Hmm... Something feels strange.")
    0()
   EndIf()
   If(0,5,0)
    ShowMessageFace("iriasu_fc4",2,0,2,2)
    ShowMessage("\\n<Ilias>...Something feels strange.")
    0()
   EndIf()
   If(0,6,0)
    ShowMessageFace("sonia_fc2",2,0,2,3)
    ShowMessage("\\n<Sonya>We went down the stairs from the first floor. Why are we on the first floor again?")
    0()
   Else()
    ShowMessageFace("ruka_fc1",0,0,2,4)
    ShowMessage("\\n<Luka>I know we went down the stairs from the first floor, so how are we still on the first floor?")
    0()
   EndIf()
   If(0,4,0)
    ShowMessageFace("alice_fc5",0,0,2,5)
    ShowMessage("\\n<Alice>The stairs are equipped with teleportation magic that instantly moves us to a different location. To actually go down the stairs, we need to find a way to break that magic...")
    0()
   EndIf()
   If(0,5,0)
    ShowMessageFace("iriasu_fc4",7,0,2,6)
    ShowMessage("\\n<Ilias>The stairs are equipped with teleportation magic that sends us to a different location. To go downstairs, we have to find a method of breaking the spell...")
    0()
   EndIf()
   0()
  EndIf()
  0()



EVENT   2
 PAGE   1
  250(bytes(0x04,0x08,0x6f,0x3a,0x0c,0x52,0x50,0x47,0x3a,0x3a,0x53,0x45,0x08,0x3a,0x0a,0x40,0x6e,0x61,0x6d,0x65,0x49,0x22,0x0a,0x43,0x68,0x65,0x73,0x74,0x06,0x3a,0x06,0x45,0x54,0x3a,0x0b,0x40,0x70,0x69,0x74,0x63,0x68,0x69,0x69,0x3a,0x0c,0x40,0x76,0x6f,0x6c,0x75,0x6d,0x65,0x69,0x55))
  205(0,bytes(0x04,0x08,0x6f,0x3a,0x13,0x52,0x50,0x47,0x3a,0x3a,0x4d,0x6f,0x76,0x65,0x52,0x6f,0x75,0x74,0x65,0x09,0x3a,0x0c,0x40,0x72,0x65,0x70,0x65,0x61,0x74,0x46,0x3a,0x0f,0x40,0x73,0x6b,0x69,0x70,0x70,0x61,0x62,0x6c,0x65,0x46,0x3a,0x0a,0x40,0x77,0x61,0x69,0x74,0x54,0x3a,0x0a,0x40,0x6c,0x69,0x73,0x74,0x5b,0x0b,0x6f,0x3a,0x15,0x52,0x50,0x47,0x3a,0x3a,0x4d,0x6f,0x76,0x65,0x43,0x6f,0x6d,0x6d,0x61,0x6e,0x64,0x07,0x3a,0x0a,0x40,0x63,0x6f,0x64,0x65,0x69,0x29,0x3a,0x10,0x40,0x70,0x61,0x72,0x61,0x6d,0x65,0x74,0x65,0x72,0x73,0x5b,0x00,0x6f,0x3b,0x0a,0x07,0x3b,0x0b,0x69,0x16,0x3b,0x0c,0x5b,0x00,0x6f,0x3b,0x0a,0x07,0x3b,0x0b,0x69,0x14,0x3b,0x0c,0x5b,0x06,0x69,0x08,0x6f,0x3b,0x0a,0x07,0x3b,0x0b,0x69,0x17,0x3b,0x0c,0x5b,0x00,0x6f,0x3b,0x0a,0x07,0x3b,0x0b,0x69,0x14,0x3b,0x0c,0x5b,0x06,0x69,0x08,0x6f,0x3b,0x0a,0x07,0x3b,0x0b,0x69,0x00,0x3b,0x0c,0x5b,0x00))
  ChangeSelfSwitch("A",0)
  ChangeInventory_Item(5,0,0,1)
  0()
 PAGE   2
  // condition: self-switch A is ON
  0()



EVENT   3
 PAGE   1
  250(bytes(0x04,0x08,0x6f,0x3a,0x0c,0x52,0x50,0x47,0x3a,0x3a,0x53,0x45,0x08,0x3a,0x0a,0x40,0x6e,0x61,0x6d,0x65,0x49,0x22,0x0a,0x43,0x68,0x65,0x73,0x74,0x06,0x3a,0x06,0x45,0x54,0x3a,0x0b,0x40,0x70,0x69,0x74,0x63,0x68,0x69,0x69,0x3a,0x0c,0x40,0x76,0x6f,0x6c,0x75,0x6d,0x65,0x69,0x55))
  205(0,bytes(0x04,0x08,0x6f,0x3a,0x13,0x52,0x50,0x47,0x3a,0x3a,0x4d,0x6f,0x76,0x65,0x52,0x6f,0x75,0x74,0x65,0x09,0x3a,0x0c,0x40,0x72,0x65,0x70,0x65,0x61,0x74,0x46,0x3a,0x0f,0x40,0x73,0x6b,0x69,0x70,0x70,0x61,0x62,0x6c,0x65,0x46,0x3a,0x0a,0x40,0x77,0x61,0x69,0x74,0x54,0x3a,0x0a,0x40,0x6c,0x69,0x73,0x74,0x5b,0x0b,0x6f,0x3a,0x15,0x52,0x50,0x47,0x3a,0x3a,0x4d,0x6f,0x76,0x65,0x43,0x6f,0x6d,0x6d,0x61,0x6e,0x64,0x07,0x3a,0x0a,0x40,0x63,0x6f,0x64,0x65,0x69,0x29,0x3a,0x10,0x40,0x70,0x61,0x72,0x61,0x6d,0x65,0x74,0x65,0x72,0x73,0x5b,0x00,0x6f,0x3b,0x0a,0x07,0x3b,0x0b,0x69,0x16,0x3b,0x0c,0x5b,0x00,0x6f,0x3b,0x0a,0x07,0x3b,0x0b,0x69,0x14,0x3b,0x0c,0x5b,0x06,0x69,0x08,0x6f,0x3b,0x0a,0x07,0x3b,0x0b,0x69,0x17,0x3b,0x0c,0x5b,0x00,0x6f,0x3b,0x0a,0x07,0x3b,0x0b,0x69,0x14,0x3b,0x0c,0x5b,0x06,0x69,0x08,0x6f,0x3b,0x0a,0x07,0x3b,0x0b,0x69,0x00,0x3b,0x0c,0x5b,0x00))
  ChangeSelfSwitch("A",0)
  ChangeInventoryArmor(1315,0,0,1)
  0()
 PAGE   2
  // condition: self-switch A is ON
  0()



EVENT   28
 PAGE   1
  250(bytes(0x04,0x08,0x6f,0x3a,0x0c,0x52,0x50,0x47,0x3a,0x3a,0x53,0x45,0x08,0x3a,0x0a,0x40,0x6e,0x61,0x6d,0x65,0x49,0x22,0x0a,0x43,0x68,0x65,0x73,0x74,0x06,0x3a,0x06,0x45,0x54,0x3a,0x0b,0x40,0x70,0x69,0x74,0x63,0x68,0x69,0x69,0x3a,0x0c,0x40,0x76,0x6f,0x6c,0x75,0x6d,0x65,0x69,0x55))
  205(0,bytes(0x04,0x08,0x6f,0x3a,0x13,0x52,0x50,0x47,0x3a,0x3a,0x4d,0x6f,0x76,0x65,0x52,0x6f,0x75,0x74,0x65,0x09,0x3a,0x0c,0x40,0x72,0x65,0x70,0x65,0x61,0x74,0x46,0x3a,0x0f,0x40,0x73,0x6b,0x69,0x70,0x70,0x61,0x62,0x6c,0x65,0x46,0x3a,0x0a,0x40,0x77,0x61,0x69,0x74,0x54,0x3a,0x0a,0x40,0x6c,0x69,0x73,0x74,0x5b,0x0b,0x6f,0x3a,0x15,0x52,0x50,0x47,0x3a,0x3a,0x4d,0x6f,0x76,0x65,0x43,0x6f,0x6d,0x6d,0x61,0x6e,0x64,0x07,0x3a,0x0a,0x40,0x63,0x6f,0x64,0x65,0x69,0x29,0x3a,0x10,0x40,0x70,0x61,0x72,0x61,0x6d,0x65,0x74,0x65,0x72,0x73,0x5b,0x00,0x6f,0x3b,0x0a,0x07,0x3b,0x0b,0x69,0x16,0x3b,0x0c,0x5b,0x00,0x6f,0x3b,0x0a,0x07,0x3b,0x0b,0x69,0x14,0x3b,0x0c,0x5b,0x06,0x69,0x08,0x6f,0x3b,0x0a,0x07,0x3b,0x0b,0x69,0x17,0x3b,0x0c,0x5b,0x00,0x6f,0x3b,0x0a,0x07,0x3b,0x0b,0x69,0x14,0x3b,0x0c,0x5b,0x06,0x69,0x08,0x6f,0x3b,0x0a,0x07,0x3b,0x0b,0x69,0x00,0x3b,0x0c,0x5b,0x00))
  ChangeSelfSwitch("A",0)
  ChangeInventory_Item(52,0,0,1)
  0()
 PAGE   2
  // condition: self-switch A is ON
  0()



EVENT   29
 PAGE   1
  ChangeSwitch(31,31,1)
  ChangeSwitch(100,100,1)
  250(bytes(0x04,0x08,0x6f,0x3a,0x0c,0x52,0x50,0x47,0x3a,0x3a,0x53,0x45,0x08,0x3a,0x0a,0x40,0x6e,0x61,0x6d,0x65,0x49,0x22,0x09,0x4d,0x6f,0x76,0x65,0x06,0x3a,0x06,0x45,0x54,0x3a,0x0b,0x40,0x70,0x69,0x74,0x63,0x68,0x69,0x69,0x3a,0x0c,0x40,0x76,0x6f,0x6c,0x75,0x6d,0x65,0x69,0x55))
  223(bytes(0x04,0x08,0x75,0x3a,0x09,0x54,0x6f,0x6e,0x65,0x25,0x00,0x00,0x00,0x00,0x00,0x00,0x00,0x00,0x00,0x00,0x00,0x00,0x00,0x00,0x00,0x00,0x00,0x00,0x00,0x00,0x00,0x00,0x00,0x00,0x00,0x00,0x00,0x00,0x00,0x00,0x00,0x00),1,true)
  TeleportPlayer(0,224,38,17,0,0)
  0()



EVENT   33
 PAGE   1
  0()
 PAGE   2
  // condition: variable 1029 >= 3
  0()



EVENT   34
 PAGE   1
  ChangeSwitch(100,100,0)
  241(bytes(0x04,0x08,0x6f,0x3a,0x0d,0x52,0x50,0x47,0x3a,0x3a,0x42,0x47,0x4d,0x08,0x3a,0x0a,0x40,0x6e,0x61,0x6d,0x65,0x49,0x22,0x0a,0x6b,0x69,0x6b,0x69,0x32,0x06,0x3a,0x06,0x45,0x54,0x3a,0x0c,0x40,0x76,0x6f,0x6c,0x75,0x6d,0x65,0x69,0x69,0x3a,0x0b,0x40,0x70,0x69,0x74,0x63,0x68,0x69,0x69))
  205(33,bytes(0x04,0x08,0x6f,0x3a,0x13,0x52,0x50,0x47,0x3a,0x3a,0x4d,0x6f,0x76,0x65,0x52,0x6f,0x75,0x74,0x65,0x09,0x3a,0x0c,0x40,0x72,0x65,0x70,0x65,0x61,0x74,0x46,0x3a,0x0f,0x40,0x73,0x6b,0x69,0x70,0x70,0x61,0x62,0x6c,0x65,0x46,0x3a,0x0a,0x40,0x77,0x61,0x69,0x74,0x54,0x3a,0x0a,0x40,0x6c,0x69,0x73,0x74,0x5b,0x0e,0x6f,0x3a,0x15,0x52,0x50,0x47,0x3a,0x3a,0x4d,0x6f,0x76,0x65,0x43,0x6f,0x6d,0x6d,0x61,0x6e,0x64,0x07,0x3a,0x0a,0x40,0x63,0x6f,0x64,0x65,0x69,0x22,0x3a,0x10,0x40,0x70,0x61,0x72,0x61,0x6d,0x65,0x74,0x65,0x72,0x73,0x5b,0x06,0x69,0x09,0x6f,0x3b,0x0a,0x07,0x3b,0x0b,0x69,0x06,0x3b,0x0c,0x5b,0x00,0x6f,0x3b,0x0a,0x07,0x3b,0x0b,0x69,0x06,0x3b,0x0c,0x5b,0x00,0x6f,0x3b,0x0a,0x07,0x3b,0x0b,0x69,0x06,0x3b,0x0c,0x5b,0x00,0x6f,0x3b,0x0a,0x07,0x3b,0x0b,0x69,0x06,0x3b,0x0c,0x5b,0x00,0x6f,0x3b,0x0a,0x07,0x3b,0x0b,0x69,0x06,0x3b,0x0c,0x5b,0x00,0x6f,0x3b,0x0a,0x07,0x3b,0x0b,0x69,0x06,0x3b,0x0c,0x5b,0x00,0x6f,0x3b,0x0a,0x07,0x3b,0x0b,0x69,0x06,0x3b,0x0c,0x5b,0x00,0x6f,0x3b,0x0a,0x07,0x3b,0x0b,0x69,0x00,0x3b,0x0c,0x5b,0x00))
  PictureDisplay(5,"80_lily_st11",0,0,0,0,100,100,0,0)
  PictureMove(5,null,0,0,0,0,100,100,255,0,30,true)
  ShowMessageFace("lily_fc1",0,0,2,1)
  ShowMessage("\\n<Lily>I've been expecting you... I am this village's lord, Lily Maistre.")
  ShowMessageFace("lily_fc1",0,0,2,2)
  ShowMessage("\\n<Lily>You came to listen to my side of the story, right? Come this way, please...")
  PictureClear(5)
  221()
  ChangeVariable(1029,1029,0,0,3)
  281(1)
  TeleportPlayer(0,359,34,36,4,2)
  222()
  PictureDisplay(5,"80_lily_st11",0,0,0,0,100,100,0,0)
  PictureMove(5,null,0,0,0,0,100,100,255,0,30,true)
  If(0,1529,1)
   ShowMessageFace("ruka_fc1",0,0,2,3)
   ShowMessage("\\n<Luka>Um, about what you did in this village...")
   0()
  Else()
   ShowMessageFace("sara_fc1",2,0,2,4)
   ShowMessage("\\n<Sara>Apologies for my rudeness, but I need to get right to the point. We've heard rumors of you executing the men of this village without due process of law...")
   0()
  EndIf()
  PictureDisplay(5,"80_lily_st13",0,0,0,0,100,100,255,0)
  ShowMessageFace("lily_fc1",2,0,2,5)
  ShowMessage("\\n<Lily>You've talked to the people of this village, haven't you? The men here brutally abused the women.")
  ShowMessageFace("lily_fc1",2,0,2,6)
  ShowMessage("\\n<Lily>They oppressed us and justified it as tradition... As a result, the majority of the women in this village died before the age of twenty.")
  ShowMessageFace("lily_fc1",2,0,2,7)
  ShowMessage("\\n<Lily>The only thing that let us break out of those circumstances was power... We just defended ourselves.")
  If(0,1529,1)
   ShowMessageFace("ruka_fc1",0,0,2,8)
   ShowMessage("\\n<Luka>But killing all the men was too much... Couldn't you have appealed to Sabasa's capital, or something like that?")
   ShowMessageFace("lily_fc1",2,0,2,9)
   ShowMessage("\\n<Lily>Sabasa left this village alone, and nothing was ever done... In this village, the average lifespan of men and women differed by thirty years.")
   0()
  Else()
   ShowMessageFace("sara_fc1",0,0,2,10)
   ShowMessage("\\n<Sara>No matter the circumstances, those were lynchings. The law explicitly forbids that.")
   ShowMessageFace("lily_fc1",2,0,2,11)
   ShowMessage("\\n<Lily>The central government pretends to enforce its Constitution, but where has that gotten us? In this village, the average lifespan of men and women differed by over thirty years.")
   0()
  EndIf()
  If(0,6,0)
   ShowMessageFace("sonia_fc3",7,0,2,12)
   ShowMessage("\\n<Sonya>The average lifespan of men and women differed by over thirty years? How the hell...")
   0()
  Else()
   ShowMessageFace("ruka_fc1",0,0,2,13)
   ShowMessage("\\n<Luka>The average lifespan of men and women differed by over thirty years? How on earth did that...")
   0()
  EndIf()
  If(0,1529,1)
   ShowMessageFace("lily_fc1",2,0,2,14)
   ShowMessage("\\n<Lily>Using its autonomy and independence as protection, this village has left the central government's control. In fact, the law actually protected those brutal oppressors.")
   0()
  Else()
   ShowMessageFace("lily_fc1",2,0,2,15)
   ShowMessage("\\n<Lily>The capital had surely figured out at least that much, hadn't it? It knew of this, and yet it did nothing... It did nothing for such a long time.")
   ShowMessageFace("sara_fc1",4,0,2,16)
   ShowMessage("\\n<Sara>The Fifth Article of the Sabasa Constitution guarantees this village's local administrative rights, so... A forceful intervention would be a violation of the Constitution...")
   ShowMessageFace("lily_fc1",2,0,2,17)
   ShowMessage("\\n<Lily>Yes, that certainly would be an infringement of our local autonomy. Most abuses can be resolved without directly intervening in civil affairs...")
   ShowMessageFace("lily_fc1",2,0,2,18)
   ShowMessage("\\n<Lily>Many traditions are protected to allow freedom of thought... And, above all, without victims willing to accuse their abusers, the abusers won't have to face justice.")
   ShowMessageFace("lily_fc1",2,0,2,19)
   ShowMessage("\\n<Lily>Do you think the women of this village were capable of performing legal formalities?! The women confined to their homes, unable to leave, being beaten continuously?!")
   ShowMessageFace("lily_fc1",2,0,2,20)
   ShowMessage("\\n<Lily>You think I was pampered because I was the lord's daughter?! Wrong! I was a sacrificial lamb from the day I was born!")
   ShowMessageFace("lily_fc1",2,0,2,21)
   ShowMessage("\\n<Lily>In the end, the law only protected those brutes! What we needed was the power to break free from that mockery of life!")
   0()
  EndIf()
  ShowMessageFace("lily_fc1",2,0,2,22)
  ShowMessage("\\n<Lily>Using a book on tentacle magic that had been left in this mansion, I gained that power... and, once I was strong enough, I finally set the women of this village free.")
  If(0,1529,1)
   ShowMessageFace("ruka_fc1",0,0,2,23)
   ShowMessage("\\n<Luka>......")
   If(0,4,0)
    ShowMessageFace("alice_fc5",3,0,2,24)
    ShowMessage("\\n<Alice>In this world, not everything is purely good or evil... It's not our place to stand in judgment of her actions.")
    ShowMessageFace("alice_fc5",0,0,2,25)
    ShowMessage("\\n<Alice>Besides, I'm guessing you wanted something from us, right? I doubt you would have invited us here personally otherwise.")
    0()
   EndIf()
   If(0,5,0)
    ShowMessageFace("iriasu_fc4",2,0,2,26)
    ShowMessage("\\n<Ilias>Human society is rife with contradiction and unfairness. I have no intention of getting involved each and every time it happens.")
    ShowMessageFace("iriasu_fc4",7,0,2,27)
    ShowMessage("\\n<Ilias>Anyway, you want something from us, right? For you to invite us personally means you have a request, I presume.")
    0()
   EndIf()
   0()
  Else()
   ShowMessageFace("sara_fc1",4,0,2,28)
   ShowMessage("\\n<Sara>.........")
   ShowMessageFace("sara_fc1",0,0,2,29)
   ShowMessage("\\n<Sara>I deeply sympathize with your circumstances and apologize on behalf of the government for failing you so badly...")
   ShowMessageFace("sara_fc1",0,0,2,30)
   ShowMessage("\\n<Sara>Speaking strictly personally, I'm willing to accept what you did... But, I'm in the position of having to act according to the law.")
   PictureDisplay(5,"80_lily_st11",0,0,0,0,100,100,255,0)
   ShowMessageFace("lily_fc1",0,0,2,31)
   ShowMessage("\\n<Lily>Well, now that we're bringing up acting according to the law... What jurisdiction do you have over me as you are now?")
   ShowMessageFace("lily_fc1",0,0,2,32)
   ShowMessage("\\n<Lily>You abdicated from the throne, and the country is currently transitioning to a parliamentary democracy... Aren't you effectively a civilian now?")
   ShowMessageFace("sara_fc1",4,0,2,33)
   ShowMessage("\\n<Sara>Yes, you are correct. At most, I'm here as a concerned citizen who will be reporting this situation to the authorities.")
   ShowMessageFace("lily_fc1",0,0,2,34)
   ShowMessage("\\n<Lily>Well, as to the massacre of the men in this village... I only granted the women power. I did not order them to do anything.")
   ShowMessageFace("lily_fc1",0,0,2,35)
   ShowMessage("\\n<Lily>They decided to break free of their own accord. They reluctantly did what they had to in order to protect themselves.")
   ShowMessageFace("lily_fc1",0,0,2,36)
   ShowMessage("\\n<Lily>Based on those facts, their actions were certainly self-defense. What happened here was a series of incidents of self-defense, not a massacre.")
   ShowMessageFace("sara_fc1",4,0,2,37)
   ShowMessage("\\n<Sara>That's absurd... In the end, you will be held accountable as the massacre's mastermind.")
   ShowMessageFace("lily_fc1",0,0,2,38)
   ShowMessage("\\n<Lily>So... can you substantiate that accusation in court? I'm innocent until proven guilty under the Constitution.")
   ShowMessageFace("sara_fc1",4,0,2,39)
   ShowMessage("\\n<Sara>......")
   ShowMessageFace("lily_fc1",0,0,2,40)
   ShowMessage("\\n<Lily>And besides... seeing as how you don't have any legal authority, I won't surrender myself to you.")
   ShowMessageFace("lily_fc1",0,0,2,41)
   ShowMessage("\\n<Lily>The reason I'm treating you like a guest despite that is because I want you to understand.")
   ShowMessageFace("lily_fc1",0,0,2,42)
   ShowMessage("\\n<Lily>Understand what our circumstances were... and why we couldn't go on without doing anything.")
   ShowMessageFace("lily_fc1",0,0,2,43)
   ShowMessage("\\n<Lily>If you want to accuse me despite understanding that, you're free to do so. However, our local autonomy and freedom from civil intervention is hard to overcome.")
   ShowMessageFace("lily_fc1",0,0,2,44)
   ShowMessage("\\n<Lily>The very same laws that kept your father from being able to save us will work in our favor this time.")
   ShowMessageFace("lily_fc1",0,0,2,45)
   ShowMessage("\\n<Lily>So if you're intent on arresting me, come back with a warrant. You have no authority now, miss ex-queen.")
   ShowMessageFace("sara_fc1",4,0,2,46)
   ShowMessage("\\n<Sara>I'll do that. This matter isn't likely to be settled any time soon.")
   ShowMessageFace("sara_fc1",4,0,2,47)
   ShowMessage("\\n<Sara>What was happening in this village must be fully investigated first. After that, I hope for a fair judgment that takes into account all the extenuating circumstances.")
   If(0,4,0)
    ShowMessageFace("alice_fc5",3,0,2,48)
    ShowMessage("\\n<Alice>...Good grief, don't blame Sara so much. She was still a child when all that happened to you and wasn't in a position to do anything about it.")
    ShowMessageFace("alice_fc5",0,0,2,49)
    ShowMessage("\\n<Alice>Also, I don't think you called us here just to score some jabs on our ex-queen. Don't you have something to talk to the rest of us about")
    0()
   EndIf()
   If(0,5,0)
    ShowMessageFace("iriasu_fc4",2,0,2,50)
    ShowMessage("\\n<Ilias>...I would appreciate it if you would refrain from attacking our ex-queen. No one short of a goddess could pronounce a fair judgment in this matter.")
    ShowMessageFace("iriasu_fc4",7,0,2,51)
    ShowMessage("\\n<Ilias>And you didn't request for us to come just to corner the ex-queen in a debate, right? You have something you want to talk about with the rest of us, do you not?")
    0()
   EndIf()
   0()
  EndIf()
  ShowMessageFace("lily_fc1",0,0,2,52)
  ShowMessage("\\n<Lily>Yes... I want to propose a deal. I think you know this already, but there are people rebelling against us.")
  ShowMessageFace("lily_fc1",0,0,2,53)
  ShowMessage("\\n<Lily>A mage named Lucia is leading a violent faction that doesn't want the power of tentacle magic to be spread around the world.")
  ShowMessageFace("lily_fc1",0,0,2,54)
  ShowMessage("\\n<Lily>Lucia was originally on my side, one of the women to whom I gave power... However, she now considers this magic dangerous and is trying to conceal it.")
  ShowMessageFace("lily_fc1",0,0,2,55)
  ShowMessage("\\n<Lily>Our disagreement broke out into armed conflict just a few days ago. I'd like you to end it by getting rid of Lucia.")
  ShowMessageFace("ruka_fc1",0,0,2,56)
  ShowMessage("\\n<Luka>That's your request? For us to defeat the rebels' leader?")
  ShowMessageFace("lily_fc1",0,0,2,57)
  ShowMessage("\\n<Lily>Of course, since this is a deal, I have something to offer in return. If you succeed, I will accompany you on your journey myself.")
  If(0,6,0)
   ShowMessageFace("sonia_fc3",7,0,2,58)
   ShowMessage("\\n<Sonya>Meaning, you'll become our comrade?")
   0()
  Else()
   ShowMessageFace("ruka_fc1",0,0,2,59)
   ShowMessage("\\n<Luka>In other words, you'll join my party?")
   0()
  EndIf()
  ShowMessageFace("lily_fc1",0,0,2,60)
  ShowMessage("\\n<Lily>Indeed... There are many more downtrodden victims out there in the world.")
  PictureDisplay(5,"80_lily_st13",0,0,0,0,100,100,255,0)
  ShowMessageFace("lily_fc1",2,0,2,61)
  ShowMessage("\\n<Lily>Since they have no power, they not only lack human dignity, but their lives are also in peril...")
  ShowMessageFace("lily_fc1",2,0,2,62)
  ShowMessage("\\n<Lily>Can't you hear them? The screams of those people... I can hear them. Their voices crying for help... and power.")
  ShowMessageFace("lily_fc1",0,0,2,63)
  ShowMessage("\\n<Lily>I want to answer those cries. Bestow the power of tentacle magic upon them, allowing them to free themselves...")
  If(0,6,0)
   ShowMessageFace("sonia_fc3",0,0,2,64)
   ShowMessage("\\n<Sonya>Journeying to save the oppressed? Are you serious...?")
   0()
  Else()
   ShowMessageFace("ruka_fc1",0,0,2,65)
   ShowMessage("\\n<Luka>Seriously? You aren't lying, are you...?")
   0()
  EndIf()
  PictureDisplay(5,"80_lily_st13",0,0,0,0,100,100,255,0)
  ShowMessageFace("lily_fc1",2,0,2,66)
  ShowMessage("\\n<Lily>I mean, listen... Can't you hear it? A child's crying voice... It's so loud. Can't you hear it?")
  ShowMessageFace("lily_fc1",2,0,2,67)
  ShowMessage("\\n<Lily>Listen, from there, too... And from there! ...They're crying, they're all crying, aren't they?!")
  ShowMessageFace("lily_fc1",2,0,2,68)
  ShowMessage("\\n<Lily>Until these cries disappear... Until then, I must come to the aid of the weak!")
  ShowMessageFace("ruka_fc1",0,0,2,69)
  ShowMessage("\\n<Luka>......")
  PictureDisplay(5,"80_lily_st11",0,0,0,0,100,100,255,0)
  ShowMessageFace("lily_fc1",0,0,2,70)
  ShowMessage("\\n<Lily>I saved everyone in this village, but the cries from the outside world won't stop...")
  ShowMessageFace("lily_fc1",0,0,2,71)
  ShowMessage("\\n<Lily>I intended to leave for a nearby village in order to stop those cries. That's when those rebels showed up...")
  ShowMessageFace("lily_fc1",0,0,2,72)
  ShowMessage("\\n<Lily>If only Lucia disappeared, I could leave on my journey. On my journey to save the oppressed and grant them power...")
  ShowMessageFace("lily_fc1",0,0,2,73)
  ShowMessage("\\n<Lily>You, too, have come here to save the weak, haven't you? Then you and I are the same...")
  ShowMessageFace("lily_fc1",0,0,2,74)
  ShowMessage("\\n<Lily>So, defeat Lucia. If you do, I'll journey together with you.")
  ShowMessageFace("lily_fc1",0,0,2,75)
  ShowMessage("\\n<Lily>You don't have to kill Lucia... Just silence her. It's fine so long as she doesn't disturb the peace of this village.")
  If(0,4,0)
   ShowMessageFace("alice_fc5",3,0,2,76)
   ShowMessage("\\n<Alice>......")
   ShowMessageFace("alice_fc5",0,0,2,77)
   ShowMessage("\\n<Alice>She doesn't seem to be lying. What do we do, Luka?")
   0()
  EndIf()
  If(0,5,0)
   ShowMessageFace("iriasu_fc4",2,0,2,78)
   ShowMessage("\\n<Ilias>It seems like these are her true intentions. What shall we do, Luka?")
   0()
  EndIf()
  If(0,1529,0)
   ShowMessageFace("sara_fc1",4,0,2,79)
   ShowMessage("\\n<Sara>I've already spoken my judgment as the former queen. As for this deal... I leave the decision to Luka.")
   0()
  EndIf()
  ShowMessageFace("ruka_fc1",0,0,2,80)
  ShowMessage("\\n<Luka>......")
  ShowMessageFace("",0,0,2,81)
  ShowMessage("Now, what shall we do...")
  ShowChoices(strings("Agree, defeat Lucia","Don't agree, defeat Lily","Don't agree, but overlook Lily","I'll think about it"),0)
  IfPlayerPicksChoice(0,null)
   ShowMessageFace("lily_fc1",0,0,2,82)
   ShowMessage("\\n<Lily>As I thought, you and I are similar... I knew you would understand.")
   ShowMessageFace("lily_fc1",0,0,2,83)
   ShowMessage("\\n<Lily>Well then, I'll be waiting here. Once you defeat Lucia, I'll be free to become your comrade.")
   PictureClear(5)
   EndEventProcessing()
   0()
  IfPlayerPicksChoice(1,null)
   ChangeSwitch(2091,2091,0)
   PictureDisplay(5,"80_lily_st13",0,0,0,0,100,100,255,0)
   ShowMessageFace("lily_fc1",2,0,2,84)
   ShowMessage("\\n<Lily>So, you plan to oppose me after all. Then leave this place. NOW.")
   PictureClear(5)
   250(bytes(0x04,0x08,0x6f,0x3a,0x0c,0x52,0x50,0x47,0x3a,0x3a,0x53,0x45,0x08,0x3a,0x0a,0x40,0x6e,0x61,0x6d,0x65,0x49,0x22,0x0b,0x4d,0x61,0x67,0x69,0x63,0x31,0x06,0x3a,0x06,0x45,0x54,0x3a,0x0b,0x40,0x70,0x69,0x74,0x63,0x68,0x69,0x69,0x3a,0x0c,0x40,0x76,0x6f,0x6c,0x75,0x6d,0x65,0x69,0x55))
   221()
   250(bytes(0x04,0x08,0x6f,0x3a,0x0c,0x52,0x50,0x47,0x3a,0x3a,0x53,0x45,0x08,0x3a,0x0a,0x40,0x6e,0x61,0x6d,0x65,0x49,0x22,0x09,0x4d,0x6f,0x76,0x65,0x06,0x3a,0x06,0x45,0x54,0x3a,0x0b,0x40,0x70,0x69,0x74,0x63,0x68,0x69,0x69,0x3a,0x0c,0x40,0x76,0x6f,0x6c,0x75,0x6d,0x65,0x69,0x55))
   ShowMessageFace("",0,0,2,85)
   ShowMessage("Lily uses her magic power to throw the party out of the mansion!")
   ChangeSwitch(31,31,1)
   TeleportPlayer(0,224,38,17,0,2)
   223(bytes(0x04,0x08,0x75,0x3a,0x09,0x54,0x6f,0x6e,0x65,0x25,0x00,0x00,0x00,0x00,0x00,0x00,0x00,0x00,0x00,0x00,0x00,0x00,0x00,0x00,0x00,0x00,0x00,0x00,0x00,0x00,0x00,0x00,0x00,0x00,0x00,0x00,0x00,0x00,0x00,0x00,0x00,0x00),1,true)
   Wait(60)
   222()
   0()
  IfPlayerPicksChoice(2,null)
   ChangeSwitch(2091,2091,0)
   PictureDisplay(5,"80_lily_st13",0,0,0,0,100,100,255,0)
   ShowMessageFace("lily_fc1",2,0,2,86)
   ShowMessage("\\n<Lily>So, the deal is off. Then leave this place. Right NOW.")
   PictureClear(5)
   250(bytes(0x04,0x08,0x6f,0x3a,0x0c,0x52,0x50,0x47,0x3a,0x3a,0x53,0x45,0x08,0x3a,0x0a,0x40,0x6e,0x61,0x6d,0x65,0x49,0x22,0x0b,0x4d,0x61,0x67,0x69,0x63,0x31,0x06,0x3a,0x06,0x45,0x54,0x3a,0x0b,0x40,0x70,0x69,0x74,0x63,0x68,0x69,0x69,0x3a,0x0c,0x40,0x76,0x6f,0x6c,0x75,0x6d,0x65,0x69,0x55))
   221()
   250(bytes(0x04,0x08,0x6f,0x3a,0x0c,0x52,0x50,0x47,0x3a,0x3a,0x53,0x45,0x08,0x3a,0x0a,0x40,0x6e,0x61,0x6d,0x65,0x49,0x22,0x09,0x4d,0x6f,0x76,0x65,0x06,0x3a,0x06,0x45,0x54,0x3a,0x0b,0x40,0x70,0x69,0x74,0x63,0x68,0x69,0x69,0x3a,0x0c,0x40,0x76,0x6f,0x6c,0x75,0x6d,0x65,0x69,0x55))
   ShowMessageFace("",0,0,2,87)
   ShowMessage("Lily uses her magic power to throw the party out of the mansion!")
   ChangeSwitch(31,31,1)
   TeleportPlayer(0,224,38,17,0,2)
   223(bytes(0x04,0x08,0x75,0x3a,0x09,0x54,0x6f,0x6e,0x65,0x25,0x00,0x00,0x00,0x00,0x00,0x00,0x00,0x00,0x00,0x00,0x00,0x00,0x00,0x00,0x00,0x00,0x00,0x00,0x00,0x00,0x00,0x00,0x00,0x00,0x00,0x00,0x00,0x00,0x00,0x00,0x00,0x00),1,true)
   Wait(60)
   222()
   0()
  IfPlayerPicksChoice(3,null)
   ShowMessageFace("lily_fc1",0,0,2,88)
   ShowMessage("\\n<Lily>Actions speak louder than words, in any case. I'll await the news of Lucia's defeat instead of your reply.")
   ShowMessageFace("lily_fc1",0,0,2,89)
   ShowMessage("\\n<Lily>Well then, I'll be waiting here. Once you defeat Lucia, I'll be free to become your comrade.")
   PictureClear(5)
   EndEventProcessing()
   0()
  404()
  0()
 PAGE   2
  // condition: variable 1029 >= 3
  0()



EVENT   36
 PAGE   1
  If(8,521)
   250(bytes(0x04,0x08,0x6f,0x3a,0x0c,0x52,0x50,0x47,0x3a,0x3a,0x53,0x45,0x08,0x3a,0x0a,0x40,0x6e,0x61,0x6d,0x65,0x49,0x22,0x09,0x4d,0x6f,0x76,0x65,0x06,0x3a,0x06,0x45,0x54,0x3a,0x0b,0x40,0x70,0x69,0x74,0x63,0x68,0x69,0x69,0x3a,0x0c,0x40,0x76,0x6f,0x6c,0x75,0x6d,0x65,0x69,0x55))
   TeleportPlayer(0,361,13,38,8,0)
   0()
  Else()
   ChangeSwitch(2093,2093,0)
   250(bytes(0x04,0x08,0x6f,0x3a,0x0c,0x52,0x50,0x47,0x3a,0x3a,0x53,0x45,0x08,0x3a,0x0a,0x40,0x6e,0x61,0x6d,0x65,0x49,0x22,0x0b,0x4d,0x61,0x67,0x69,0x63,0x31,0x06,0x3a,0x06,0x45,0x54,0x3a,0x0b,0x40,0x70,0x69,0x74,0x63,0x68,0x69,0x69,0x3a,0x0c,0x40,0x76,0x6f,0x6c,0x75,0x6d,0x65,0x69,0x55))
   250(bytes(0x04,0x08,0x6f,0x3a,0x0c,0x52,0x50,0x47,0x3a,0x3a,0x53,0x45,0x08,0x3a,0x0a,0x40,0x6e,0x61,0x6d,0x65,0x49,0x22,0x09,0x4d,0x6f,0x76,0x65,0x06,0x3a,0x06,0x45,0x54,0x3a,0x0b,0x40,0x70,0x69,0x74,0x63,0x68,0x69,0x69,0x3a,0x0c,0x40,0x76,0x6f,0x6c,0x75,0x6d,0x65,0x69,0x55))
   TeleportPlayer(0,360,16,22,2,0)
   If(0,4,0)
    ShowMessageFace("alice_fc5",0,0,2,1)
    ShowMessage("\\n<Alice>Hmm... Something feels strange.")
    0()
   EndIf()
   If(0,5,0)
    ShowMessageFace("iriasu_fc4",2,0,2,2)
    ShowMessage("\\n<Ilias>...Something feels strange.")
    0()
   EndIf()
   If(0,6,0)
    ShowMessageFace("sonia_fc2",2,0,2,3)
    ShowMessage("\\n<Sonya>We went down the stairs from the first floor. Why are we on the first floor again?")
    0()
   Else()
    ShowMessageFace("ruka_fc1",0,0,2,4)
    ShowMessage("\\n<Luka>I know we went down the stairs from the first floor, so how are we still on the first floor?")
    0()
   EndIf()
   If(0,4,0)
    ShowMessageFace("alice_fc5",0,0,2,5)
    ShowMessage("\\n<Alice>The stairs are equipped with teleportation magic that instantly moves us to a different location. To actually go down the stairs, we need to find a way to break that magic...")
    0()
   EndIf()
   If(0,5,0)
    ShowMessageFace("iriasu_fc4",7,0,2,6)
    ShowMessage("\\n<Ilias>The stairs are equipped with teleportation magic that sends us to a different location. To go downstairs, we have to find a method of breaking the spell...")
    0()
   EndIf()
   0()
  EndIf()
  0()



EVENT   10
 PAGE   1
  If(8,521)
   250(bytes(0x04,0x08,0x6f,0x3a,0x0c,0x52,0x50,0x47,0x3a,0x3a,0x53,0x45,0x08,0x3a,0x0a,0x40,0x6e,0x61,0x6d,0x65,0x49,0x22,0x09,0x4d,0x6f,0x76,0x65,0x06,0x3a,0x06,0x45,0x54,0x3a,0x0b,0x40,0x70,0x69,0x74,0x63,0x68,0x69,0x69,0x3a,0x0c,0x40,0x76,0x6f,0x6c,0x75,0x6d,0x65,0x69,0x55))
   TeleportPlayer(0,361,13,38,8,0)
   0()
  Else()
   ChangeSwitch(2093,2093,0)
   250(bytes(0x04,0x08,0x6f,0x3a,0x0c,0x52,0x50,0x47,0x3a,0x3a,0x53,0x45,0x08,0x3a,0x0a,0x40,0x6e,0x61,0x6d,0x65,0x49,0x22,0x0b,0x4d,0x61,0x67,0x69,0x63,0x31,0x06,0x3a,0x06,0x45,0x54,0x3a,0x0b,0x40,0x70,0x69,0x74,0x63,0x68,0x69,0x69,0x3a,0x0c,0x40,0x76,0x6f,0x6c,0x75,0x6d,0x65,0x69,0x55))
   250(bytes(0x04,0x08,0x6f,0x3a,0x0c,0x52,0x50,0x47,0x3a,0x3a,0x53,0x45,0x08,0x3a,0x0a,0x40,0x6e,0x61,0x6d,0x65,0x49,0x22,0x09,0x4d,0x6f,0x76,0x65,0x06,0x3a,0x06,0x45,0x54,0x3a,0x0b,0x40,0x70,0x69,0x74,0x63,0x68,0x69,0x69,0x3a,0x0c,0x40,0x76,0x6f,0x6c,0x75,0x6d,0x65,0x69,0x55))
   TeleportPlayer(0,360,16,22,2,0)
   If(0,4,0)
    ShowMessageFace("alice_fc5",0,0,2,1)
    ShowMessage("\\n<Alice>Hmm... Something feels strange.")
    0()
   EndIf()
   If(0,5,0)
    ShowMessageFace("iriasu_fc4",2,0,2,2)
    ShowMessage("\\n<Ilias>...Something feels strange.")
    0()
   EndIf()
   If(0,6,0)
    ShowMessageFace("sonia_fc2",2,0,2,3)
    ShowMessage("\\n<Sonya>We went down the stairs from the first floor. Why are we on the first floor again?")
    0()
   Else()
    ShowMessageFace("ruka_fc1",0,0,2,4)
    ShowMessage("\\n<Luka>I know we went down the stairs from the first floor, so how are we still on the first floor?")
    0()
   EndIf()
   If(0,4,0)
    ShowMessageFace("alice_fc5",0,0,2,5)
    ShowMessage("\\n<Alice>The stairs are equipped with teleportation magic that instantly moves us to a different location. To actually go down the stairs, we need to find a way to break that magic...")
    0()
   EndIf()
   If(0,5,0)
    ShowMessageFace("iriasu_fc4",7,0,2,6)
    ShowMessage("\\n<Ilias>The stairs are equipped with teleportation magic that sends us to a different location. To go downstairs, we have to find a method of breaking the spell...")
    0()
   EndIf()
   0()
  EndIf()
  0()



EVENT   37
 PAGE   1
  250(bytes(0x04,0x08,0x6f,0x3a,0x0c,0x52,0x50,0x47,0x3a,0x3a,0x53,0x45,0x08,0x3a,0x0a,0x40,0x6e,0x61,0x6d,0x65,0x49,0x22,0x0a,0x49,0x74,0x65,0x6d,0x31,0x06,0x3a,0x06,0x45,0x54,0x3a,0x0b,0x40,0x70,0x69,0x74,0x63,0x68,0x69,0x69,0x3a,0x0c,0x40,0x76,0x6f,0x6c,0x75,0x6d,0x65,0x69,0x55))
  ChangeSelfSwitch("A",0)
  ChangeInventory_Item(25,0,0,1)
  0()
 PAGE   2
  // condition: self-switch A is ON
  0()



EVENT   39
 PAGE   1
  ShowMessageFace("",0,0,2,1)
  ShowMessage("The pot was a Honeypot!")
  Battle(0,269,false,false)
  ChangeSelfSwitch("A",0)
  0()
 PAGE   2
  // condition: self-switch A is ON
  0()



EVENT   32
 PAGE   1
  ChangeSwitch(31,31,1)
  ChangeSwitch(100,100,1)
  250(bytes(0x04,0x08,0x6f,0x3a,0x0c,0x52,0x50,0x47,0x3a,0x3a,0x53,0x45,0x08,0x3a,0x0a,0x40,0x6e,0x61,0x6d,0x65,0x49,0x22,0x09,0x4d,0x6f,0x76,0x65,0x06,0x3a,0x06,0x45,0x54,0x3a,0x0b,0x40,0x70,0x69,0x74,0x63,0x68,0x69,0x69,0x3a,0x0c,0x40,0x76,0x6f,0x6c,0x75,0x6d,0x65,0x69,0x55))
  223(bytes(0x04,0x08,0x75,0x3a,0x09,0x54,0x6f,0x6e,0x65,0x25,0x00,0x00,0x00,0x00,0x00,0x00,0x00,0x00,0x00,0x00,0x00,0x00,0x00,0x00,0x00,0x00,0x00,0x00,0x00,0x00,0x00,0x00,0x00,0x00,0x00,0x00,0x00,0x00,0x00,0x00,0x00,0x00),1,true)
  TeleportPlayer(0,224,38,17,0,0)
  0()



EVENT   38
 PAGE   1
  ChangeSwitch(31,31,1)
  ChangeSwitch(100,100,1)
  250(bytes(0x04,0x08,0x6f,0x3a,0x0c,0x52,0x50,0x47,0x3a,0x3a,0x53,0x45,0x08,0x3a,0x0a,0x40,0x6e,0x61,0x6d,0x65,0x49,0x22,0x09,0x4d,0x6f,0x76,0x65,0x06,0x3a,0x06,0x45,0x54,0x3a,0x0b,0x40,0x70,0x69,0x74,0x63,0x68,0x69,0x69,0x3a,0x0c,0x40,0x76,0x6f,0x6c,0x75,0x6d,0x65,0x69,0x55))
  223(bytes(0x04,0x08,0x75,0x3a,0x09,0x54,0x6f,0x6e,0x65,0x25,0x00,0x00,0x00,0x00,0x00,0x00,0x00,0x00,0x00,0x00,0x00,0x00,0x00,0x00,0x00,0x00,0x00,0x00,0x00,0x00,0x00,0x00,0x00,0x00,0x00,0x00,0x00,0x00,0x00,0x00,0x00,0x00),1,true)
  TeleportPlayer(0,224,38,17,0,0)
  0()



EVENT   25
 PAGE   1
  If(1,1029,0,5,1)
   250(bytes(0x04,0x08,0x6f,0x3a,0x0c,0x52,0x50,0x47,0x3a,0x3a,0x53,0x45,0x08,0x3a,0x0a,0x40,0x6e,0x61,0x6d,0x65,0x49,0x22,0x09,0x4d,0x6f,0x76,0x65,0x06,0x3a,0x06,0x45,0x54,0x3a,0x0b,0x40,0x70,0x69,0x74,0x63,0x68,0x69,0x69,0x3a,0x0c,0x40,0x76,0x6f,0x6c,0x75,0x6d,0x65,0x69,0x55))
   TeleportPlayer(0,359,38,23,0,0)
   EndEventProcessing()
   0()
  EndIf()
  If(0,2091,1)
   ShowMessageFace("",0,0,2,1)
   ShowMessage("The door is firmly shut...")
   EndEventProcessing()
   0()
  Else()
   250(bytes(0x04,0x08,0x6f,0x3a,0x0c,0x52,0x50,0x47,0x3a,0x3a,0x53,0x45,0x08,0x3a,0x0a,0x40,0x6e,0x61,0x6d,0x65,0x49,0x22,0x09,0x4d,0x6f,0x76,0x65,0x06,0x3a,0x06,0x45,0x54,0x3a,0x0b,0x40,0x70,0x69,0x74,0x63,0x68,0x69,0x69,0x3a,0x0c,0x40,0x76,0x6f,0x6c,0x75,0x6d,0x65,0x69,0x55))
   TeleportPlayer(0,359,38,23,0,0)
   EndEventProcessing()
   0()
  EndIf()
  0()



EVENT   40
 PAGE   1
  0()



EVENT   35
 PAGE   1
  // condition: variable 1029 >= 3
  PictureDisplay(5,"80_lily_st11",0,0,0,0,100,100,0,0)
  PictureMove(5,null,0,0,0,0,100,100,255,0,30,true)
  ShowMessageFace("lily_fc1",0,0,2,1)
  ShowMessage("\\n<Lily>My, you still haven't defeated Lucia, have you. Or maybe... Have you had a change of heart?")
  ShowChoices(strings("We haven't changed our mind","Defeat Lily after all","Still thinking about it"),3)
  IfPlayerPicksChoice(0,null)
   ShowMessageFace("lily_fc1",0,0,2,2)
   ShowMessage("\\n<Lily>Well then, I'll be waiting here. Once you defeat Lucia, I'll be free to become your comrade.")
   PictureClear(5)
   EndEventProcessing()
   0()
  IfPlayerPicksChoice(1,null)
   ChangeSwitch(2091,2091,0)
   PictureDisplay(5,"80_lily_st13",0,0,0,0,100,100,255,0)
   ShowMessageFace("lily_fc1",2,0,2,3)
   ShowMessage("\\n<Lily>So, you plan to oppose me after all. Then leave this place. NOW.")
   PictureClear(5)
   250(bytes(0x04,0x08,0x6f,0x3a,0x0c,0x52,0x50,0x47,0x3a,0x3a,0x53,0x45,0x08,0x3a,0x0a,0x40,0x6e,0x61,0x6d,0x65,0x49,0x22,0x0b,0x4d,0x61,0x67,0x69,0x63,0x31,0x06,0x3a,0x06,0x45,0x54,0x3a,0x0b,0x40,0x70,0x69,0x74,0x63,0x68,0x69,0x69,0x3a,0x0c,0x40,0x76,0x6f,0x6c,0x75,0x6d,0x65,0x69,0x55))
   221()
   250(bytes(0x04,0x08,0x6f,0x3a,0x0c,0x52,0x50,0x47,0x3a,0x3a,0x53,0x45,0x08,0x3a,0x0a,0x40,0x6e,0x61,0x6d,0x65,0x49,0x22,0x09,0x4d,0x6f,0x76,0x65,0x06,0x3a,0x06,0x45,0x54,0x3a,0x0b,0x40,0x70,0x69,0x74,0x63,0x68,0x69,0x69,0x3a,0x0c,0x40,0x76,0x6f,0x6c,0x75,0x6d,0x65,0x69,0x55))
   ShowMessageFace("",0,0,2,4)
   ShowMessage("Lily uses her magic power to throw the party out of the mansion!")
   ChangeSwitch(31,31,1)
   TeleportPlayer(0,224,38,17,0,2)
   223(bytes(0x04,0x08,0x75,0x3a,0x09,0x54,0x6f,0x6e,0x65,0x25,0x00,0x00,0x00,0x00,0x00,0x00,0x00,0x00,0x00,0x00,0x00,0x00,0x00,0x00,0x00,0x00,0x00,0x00,0x00,0x00,0x00,0x00,0x00,0x00,0x00,0x00,0x00,0x00,0x00,0x00,0x00,0x00),1,true)
   Wait(60)
   222()
   0()
  IfPlayerPicksChoice(2,null)
   ShowMessageFace("lily_fc1",0,0,2,5)
   ShowMessage("\\n<Lily>Actions speak louder than words, in any case. I'll await the news of Lucia's defeat instead of your reply.")
   ShowMessageFace("lily_fc1",0,0,2,6)
   ShowMessage("\\n<Lily>Well then, I'll be waiting here. Once you defeat Lucia, I'll be free to become your comrade.")
   PictureClear(5)
   EndEventProcessing()
   0()
  404()
  0()
 PAGE   2
  // condition: switch 2091 is ON
  0()
 PAGE   3
  // condition: switch 2097 is ON
  PictureDisplay(5,"80_lily_st11",0,0,0,0,100,100,0,0)
  PictureMove(5,null,0,0,0,0,100,100,255,0,30,true)
  ShowMessageFace("lily_fc1",0,0,2,1)
  ShowMessage("\\n<Lily>You defeated Lucia, as promised. I thank you from the bottom of my heart...")
  PictureDisplay(5,"80_lily_st13",0,0,0,0,100,100,255,0)
  ShowMessageFace("lily_fc1",2,0,2,2)
  ShowMessage("\\n<Lily>...That girl should have understood me the best of all. We were together ever since we were small, and we shared in the same suffering...")
  ShowMessageFace("lily_fc1",2,0,2,3)
  ShowMessage("\\n<Lily>We read books on magic day after day, hiding from the prying eyes of the adults. We conducted research together until we finally acquired power, and yet...")
  ShowMessageFace("lily_fc1",2,0,2,4)
  ShowMessage("\\n<Lily>I failed to notice that she had become fearful of that power. It must have started on that tragic day we threw off the shackles of our oppressors...")
  If(4,62,0)
   ShowMessageFace("gob_fc1",3,0,2,5)
   ShowMessage("\\n<Gob>Lily-san, you didn't want to beat up your old friend with your own hands, right...? It wasn't nice to make us do it, but I understand...")
   0()
  EndIf()
  ShowMessageFace("ruka_fc1",0,0,2,6)
  ShowMessage("\\n<Luka>......")
  PictureDisplay(5,"80_lily_st11",0,0,0,0,100,100,255,0)
  ShowMessageFace("lily_fc1",0,0,2,7)
  ShowMessage("\\n<Lily>...Well then, I'll come with you, as I promised. There are no more people in this village for me to save.")
  ShowMessageFace("lily_fc1",0,0,2,8)
  ShowMessage("\\n<Lily>There are more oppressed people out there in the world, however. Their cries for help are never ending.")
  ShowMessageFace("lily_fc1",0,0,2,9)
  ShowMessage("\\n<Lily>Let's save the powerless together, as allies. That is the responsibility of those with power...")
  PictureClear(5)
  205(0,bytes(0x04,0x08,0x6f,0x3a,0x13,0x52,0x50,0x47,0x3a,0x3a,0x4d,0x6f,0x76,0x65,0x52,0x6f,0x75,0x74,0x65,0x09,0x3a,0x0c,0x40,0x72,0x65,0x70,0x65,0x61,0x74,0x46,0x3a,0x0f,0x40,0x73,0x6b,0x69,0x70,0x70,0x61,0x62,0x6c,0x65,0x46,0x3a,0x0a,0x40,0x77,0x61,0x69,0x74,0x54,0x3a,0x0a,0x40,0x6c,0x69,0x73,0x74,0x5b,0x09,0x6f,0x3a,0x15,0x52,0x50,0x47,0x3a,0x3a,0x4d,0x6f,0x76,0x65,0x43,0x6f,0x6d,0x6d,0x61,0x6e,0x64,0x07,0x3a,0x0a,0x40,0x63,0x6f,0x64,0x65,0x69,0x2a,0x3a,0x10,0x40,0x70,0x61,0x72,0x61,0x6d,0x65,0x74,0x65,0x72,0x73,0x5b,0x00,0x6f,0x3b,0x0a,0x07,0x3b,0x0b,0x69,0x0f,0x3b,0x0c,0x5b,0x00,0x6f,0x3b,0x0a,0x07,0x3b,0x0b,0x69,0x2c,0x3b,0x0c,0x5b,0x00,0x6f,0x3b,0x0a,0x07,0x3b,0x0b,0x69,0x00,0x3b,0x0c,0x5b,0x00))
  355("add_actor_ex(163)")
  249(bytes(0x04,0x08,0x6f,0x3a,0x0c,0x52,0x50,0x47,0x3a,0x3a,0x4d,0x45,0x08,0x3a,0x0a,0x40,0x6e,0x61,0x6d,0x65,0x49,0x22,0x0c,0x66,0x61,0x6e,0x66,0x61,0x6c,0x65,0x06,0x3a,0x06,0x45,0x54,0x3a,0x0b,0x40,0x70,0x69,0x74,0x63,0x68,0x69,0x69,0x3a,0x0c,0x40,0x76,0x6f,0x6c,0x75,0x6d,0x65,0x69,0x69))
  ShowMessageFace("",0,0,2,10)
  ShowMessage("Lily has joined the party!")
  ChangeSwitch(2137,2137,0)
  ChangeVariable(1029,1029,0,0,6)
  Wait(60)
  355("gain_medal(28)")
  If(0,6,0)
   ShowMessageFace("sonia_fc2",2,0,2,11)
   ShowMessage("\\n<Sonya>...Luka, is this really okay? She feels kinda dangerous...")
   ShowMessageFace("ruka_fc1",0,0,2,12)
   ShowMessage("\\n<Luka>People can change a lot as they travel together. In fact, I really think we shouldn't let her stay holed up in this village...")
   If(4,529,0)
    ShowMessageFace("sara_fc1",4,0,2,13)
    ShowMessage("\\n<Sara>Tormenting yourself all alone is indeed dangerous...")
    0()
   EndIf()
   0()
  EndIf()
  If(1,1001,0,18,1)
   EndEventProcessing()
   0()
  EndIf()
  If(0,4,0)
   ShowMessageFace("alice_fc5",0,0,2,14)
   ShowMessage("\\n<Alice>Looks like this matter has been sorted out. It's about time we headed out to form a contract with Gnome.")
   0()
  EndIf()
  If(0,5,0)
   ShowMessageFace("iriasu_fc4",0,0,2,15)
   ShowMessage("\\n<Ilias>With this, this matter has been settled. Although I'm reluctant to do so, isn't it about time to go find Gnome?")
   0()
  EndIf()
  If(1,1031,0,2,2)
   If(0,6,0)
    ShowMessageFace("sonia_fc1",0,0,2,16)
    ShowMessage("\\n<Sonya>Before that, how about we go to Saloon? We did hear about a blacksmith there who makes crystal equipment, didn't we?")
    0()
   Else()
    ShowMessageFace("ruka_fc1",0,0,2,17)
    ShowMessage("\\n<Luka>How about we visit Saloon before that? I heard that there's a blacksmith there who makes equipment out of crystal.")
    0()
   EndIf()
   If(0,4,0)
    ShowMessageFace("alice_fc5",0,0,2,18)
    ShowMessage("\\n<Alice>Hmm, if we are to challenge Gnome to battle, it's better to be well equipped. I leave the decision to you.")
    0()
   EndIf()
   If(0,5,0)
    ShowMessageFace("iriasu_fc4",0,0,2,19)
    ShowMessage("\\n<Ilias>Preparing for a battle by acquiring better equipment sounds good. I leave it to your judgment.")
    0()
   EndIf()
   ShowMessageFace("",0,0,2,20)
   ShowMessage("If I'm not wrong, Saloon is far north of Sabasa. There are ruins north of Grandeur, but Saloon is even further north than they are.")
   ShowMessageFace("",0,0,2,21)
   ShowMessage("In the break between the mountains, there's a point where the desert turns into wastelands. If you travel east from there, you reach Saloon... Or, so we've heard.")
   ShowMessageFace("",0,0,2,22)
   ShowMessage("They say that there's a blacksmith who makes crystal equipment in that town. We should prepare ourselves before going to see Gnome.")
   ShowMessageFace("ruka_fc1",0,0,2,23)
   ShowMessage("\\n<Luka>Well then, let's move on to our next goal!")
   ShowMessageFace("",0,0,2,24)
   ShowMessage("Magistea Village's turmoil has settled down, and we've acquired a new comrade. And so, we set out towards our next destination...")
   If(1,1031,0,0,0)
    ChangeVariable(1031,1031,0,0,1)
    0()
   EndIf()
   EndEventProcessing()
   0()
  Else()
   ShowMessageFace("ruka_fc1",0,0,2,25)
   ShowMessage("\\n<Luka>The Safar Ruins where Gnome resides are north of Grandeur. Well then, let's go!")
   EndEventProcessing()
   0()
  EndIf()
  0()
 PAGE   4
  // condition: switch 2137 is ON
  // condition: variable 1029 >= 6
  0()
