﻿


EVENT   2
 PAGE   1
  0()



EVENT   1
 PAGE   1
  0()



EVENT   3
 PAGE   1
  0()



EVENT   4
 PAGE   1
  // condition: switch 2022 is ON
  0()



EVENT   5
 PAGE   1
  Wait(60)
  222()
  ShowMessageFace("",0,0,2,1)
  ShowMessage("\\n<Sonya>Uuugh... I think I'm lost... And now I'm surrounded by monsters...")
  ShowMessageFace("",0,0,2,2)
  ShowMessage("\\n<Slime Girl A>Ooh ooh, a human girl!")
  ShowMessageFace("",0,0,2,3)
  ShowMessage("\\n<Slime Girl B>What do we do... I have no idea what we're supposed to...")
  ShowMessageFace("",0,0,2,4)
  ShowMessage("\\n<Sonya>Uuugh... Help me...")
  ShowMessageFace("",0,0,2,5)
  ShowMessage("\\n<Sonya>...waaaaa!")
  ShowMessageFace("",0,0,2,6)
  ShowMessage("\\n<Slime Girl A>Come on, don't cry. What to do...")
  ShowMessageFace("",0,0,2,7)
  ShowMessage("\\n<Slime Girl A>This isn't good...\\! ...waaaaa!")
  ShowMessageFace("",0,0,2,8)
  ShowMessage("\\n<Slime Girl B>Waaaaa!")
  ChangeSwitch(2022,2022,0)
  205(4,bytes(0x04,0x08,0x6f,0x3a,0x13,0x52,0x50,0x47,0x3a,0x3a,0x4d,0x6f,0x76,0x65,0x52,0x6f,0x75,0x74,0x65,0x09,0x3a,0x0c,0x40,0x72,0x65,0x70,0x65,0x61,0x74,0x46,0x3a,0x0f,0x40,0x73,0x6b,0x69,0x70,0x70,0x61,0x62,0x6c,0x65,0x46,0x3a,0x0a,0x40,0x77,0x61,0x69,0x74,0x54,0x3a,0x0a,0x40,0x6c,0x69,0x73,0x74,0x5b,0x0e,0x6f,0x3a,0x15,0x52,0x50,0x47,0x3a,0x3a,0x4d,0x6f,0x76,0x65,0x43,0x6f,0x6d,0x6d,0x61,0x6e,0x64,0x07,0x3a,0x0a,0x40,0x63,0x6f,0x64,0x65,0x69,0x22,0x3a,0x10,0x40,0x70,0x61,0x72,0x61,0x6d,0x65,0x74,0x65,0x72,0x73,0x5b,0x06,0x69,0x0a,0x6f,0x3b,0x0a,0x07,0x3b,0x0b,0x69,0x23,0x3b,0x0c,0x5b,0x06,0x69,0x09,0x6f,0x3b,0x0a,0x07,0x3b,0x0b,0x69,0x09,0x3b,0x0c,0x5b,0x00,0x6f,0x3b,0x0a,0x07,0x3b,0x0b,0x69,0x09,0x3b,0x0c,0x5b,0x00,0x6f,0x3b,0x0a,0x07,0x3b,0x0b,0x69,0x09,0x3b,0x0c,0x5b,0x00,0x6f,0x3b,0x0a,0x07,0x3b,0x0b,0x69,0x09,0x3b,0x0c,0x5b,0x00,0x6f,0x3b,0x0a,0x07,0x3b,0x0b,0x69,0x09,0x3b,0x0c,0x5b,0x00,0x6f,0x3b,0x0a,0x07,0x3b,0x0b,0x69,0x09,0x3b,0x0c,0x5b,0x00,0x6f,0x3b,0x0a,0x07,0x3b,0x0b,0x69,0x00,0x3b,0x0c,0x5b,0x00))
  ShowMessageFace("",0,0,2,9)
  ShowMessage("\\n<Luka>Sonya, are you okay!?")
  ShowMessageFace("",0,0,2,10)
  ShowMessage("\\n<Sonya>Waaaaa!")
  ShowMessageFace("",0,0,2,11)
  ShowMessage("\\n<Slime Girl A>Waaaaa...")
  ShowMessageFace("",0,0,2,12)
  ShowMessage("\\n<Slime Girl B>Waaaa......!")
  ShowMessageFace("",0,0,2,13)
  ShowMessage("\\n<Luka>Wh-what happened here!?")
  221()
  211(1)
  TeleportPlayer(0,406,9,7,8,2)
  Wait(60)
  222()
  ShowMessageFace("sonia_fc1",1,0,2,14)
  ShowMessage("\\n<Sonya>You came and found me before anyone else...")
  ShowMessageFace("ruka_fc1",0,0,2,15)
  ShowMessage("\\n<Luka>Oh, yeah... What were you doing alone in the mountains anyway? I don't think I ever asked.")
  ShowMessageFace("sonia_fc2",5,0,2,16)
  ShowMessage("\\n<Sonya>I got lost following after you! You made it back to the village no problem!")
  ShowMessageFace("ruka_fc1",0,0,2,17)
  ShowMessage("\\n<Luka>S-sorry...")
  ShowMessageFace("sonia_fc1",7,0,2,18)
  ShowMessage("\\n<Sonya>There's no need to apologize. It was my fault I got lost in the first place...")
  ShowMessageFace("sonia_fc1",1,0,2,19)
  ShowMessage("\\n<Sonya>Tonight reminded me of that night. Just the two of us, alone under the stars. Luka and I...")
  If(0,4,0)
   ShowMessageFace("alice_fc5",6,0,2,20)
   ShowMessage("\\n<Alice>Just the two of you...?!")
   0()
  EndIf()
  If(0,5,0)
   ShowMessageFace("iriasu_fc4",2,0,2,21)
   ShowMessage("\\n<Ilias>And me...")
   0()
  EndIf()
  If(4,53,0)
   ShowMessageFace("slime_fc1",2,0,2,22)
   ShowMessage("\\n<Lime>Don't forget me～!")
   0()
  EndIf()
  0()