


EVENT   7
 PAGE   1
  ShowMessageFace("ruka_fc1",0,0,2,1)
  ShowMessage("\\n<Luka>It's still too early to go to sleep...")
  205(-1,bytes(0x04,0x08,0x6f,0x3a,0x13,0x52,0x50,0x47,0x3a,0x3a,0x4d,0x6f,0x76,0x65,0x52,0x6f,0x75,0x74,0x65,0x09,0x3a,0x0c,0x40,0x72,0x65,0x70,0x65,0x61,0x74,0x46,0x3a,0x0f,0x40,0x73,0x6b,0x69,0x70,0x70,0x61,0x62,0x6c,0x65,0x46,0x3a,0x0a,0x40,0x77,0x61,0x69,0x74,0x54,0x3a,0x0a,0x40,0x6c,0x69,0x73,0x74,0x5b,0x07,0x6f,0x3a,0x15,0x52,0x50,0x47,0x3a,0x3a,0x4d,0x6f,0x76,0x65,0x43,0x6f,0x6d,0x6d,0x61,0x6e,0x64,0x07,0x3a,0x0a,0x40,0x63,0x6f,0x64,0x65,0x69,0x06,0x3a,0x10,0x40,0x70,0x61,0x72,0x61,0x6d,0x65,0x74,0x65,0x72,0x73,0x5b,0x00,0x6f,0x3b,0x0a,0x07,0x3b,0x0b,0x69,0x00,0x3b,0x0c,0x5b,0x00))
  0()
 PAGE   2
  // condition: switch 2053 is ON
  // condition: switch 4 is ON
  ShowMessageFace("ruka_fc1",0,0,2,1)
  ShowMessage("\\n<Luka>It's still too early to go to sleep...")
  205(-1,bytes(0x04,0x08,0x6f,0x3a,0x13,0x52,0x50,0x47,0x3a,0x3a,0x4d,0x6f,0x76,0x65,0x52,0x6f,0x75,0x74,0x65,0x09,0x3a,0x0c,0x40,0x72,0x65,0x70,0x65,0x61,0x74,0x46,0x3a,0x0f,0x40,0x73,0x6b,0x69,0x70,0x70,0x61,0x62,0x6c,0x65,0x46,0x3a,0x0a,0x40,0x77,0x61,0x69,0x74,0x54,0x3a,0x0a,0x40,0x6c,0x69,0x73,0x74,0x5b,0x07,0x6f,0x3a,0x15,0x52,0x50,0x47,0x3a,0x3a,0x4d,0x6f,0x76,0x65,0x43,0x6f,0x6d,0x6d,0x61,0x6e,0x64,0x07,0x3a,0x0a,0x40,0x63,0x6f,0x64,0x65,0x69,0x06,0x3a,0x10,0x40,0x70,0x61,0x72,0x61,0x6d,0x65,0x74,0x65,0x72,0x73,0x5b,0x00,0x6f,0x3b,0x0a,0x07,0x3b,0x0b,0x69,0x00,0x3b,0x0c,0x5b,0x00))
  205(2,bytes(0x04,0x08,0x6f,0x3a,0x13,0x52,0x50,0x47,0x3a,0x3a,0x4d,0x6f,0x76,0x65,0x52,0x6f,0x75,0x74,0x65,0x09,0x3a,0x0c,0x40,0x72,0x65,0x70,0x65,0x61,0x74,0x46,0x3a,0x0f,0x40,0x73,0x6b,0x69,0x70,0x70,0x61,0x62,0x6c,0x65,0x46,0x3a,0x0a,0x40,0x77,0x61,0x69,0x74,0x54,0x3a,0x0a,0x40,0x6c,0x69,0x73,0x74,0x5b,0x07,0x6f,0x3a,0x15,0x52,0x50,0x47,0x3a,0x3a,0x4d,0x6f,0x76,0x65,0x43,0x6f,0x6d,0x6d,0x61,0x6e,0x64,0x07,0x3a,0x0a,0x40,0x63,0x6f,0x64,0x65,0x69,0x18,0x3a,0x10,0x40,0x70,0x61,0x72,0x61,0x6d,0x65,0x74,0x65,0x72,0x73,0x5b,0x00,0x6f,0x3b,0x0a,0x07,0x3b,0x0b,0x69,0x00,0x3b,0x0c,0x5b,0x00))
  ShowMessageFace("alice_fc5",1,0,2,2)
  ShowMessage("\\n<Alice>All right, let's do some sword training before going to bed. A fierce battle probably awaits us.")
  ShowMessageFace("alice_fc5",1,0,2,3)
  ShowMessage("\\n<Alice>It looks like your SP has finally increased... I'll teach you a great move.")
  ShowMessageFace("ruka_fc1",0,0,2,4)
  ShowMessage("\\n<Luka>Yes! Please help me out!")
  ShowMessageFace("",0,0,2,5)
  ShowMessage("And just like that, today's training begins...")
  221()
  Wait(120)
  222()
  ShowMessageFace("ruka_fc1",0,0,2,6)
  ShowMessage("\\n<Luka>TERYAHHH!!")
  250(bytes(0x04,0x08,0x6f,0x3a,0x0c,0x52,0x50,0x47,0x3a,0x3a,0x53,0x45,0x08,0x3a,0x0a,0x40,0x6e,0x61,0x6d,0x65,0x49,0x22,0x0d,0x6d,0x6f,0x6e,0x5f,0x6d,0x69,0x73,0x73,0x06,0x3a,0x06,0x45,0x54,0x3a,0x0b,0x40,0x70,0x69,0x74,0x63,0x68,0x69,0x69,0x3a,0x0c,0x40,0x76,0x6f,0x6c,0x75,0x6d,0x65,0x69,0x69))
  Wait(10)
  250(bytes(0x04,0x08,0x6f,0x3a,0x0c,0x52,0x50,0x47,0x3a,0x3a,0x53,0x45,0x08,0x3a,0x0a,0x40,0x6e,0x61,0x6d,0x65,0x49,0x22,0x0d,0x6d,0x6f,0x6e,0x5f,0x6d,0x69,0x73,0x73,0x06,0x3a,0x06,0x45,0x54,0x3a,0x0b,0x40,0x70,0x69,0x74,0x63,0x68,0x69,0x69,0x3a,0x0c,0x40,0x76,0x6f,0x6c,0x75,0x6d,0x65,0x69,0x69))
  Wait(10)
  250(bytes(0x04,0x08,0x6f,0x3a,0x0c,0x52,0x50,0x47,0x3a,0x3a,0x53,0x45,0x08,0x3a,0x0a,0x40,0x6e,0x61,0x6d,0x65,0x49,0x22,0x0d,0x6d,0x6f,0x6e,0x5f,0x6d,0x69,0x73,0x73,0x06,0x3a,0x06,0x45,0x54,0x3a,0x0b,0x40,0x70,0x69,0x74,0x63,0x68,0x69,0x69,0x3a,0x0c,0x40,0x76,0x6f,0x6c,0x75,0x6d,0x65,0x69,0x69))
  ShowMessageFace("",0,0,2,7)
  ShowMessage("I shout as I rapidly swing my sword. Unlike Flail Wildly, there are no openings between each attack.")
  ShowMessageFace("alice_fc5",2,0,2,8)
  ShowMessage("\\n<Alice>...So, you've memorized the form. By showering your enemy with a barrage of attacks, you score multiple hits.")
  ShowMessageFace("alice_fc5",2,0,2,9)
  ShowMessage("\\n<Alice>That is the Death Sword Chaos Star technique.")
  318(0,1,0,953)
  250(bytes(0x04,0x08,0x6f,0x3a,0x0c,0x52,0x50,0x47,0x3a,0x3a,0x53,0x45,0x08,0x3a,0x0a,0x40,0x6e,0x61,0x6d,0x65,0x49,0x22,0x0a,0x49,0x74,0x65,0x6d,0x31,0x06,0x3a,0x06,0x45,0x54,0x3a,0x0b,0x40,0x70,0x69,0x74,0x63,0x68,0x69,0x69,0x3a,0x0c,0x40,0x76,0x6f,0x6c,0x75,0x6d,0x65,0x69,0x55))
  ShowMessageFace("",0,0,2,10)
  ShowMessage("Luka learned \\I[463]\\C[1]Death Sword Chaos Star\\C[0]!")
  ShowMessageFace("alice_fc5",2,0,2,11)
  ShowMessage("\\n<Alice>This skill has tremendous power, but it also requires a large amount of SP. If you use it without planning ahead, it could leave you in a vulnerable position.")
  ShowMessageFace("ruka_fc1",0,0,2,12)
  ShowMessage("\\n<Luka>I certainly can't use it continuously with how much SP it consumes... It's a finishing move in every sense of the term.")
  ShowMessageFace("",0,0,2,13)
  ShowMessage("And so, I've learned a powerful sword technique. After mastering it a bit more, I go to sleep.")
  221()
  249(bytes(0x04,0x08,0x6f,0x3a,0x0c,0x52,0x50,0x47,0x3a,0x3a,0x4d,0x45,0x08,0x3a,0x0a,0x40,0x6e,0x61,0x6d,0x65,0x49,0x22,0x08,0x49,0x6e,0x6e,0x06,0x3a,0x06,0x45,0x54,0x3a,0x0b,0x40,0x70,0x69,0x74,0x63,0x68,0x69,0x69,0x3a,0x0c,0x40,0x76,0x6f,0x6c,0x75,0x6d,0x65,0x69,0x69))
  Wait(180)
  314(0,0)
  223(bytes(0x04,0x08,0x75,0x3a,0x09,0x54,0x6f,0x6e,0x65,0x25,0x00,0x00,0x00,0x00,0x00,0x00,0x00,0x00,0x00,0x00,0x00,0x00,0x00,0x00,0x00,0x00,0x00,0x00,0x00,0x00,0x00,0x00,0x00,0x00,0x00,0x00,0x00,0x00,0x00,0x00,0x00,0x00),1,true)
  216(0)
  ChangeVariable(11,11,0,0,2)
  TeleportPlayer(1,11,53,54,2,2)
  222()
  ChangeSwitch(100,100,1)
  0()
 PAGE   3
  // condition: switch 2053 is ON
  // condition: switch 5 is ON
  ShowMessageFace("ruka_fc1",0,0,2,1)
  ShowMessage("\\n<Luka>It's still too early to go to sleep...")
  205(-1,bytes(0x04,0x08,0x6f,0x3a,0x13,0x52,0x50,0x47,0x3a,0x3a,0x4d,0x6f,0x76,0x65,0x52,0x6f,0x75,0x74,0x65,0x09,0x3a,0x0c,0x40,0x72,0x65,0x70,0x65,0x61,0x74,0x46,0x3a,0x0f,0x40,0x73,0x6b,0x69,0x70,0x70,0x61,0x62,0x6c,0x65,0x46,0x3a,0x0a,0x40,0x77,0x61,0x69,0x74,0x54,0x3a,0x0a,0x40,0x6c,0x69,0x73,0x74,0x5b,0x07,0x6f,0x3a,0x15,0x52,0x50,0x47,0x3a,0x3a,0x4d,0x6f,0x76,0x65,0x43,0x6f,0x6d,0x6d,0x61,0x6e,0x64,0x07,0x3a,0x0a,0x40,0x63,0x6f,0x64,0x65,0x69,0x06,0x3a,0x10,0x40,0x70,0x61,0x72,0x61,0x6d,0x65,0x74,0x65,0x72,0x73,0x5b,0x00,0x6f,0x3b,0x0a,0x07,0x3b,0x0b,0x69,0x00,0x3b,0x0c,0x5b,0x00))
  205(2,bytes(0x04,0x08,0x6f,0x3a,0x13,0x52,0x50,0x47,0x3a,0x3a,0x4d,0x6f,0x76,0x65,0x52,0x6f,0x75,0x74,0x65,0x09,0x3a,0x0c,0x40,0x72,0x65,0x70,0x65,0x61,0x74,0x46,0x3a,0x0f,0x40,0x73,0x6b,0x69,0x70,0x70,0x61,0x62,0x6c,0x65,0x46,0x3a,0x0a,0x40,0x77,0x61,0x69,0x74,0x54,0x3a,0x0a,0x40,0x6c,0x69,0x73,0x74,0x5b,0x07,0x6f,0x3a,0x15,0x52,0x50,0x47,0x3a,0x3a,0x4d,0x6f,0x76,0x65,0x43,0x6f,0x6d,0x6d,0x61,0x6e,0x64,0x07,0x3a,0x0a,0x40,0x63,0x6f,0x64,0x65,0x69,0x18,0x3a,0x10,0x40,0x70,0x61,0x72,0x61,0x6d,0x65,0x74,0x65,0x72,0x73,0x5b,0x00,0x6f,0x3b,0x0a,0x07,0x3b,0x0b,0x69,0x00,0x3b,0x0c,0x5b,0x00))
  ShowMessageFace("iriasu_fc4",0,0,2,2)
  ShowMessage("\\n<Ilias>We might as well train before we go to sleep. How about I teach you a new skill?")
  ShowMessageFace("ruka_fc1",0,0,2,3)
  ShowMessage("\\n<Luka>Yes, please do! What kind of sword skill is it?!")
  ShowMessageFace("iriasu_fc4",0,0,2,4)
  ShowMessage("\\n<Ilias>Oh, it's not an attack skill. But it's highly effective when you go on the offensive...")
  221()
  Wait(120)
  222()
  ShowMessageFace("ruka_fc1",0,0,2,5)
  ShowMessage("\\n<Luka>Put my fighting spirit in, and... HA!")
  250(bytes(0x04,0x08,0x6f,0x3a,0x0c,0x52,0x50,0x47,0x3a,0x3a,0x53,0x45,0x08,0x3a,0x0a,0x40,0x6e,0x61,0x6d,0x65,0x49,0x22,0x0a,0x48,0x65,0x61,0x6c,0x37,0x06,0x3a,0x06,0x45,0x54,0x3a,0x0b,0x40,0x70,0x69,0x74,0x63,0x68,0x69,0x69,0x3a,0x0c,0x40,0x76,0x6f,0x6c,0x75,0x6d,0x65,0x69,0x55))
  ShowMessageFace("",0,0,2,6)
  ShowMessage("Luka's SP has recovered!")
  ShowMessageFace("iriasu_fc4",0,0,2,7)
  ShowMessage("\\n<Ilias>This skill restores SP in exchange for MP. If you use it well, you can perform powerful attacks in rapid succession.")
  318(0,1,0,1092)
  250(bytes(0x04,0x08,0x6f,0x3a,0x0c,0x52,0x50,0x47,0x3a,0x3a,0x53,0x45,0x08,0x3a,0x0a,0x40,0x6e,0x61,0x6d,0x65,0x49,0x22,0x0a,0x49,0x74,0x65,0x6d,0x31,0x06,0x3a,0x06,0x45,0x54,0x3a,0x0b,0x40,0x70,0x69,0x74,0x63,0x68,0x69,0x69,0x3a,0x0c,0x40,0x76,0x6f,0x6c,0x75,0x6d,0x65,0x69,0x55))
  ShowMessageFace("",0,0,2,8)
  ShowMessage("Luka learned \\I[836]\\C[1]High Charge\\C[0]!")
  ShowMessageFace("iriasu_fc4",0,0,2,9)
  ShowMessage("\\n<Ilias>This is actually a spear skill, but its effect is the same regardless of whether or not you are equipped with a spear.")
  ShowMessageFace("iriasu_fc4",0,0,2,10)
  ShowMessage("\\n<Ilias>You can use spear skills no matter what your job is, so there's no problem with that. Use this skill to destroy all my enemies.")
  ShowMessageFace("ruka_fc1",0,0,2,11)
  ShowMessage("\\n<Luka>Yes, thank you very much!")
  ShowMessageFace("",0,0,2,12)
  ShowMessage("And so, I've made a useful skill my own. After mastering it a bit more, I go to sleep...")
  221()
  249(bytes(0x04,0x08,0x6f,0x3a,0x0c,0x52,0x50,0x47,0x3a,0x3a,0x4d,0x45,0x08,0x3a,0x0a,0x40,0x6e,0x61,0x6d,0x65,0x49,0x22,0x08,0x49,0x6e,0x6e,0x06,0x3a,0x06,0x45,0x54,0x3a,0x0b,0x40,0x70,0x69,0x74,0x63,0x68,0x69,0x69,0x3a,0x0c,0x40,0x76,0x6f,0x6c,0x75,0x6d,0x65,0x69,0x69))
  Wait(180)
  314(0,0)
  223(bytes(0x04,0x08,0x75,0x3a,0x09,0x54,0x6f,0x6e,0x65,0x25,0x00,0x00,0x00,0x00,0x00,0x00,0x00,0x00,0x00,0x00,0x00,0x00,0x00,0x00,0x00,0x00,0x00,0x00,0x00,0x00,0x00,0x00,0x00,0x00,0x00,0x00,0x00,0x00,0x00,0x00,0x00,0x00),1,true)
  216(0)
  ChangeVariable(11,11,0,0,2)
  TeleportPlayer(1,11,53,54,2,2)
  222()
  ChangeSwitch(100,100,1)
  0()



EVENT   3
 PAGE   1
  // condition: switch 6 is ON
  If(2,"A",1)
   ChangeSelfSwitch("A",0)
   ShowMessageFace("sonia_fc1",0,0,2,1)
   ShowMessage("\\n<Sonya>There's a Tartarus rift north of Sabasa, right? I wonder what kind of parallel world we'll see this time?")
   ShowMessageFace("ruka_fc1",0,0,2,2)
   ShowMessage("\\n<Luka>So far we've seen the past and the future... Maybe we'll see an ancient past, or a distant future.")
   ShowMessageFace("sonia_fc1",1,0,2,3)
   ShowMessage("\\n<Sonya>I wonder what Luka and I will be doing ten years from now. Maybe everything will have been resolved and we'll be living in Ilias Village?")
   ShowMessageFace("ruka_fc1",0,0,2,4)
   ShowMessage("\\n<Luka>Who knows? I'm wondering that myself.")
   ShowMessageFace("sonia_fc4",0,0,2,5)
   ShowMessage("\\n<Sonya>...This is a waste of effort. Damn blockhead... The enemy of maidens, a clueless man...")
   ShowMessageFace("ruka_fc1",0,0,2,6)
   ShowMessage("\\n<Luka>Effort? Block? ...Sonya, are you sleepy?")
   0()
  Else()
   ShowMessageFace("sonia_fc4",0,0,2,7)
   ShowMessage("\\n<Sonya>This is a waste of effort. Damn blockhead... The enemy of maidens, a clueless man...")
   0()
  EndIf()
  0()



EVENT   9
 PAGE   1
  // condition: party contains actor #79
  ShowMessageFace("nuruko_fc1",0,0,2,1)
  ShowMessage("\\n<Nuruko>Kyuu! Kyuu!")
  0()



EVENT   12
 PAGE   1
  // condition: party contains actor #72
  ShowMessageFace("phoenix_fc1",0,0,2,1)
  ShowMessage("\\n<Mini>It feels so good inside a pot when the desert is so dry!")
  ShowMessageFace("phoenix_fc1",2,0,2,2)
  ShowMessage("\\n<Mini>...WAAH! There's a scorpion insiiide!!")
  0()



EVENT   18
 PAGE   1
  // condition: party contains actor #12
  ShowMessageFace("sylph_fc1",0,0,2,1)
  ShowMessage("\\n<Sylph>Hey, hey, let's dance in a circle! I used to do this a lot during the Sylph Festival♪!")
  ShowMessageFace("sylph_fc1",3,0,2,2)
  ShowMessage("\\n<Sylph>And we're going to meet Gnomey, right? Ehehe, I look forward to it...♪")
  0()



EVENT   20
 PAGE   1
  // condition: party contains actor #531
  ShowMessageFace("",0,0,2,1)
  ShowMessage("\\n<King of San Ilia>Replenishment of coolant water... Oh, and I need to remove the sand that has gotten into my parts...")
  ShowMessageFace("",0,0,2,2)
  ShowMessage("\\n<King of San Ilia>Maintenance is hard in a land like this. Next time I need to request the development of a desert warfare pope design.")
  0()



EVENT   1
 PAGE   1
  // condition: party contains actor #53
  ShowMessageFace("slime_fc1",0,0,2,1)
  ShowMessage("\\n<Lime>Oasis♪　boomerang. ♪")
  If(2,"A",1)
   ChangeSelfSwitch("A",0)
   ShowMessageFace("slime_fc1",0,0,2,2)
   ShowMessage("\\n<Lime>I'll give you a fish. ♪")
   250(bytes(0x04,0x08,0x6f,0x3a,0x0c,0x52,0x50,0x47,0x3a,0x3a,0x53,0x45,0x08,0x3a,0x0a,0x40,0x6e,0x61,0x6d,0x65,0x49,0x22,0x0a,0x49,0x74,0x65,0x6d,0x31,0x06,0x3a,0x06,0x45,0x54,0x3a,0x0b,0x40,0x70,0x69,0x74,0x63,0x68,0x69,0x69,0x3a,0x0c,0x40,0x76,0x6f,0x6c,0x75,0x6d,0x65,0x69,0x55))
   ChangeInventory_Item(322,0,0,1)
   0()
  EndIf()
  0()



EVENT   6
 PAGE   1
  // condition: party contains actor #102
  If(4,103,0)
   ShowMessageFace("kamuro_fc1",0,0,2,1)
   ShowMessage("\\n<Kamuro>Kitsu-nee, why is there so much sand in the desert?")
   ShowMessageFace("youko_fc1",0,0,2,2)
   ShowMessage("\\n<Kitsu>Well, you see...\nIt's so that you can make lots of sand castles.")
   ShowMessageFace("kamuro_fc1",0,0,2,3)
   ShowMessage("\\n<Kamuro>You're so smart, Kitsu-nee! You know everything!")
   0()
  Else()
   ShowMessageFace("youko_fc1",0,0,2,4)
   ShowMessage("\\n<Kitsu>I wonder why there's so much sand in the desert. I'll have to ask Tamamo next time I see her.")
   0()
  EndIf()
  0()



EVENT   8
 PAGE   1
  // condition: party contains actor #62
  ShowMessageFace("gob_fc1",0,0,2,1)
  ShowMessage("\\n<Gob>*Bwooon*!")
  ShowMessageFace("gob_fc1",0,0,2,2)
  ShowMessage("\\n<Gob>The desert is so wide, there are few obstacles, and I won't run into people!")
  0()



EVENT   10
 PAGE   1
  // condition: party contains actor #41
  ShowMessageFace("stein_fc2",1,0,2,1)
  ShowMessage("\\n<Promestein>A scorpion is beneath this rock... Let's capture it as a sample, fufufu...")
  0()



EVENT   15
 PAGE   1
  // condition: party contains actor #118
  ShowMessageFace("meia_fc1",0,0,2,1)
  ShowMessage("\\n<Meia>Ohh, what pretty water... It makes me want to swim to my heart's content.")
  0()



EVENT   14
 PAGE   1
  // condition: party contains actor #68
  ShowMessageFace("dragonp_fc1",0,0,2,1)
  ShowMessage("\\n<Papi>*gulp* *gulp*... This water is tasty!")
  0()



EVENT   11
 PAGE   1
  // condition: party contains actor #64
  ShowMessageFace("pramia_fc1",0,0,2,1)
  ShowMessage("\\n<Teeny>Aren't those tent stakes loose? Why is everyone so inattentive...")
  0()



EVENT   13
 PAGE   1
  // condition: party contains actor #66
  ShowMessageFace("vgirl_fc1",0,0,2,1)
  ShowMessage("\\n<Vanilla>When my mantle flaps around here, it gets covered in sand... This is a harsh environment for us noble vampires.")
  0()



EVENT   19
 PAGE   1
  // condition: party contains actor #143
  ShowMessageFace("eva_fc1",0,0,2,1)
  ShowMessage("\\n<Eva>Filling my stomach with food is happiness. It would be even better if I didn't have to work...")
  0()



EVENT   4
 PAGE   1
  // condition: party contains actor #129
  ShowMessageFace("brunhild_fc1",0,0,2,1)
  ShowMessage("\\n<Hild>It's Hild's first time camping! This is so much fun!")
  0()



EVENT   5
 PAGE   1
  // condition: party contains actor #103
  If(4,102,0)
   ShowMessageFace("kamuro_fc1",0,0,2,1)
   ShowMessage("\\n<Kamuro>Kitsu-nee, why is there so much sand in the desert?")
   ShowMessageFace("youko_fc1",0,0,2,2)
   ShowMessage("\\n<Kitsu>Well, you see...\nIt's so that you can make lots of sand castles.")
   ShowMessageFace("kamuro_fc1",0,0,2,3)
   ShowMessage("\\n<Kamuro>You're so smart, Kitsu-nee! You know everything!")
   0()
  Else()
   ShowMessageFace("kamuro_fc1",0,0,2,4)
   ShowMessage("\\n<Kamuro>I wonder why there is so much sand in the desert. I'll have to ask Kitsu-nee about it...")
   0()
  EndIf()
  0()



EVENT   16
 PAGE   1
  // condition: party contains actor #134
  ShowMessageFace("chrom_fc2",0,0,2,1)
  ShowMessage("\\n<Chrome>Oh, I found a dry bone. Maybe I could make something by using it as a medium...")
  ShowMessageFace("chrom_fc2",5,0,2,2)
  ShowMessage("\\n<Chrome>That's just a joke. I'll properly exorcise it...")
  0()



EVENT   17
 PAGE   1
  // condition: party contains actor #135
  ShowMessageFace("frederika_fc1",0,0,2,1)
  ShowMessage("\\n<Frederica>So this is the desert... It's my first time seeing it...")
  0()



EVENT   2
 PAGE   1
  // condition: switch 4 is ON
  If(2,"A",1)
   ChangeSelfSwitch("A",0)
   ShowMessageFace("alice_fc5",3,0,2,1)
   ShowMessage("\\n<Alice>The correct course of history requires you obtaining the power of the spirits. By tracing the correct history, we can correct the distortion in this world.")
   ShowMessageFace("ruka_fc1",0,0,2,2)
   ShowMessage("\\n<Luka>The version of me who acquired the power of spirits in the correct history... and me as I am now, are we different somehow?")
   ShowMessageFace("alice_fc5",0,0,2,3)
   ShowMessage("\\n<Alice>As long as you're both Luka, your origins are probably the same... but the environment you grew up in can make a difference.")
   ShowMessageFace("ruka_fc1",0,0,2,4)
   ShowMessage("\\n<Luka>But we were told about 'correcting history'... Does that mean that this current history is incorrect?")
   ShowMessageFace("alice_fc5",0,0,2,5)
   ShowMessage("\\n<Alice>There are also strange interlopers in our world. The three Lilith sisters, the mysterious Seraphs...")
   ShowMessageFace("alice_fc5",0,0,2,6)
   ShowMessage("\\n<Alice>Moreover, those two groups seem to be hostile towards each other, although their goals remain unclear...")
   ShowMessageFace("ruka_fc1",0,0,2,7)
   ShowMessage("\\n<Luka>And we even have three Monster Lords...")
   ShowMessageFace("alice_fc5",0,0,2,8)
   ShowMessage("\\n<Alice>I don't know what my mother leading the Monster Lord's army is thinking... And the resurrected Black Alice is also shrouded in mystery...")
   ShowMessageFace("ruka_fc1",0,0,2,9)
   ShowMessage("\\n<Luka>That 17th Monster Lord, Neris, and Nero are definitely connected. They helped us for some reason, but we still don't know their motives...")
   ShowMessageFace("alice_fc5",0,0,2,10)
   ShowMessage("\\n<Alice>We know nothing about what any of them wants. Mhm... It looks like we're just out of the loop.")
   ShowMessageFace("alice_fc5",3,0,2,11)
   ShowMessage("\\n<Alice>Mother wouldn't disrupt the world for no reason... There must be a compelling reason behind it. I want to believe that...")
   ShowMessageFace("ruka_fc1",0,0,2,12)
   ShowMessage("\\n<Luka>Also, my dad is missing, as always. We find his footprints, but the mysteries only deepen...")
   ShowMessageFace("alice_fc5",0,0,2,13)
   ShowMessage("\\n<Alice>They all keep connecting back to Tartarus... And to the Great Disaster thirty years ago.")
   ShowMessageFace("alice_fc5",1,0,2,14)
   ShowMessage("\\n<Alice>Let's see what is waiting for us in Sabasa's Tartarus rift. Together, Luka!")
   ShowMessageFace("ruka_fc1",0,0,2,15)
   ShowMessage("\\n<Luka>Yeah!")
   ShowMessageFace("",0,0,2,16)
   ShowMessage("In the end, the key must be inside Tartarus. Until we unlock everything, we will continue our journey.")
   ChangeSwitch(2088,2088,0)
   EndEventProcessing()
   0()
  Else()
   ShowMessageFace("alice_fc5",3,0,2,17)
   ShowMessage("\\n<Alice>But when will I regain my original form? I don't want to stay like this forever...")
   EndEventProcessing()
   0()
  EndIf()
  0()
 PAGE   2
  // condition: switch 5 is ON
  If(2,"B",1)
   ChangeSelfSwitch("B",0)
   ShowMessageFace("iriasu_fc4",2,0,2,1)
   ShowMessage("\\n<Ilias>Luka, the correct course of history requires you obtaining the power of the spirits.. By tracing that correct history, the distortion in the world will be corrected.")
   ShowMessageFace("ruka_fc1",0,0,2,2)
   ShowMessage("\\n<Luka>The me of the correct history, who holds the power of spirits, and me in this current history... Is there a difference between us?")
   ShowMessageFace("iriasu_fc4",2,0,2,3)
   ShowMessage("\\n<Ilias>Well, at the very least the Luka that I know, the original you, did not chase after his father...")
   ShowMessageFace("ruka_fc1",0,0,2,4)
   ShowMessage("\\n<Luka>That's right. You mentioned that the Luka you knew hated his father.")
   ShowMessageFace("iriasu_fc4",2,0,2,5)
   ShowMessage("\\n<Ilias>There's also the matter of the strange interlopers in this world. Seraphs I don't know, and the loathsome Lilith sisters...")
   ShowMessageFace("iriasu_fc4",2,0,2,6)
   ShowMessage("\\n<Ilias>Those two factions appear hostile towards one another, but their goals are unknown...")
   ShowMessageFace("ruka_fc1",0,0,2,7)
   ShowMessage("\\n<Luka>And there are three Monsters Lords too...")
   ShowMessageFace("iriasu_fc4",2,0,2,8)
   ShowMessage("\\n<Ilias>The 15th, mother of the current Monster Lord, is currently is in charge of the army. Free of my watchful gaze, Black Alice has started acting on her own too...")
   ShowMessageFace("ruka_fc1",0,0,2,9)
   ShowMessage("\\n<Luka>By Black Alice, you mean the Monster Lord defeated by the hero Heinrich, right? Did you know that she was alive?")
   ShowMessageFace("iriasu_fc4",2,0,2,10)
   ShowMessage("\\n<Ilias>The moment she was struck down, I saved her. ...But the circumstances behind that are a secret.")
   ShowMessageFace("ruka_fc1",0,0,2,11)
   ShowMessage("\\n<Luka>That 17th Monster Lord Neris and Nero are also connected. They helped us for some reason, but we still don't know their motives...")
   ShowMessageFace("iriasu_fc4",2,0,2,12)
   ShowMessage("\\n<Ilias>What on earth is happening in this world... It's frustrating to feel like I know nothing despite the fact I should know everything.")
   ShowMessageFace("ruka_fc1",0,0,2,13)
   ShowMessage("\\n<Luka>Also, my dad is missing, as always. We find his footprints, but the mysteries only deepen...")
   ShowMessageFace("iriasu_fc4",2,0,2,14)
   ShowMessage("\\n<Ilias>They all keep connecting back to Tartarus and to the Great Disaster that occurred thirty years ago.")
   ShowMessageFace("iriasu_fc4",0,0,2,15)
   ShowMessage("\\n<Ilias>Let's find out what is waiting for us in Sabasa's Tartarus rift. Follow me until the very end, Luka.")
   ShowMessageFace("ruka_fc1",0,0,2,16)
   ShowMessage("\\n<Luka>I will!")
   ShowMessageFace("",0,0,2,17)
   ShowMessage("In the end, the key must be inside Tartarus. Until we unlock everything, we will continue our journey.")
   ChangeSwitch(2053,2053,0)
   EndEventProcessing()
   0()
  Else()
   ShowMessageFace("iriasu_fc4",2,0,2,18)
   ShowMessage("\\n<Ilias>Still, when will I retrieve my original power? It can't be that I'll remain like this forever...")
   EndEventProcessing()
   0()
  EndIf()
  0()
