﻿


EVENT   2
 PAGE   1
  0()
 PAGE   2
  // condition: variable 1034 >= 16
  0()
 PAGE   3
  // condition: variable 1034 >= 17
  0()
 PAGE   4
  // condition: variable 1034 >= 18
  0()



EVENT   5
 PAGE   1
  0()



EVENT   6
 PAGE   1
  0()



EVENT   7
 PAGE   1
  0()



EVENT   9
 PAGE   1
  0()



EVENT   10
 PAGE   1
  0()



EVENT   1
 PAGE   1
  0()
 PAGE   2
  // condition: variable 1034 >= 13
  0()
 PAGE   3
  // condition: variable 1034 >= 14
  0()
 PAGE   4
  // condition: variable 1034 >= 15
  0()



EVENT   8
 PAGE   1
  0()



EVENT   3
 PAGE   1
  0()



EVENT   11
 PAGE   1
  // condition: variable 1034 >= 15
  0()



EVENT   12
 PAGE   1
  // condition: variable 1034 >= 19
  0()



EVENT   4
 PAGE   1
  Wait(60)
  211(1)
  205(-1,bytes(0x04,0x08,0x6f,0x3a,0x13,0x52,0x50,0x47,0x3a,0x3a,0x4d,0x6f,0x76,0x65,0x52,0x6f,0x75,0x74,0x65,0x09,0x3a,0x0c,0x40,0x72,0x65,0x70,0x65,0x61,0x74,0x46,0x3a,0x0f,0x40,0x73,0x6b,0x69,0x70,0x70,0x61,0x62,0x6c,0x65,0x54,0x3a,0x0a,0x40,0x77,0x61,0x69,0x74,0x54,0x3a,0x0a,0x40,0x6c,0x69,0x73,0x74,0x5b,0x0c,0x6f,0x3a,0x15,0x52,0x50,0x47,0x3a,0x3a,0x4d,0x6f,0x76,0x65,0x43,0x6f,0x6d,0x6d,0x61,0x6e,0x64,0x07,0x3a,0x0a,0x40,0x63,0x6f,0x64,0x65,0x69,0x09,0x3a,0x10,0x40,0x70,0x61,0x72,0x61,0x6d,0x65,0x74,0x65,0x72,0x73,0x5b,0x00,0x6f,0x3b,0x0a,0x07,0x3b,0x0b,0x69,0x09,0x3b,0x0c,0x5b,0x00,0x6f,0x3b,0x0a,0x07,0x3b,0x0b,0x69,0x09,0x3b,0x0c,0x5b,0x00,0x6f,0x3b,0x0a,0x07,0x3b,0x0b,0x69,0x09,0x3b,0x0c,0x5b,0x00,0x6f,0x3b,0x0a,0x07,0x3b,0x0b,0x69,0x09,0x3b,0x0c,0x5b,0x00,0x6f,0x3b,0x0a,0x07,0x3b,0x0b,0x69,0x09,0x3b,0x0c,0x5b,0x00,0x6f,0x3b,0x0a,0x07,0x3b,0x0b,0x69,0x00,0x3b,0x0c,0x5b,0x00))
  ShowMessageFace("ruka_fc1",0,0,2,1)
  ShowMessage("\\n<Luka>H-how horrible...!")
  If(0,6,0)
   ShowMessageFace("sonia_fc3",7,0,2,2)
   ShowMessage("\\n<Sonya>This is horrible...")
   0()
  EndIf()
  PictureDisplay(5,"80_lilith2_st01b",0,0,0,0,100,100,0,0)
  PictureMove(5,null,0,0,0,0,100,100,255,0,30,true)
  ShowMessageFace("lilith2_fc1",0,0,2,3)
  ShowMessage("\\n<Lilith>Horrible? Everybody ascended while tasting the finest of pleasures.")
  ShowMessageFace("lilith2_fc1",0,0,2,4)
  ShowMessage("\\n<Lilith>Isn't that right? Fufufu...")
  PictureClear(5)
  Wait(15)
  ShowMessageFace("",0,0,2,5)
  ShowMessage("\\n<Boy>Fuaaaa... Mistress Lilith... suck out mooreee...")
  PictureDisplay(5,"80_morrigan_st01b",0,0,0,0,100,100,0,0)
  PictureMove(5,null,0,0,0,0,100,100,255,0,30,true)
  ShowMessageFace("morrigan_fc1",0,0,2,6)
  ShowMessage("\\n<Morrigan>Ahahaha, you're late! We turned this village into dried fish in a matter of minutes!")
  ShowMessageFace("morrigan_fc1",0,0,2,7)
  ShowMessage("\\n<Morrigan>Still, it did take us some time. We had to make sure we'd squeezed them all to death...")
  ShowMessageFace("sara_fc1",2,0,2,8)
  ShowMessage("\\n<Sara>You won't get away with this! Prepare yourselves!")
  PictureDisplay(5,"80_morrigan_st02b",0,0,0,0,100,100,255,0)
  ShowMessageFace("morrigan_fc1",1,0,2,9)
  ShowMessage("\\n<Morrigan>Oh my, what a brave queen... Did you enjoy your life as a succubus?")
  PictureDisplay(5,"80_morrigan_st02b",0,0,-150,0,100,100,255,0)
  PictureDisplay(6,"80_lilith2_st01b",0,0,150,0,100,100,255,0)
  ShowMessageFace("lilith2_fc1",0,0,2,10)
  ShowMessage("\\n<Lilith>You should have enjoyed all the pleasure while in that trance... The plan was for you to suck all the citizens dry, though.")
  ShowMessageFace("sara_fc1",2,0,2,11)
  ShowMessage("\\n<Sara>That was your plan...?! Why would you do that?!")
  PictureClear(6)
  PictureDisplay(5,"80_morrigan_st02b",0,0,0,0,100,100,255,0)
  ShowMessageFace("morrigan_fc1",1,0,2,12)
  ShowMessage("\\n<Morrigan>In the original history, there was the possibility of that happening. By retracing it, we can minimize the influence of chaos--")
  PictureDisplay(5,"80_morrigan_st02b",0,0,-150,0,100,100,255,0)
  PictureDisplay(6,"80_astaroth_st01b",0,0,150,0,100,100,255,0)
  ShowMessageFace("astaroth_fc1",0,0,2,13)
  ShowMessage("\\n<Astaroth>You're talking too much, Morrigan. I'll take these guys on.")
  PictureDisplay(5,"80_morrigan_st03b",0,0,-150,0,100,100,255,0)
  ShowMessageFace("morrigan_fc1",2,0,2,14)
  ShowMessage("\\n<Morrigan>Fiiine... I'll be quieeet! By the way sis, squeeze that guy out and finish him off quickly...")
  PictureClear(5)
  PictureClear(6)
  ShowMessageFace("astaroth_fc1",0,0,2,15)
  ShowMessage("\\n<Astaroth>Yes, there's hardly anything left, but... Fufu, enjoying yourself for so long was the best, right?")
  Wait(15)
  250(bytes(0x04,0x08,0x6f,0x3a,0x0c,0x52,0x50,0x47,0x3a,0x3a,0x53,0x45,0x08,0x3a,0x0a,0x40,0x6e,0x61,0x6d,0x65,0x49,0x22,0x13,0x6d,0x6f,0x6e,0x5f,0x65,0x72,0x6f,0x5f,0x63,0x68,0x75,0x70,0x61,0x36,0x06,0x3a,0x06,0x45,0x54,0x3a,0x0b,0x40,0x70,0x69,0x74,0x63,0x68,0x69,0x69,0x3a,0x0c,0x40,0x76,0x6f,0x6c,0x75,0x6d,0x65,0x69,0x55))
  ChangeVariable(1034,1034,0,0,13)
  ShowMessageFace("astaroth_fc1",0,0,2,16)
  ShowMessage("\\n<Astaroth>Well then, I'll squeeze out the last drop. Come, meet your end inside of me...")
  ShowMessageFace("",0,0,2,17)
  ShowMessage("\\n<Man>...aa... aaaa...")
  ChangeVariable(1034,1034,0,0,14)
  ShowMessageFace("astaroth_fc1",0,0,2,18)
  ShowMessage("\\n<Astaroth>Fufu... Thanks for the treat.")
  ShowMessageFace("",0,0,2,19)
  ShowMessage("The man convulses and withers. The sad end to a person preyed on by a succubus...")
  250(bytes(0x04,0x08,0x6f,0x3a,0x0c,0x52,0x50,0x47,0x3a,0x3a,0x53,0x45,0x08,0x3a,0x0a,0x40,0x6e,0x61,0x6d,0x65,0x49,0x22,0x0e,0x6d,0x6f,0x6e,0x5f,0x77,0x69,0x6e,0x64,0x31,0x06,0x3a,0x06,0x45,0x54,0x3a,0x0b,0x40,0x70,0x69,0x74,0x63,0x68,0x69,0x69,0x3a,0x0c,0x40,0x76,0x6f,0x6c,0x75,0x6d,0x65,0x69,0x69))
  ChangeVariable(1034,1034,0,0,15)
  Wait(15)
  PictureDisplay(5,"80_astaroth_st01b",0,0,0,0,100,100,0,0)
  PictureMove(5,null,0,0,0,0,100,100,255,0,30,true)
  ShowMessageFace("astaroth_fc1",0,0,2,20)
  ShowMessage("\\n<Astaroth>You guys, too, have deviated from history quite a bit. Even if we end you here, we can probably avoid causing further chaos...")
  ShowMessageFace("astaroth_fc1",0,0,2,21)
  ShowMessage("\\n<Astaroth>And so, I'll take you on... Do your best to entertain me.")
  PictureDisplay(5,"80_morrigan_st01b",0,0,-150,0,100,100,255,0)
  PictureDisplay(6,"80_astaroth_st01b",0,0,150,0,100,100,255,0)
  ShowMessageFace("morrigan_fc1",0,0,2,22)
  ShowMessage("\\n<Morrigan>Hurry up and finish it, sisss!")
  PictureClear(5)
  PictureClear(6)
  250(bytes(0x04,0x08,0x6f,0x3a,0x0c,0x52,0x50,0x47,0x3a,0x3a,0x53,0x45,0x08,0x3a,0x0a,0x40,0x6e,0x61,0x6d,0x65,0x49,0x22,0x0e,0x6d,0x6f,0x6e,0x5f,0x77,0x69,0x6e,0x64,0x31,0x06,0x3a,0x06,0x45,0x54,0x3a,0x0b,0x40,0x70,0x69,0x74,0x63,0x68,0x69,0x69,0x3a,0x0c,0x40,0x76,0x6f,0x6c,0x75,0x6d,0x65,0x69,0x69))
  Wait(15)
  205(3,bytes(0x04,0x08,0x6f,0x3a,0x13,0x52,0x50,0x47,0x3a,0x3a,0x4d,0x6f,0x76,0x65,0x52,0x6f,0x75,0x74,0x65,0x09,0x3a,0x0c,0x40,0x72,0x65,0x70,0x65,0x61,0x74,0x46,0x3a,0x0f,0x40,0x73,0x6b,0x69,0x70,0x70,0x61,0x62,0x6c,0x65,0x46,0x3a,0x0a,0x40,0x77,0x61,0x69,0x74,0x54,0x3a,0x0a,0x40,0x6c,0x69,0x73,0x74,0x5b,0x07,0x6f,0x3a,0x15,0x52,0x50,0x47,0x3a,0x3a,0x4d,0x6f,0x76,0x65,0x43,0x6f,0x6d,0x6d,0x61,0x6e,0x64,0x07,0x3a,0x0a,0x40,0x63,0x6f,0x64,0x65,0x69,0x2c,0x3a,0x10,0x40,0x70,0x61,0x72,0x61,0x6d,0x65,0x74,0x65,0x72,0x73,0x5b,0x00,0x6f,0x3b,0x0a,0x07,0x3b,0x0b,0x69,0x00,0x3b,0x0c,0x5b,0x00))
  ShowMessageFace("",0,0,2,23)
  ShowMessage("Morrigan disappears from the area...")
  PictureDisplay(5,"80_lilith2_st01b",0,0,0,0,100,100,0,0)
  PictureMove(5,null,0,0,0,0,100,100,255,0,30,true)
  ShowMessageFace("lilith2_fc1",0,0,2,24)
  ShowMessage("\\n<Lilith>I, too, will end this here for today... So, boy, go on and ascend.")
  ShowMessageFace("",0,0,2,25)
  ShowMessage("\\n<Boy>Hauuu... Mistress Lilith... Suck, suck moreeee...")
  PictureClear(5)
  Wait(15)
  250(bytes(0x04,0x08,0x6f,0x3a,0x0c,0x52,0x50,0x47,0x3a,0x3a,0x53,0x45,0x08,0x3a,0x0a,0x40,0x6e,0x61,0x6d,0x65,0x49,0x22,0x13,0x6d,0x6f,0x6e,0x5f,0x65,0x72,0x6f,0x5f,0x63,0x68,0x75,0x70,0x61,0x36,0x06,0x3a,0x06,0x45,0x54,0x3a,0x0b,0x40,0x70,0x69,0x74,0x63,0x68,0x69,0x69,0x3a,0x0c,0x40,0x76,0x6f,0x6c,0x75,0x6d,0x65,0x69,0x55))
  ChangeVariable(1034,1034,0,0,16)
  ShowMessageFace("lilith2_fc1",1,0,2,26)
  ShowMessage("\\n<Lilith>Ufufu... Feels great doesn't it? I'll squeeze out what little semen you have left...")
  ShowMessageFace("",0,0,2,27)
  ShowMessage("\\n<Boy>AAaaaaaaaAAaaAaaa!!")
  ChangeVariable(1034,1034,0,0,17)
  ShowMessageFace("",0,0,2,28)
  ShowMessage("The boy's body shrivels in the blink of an eye. Having his semen sucked out all at once, he must have dried up...")
  PictureDisplay(5,"80_lilith2_st01b",0,0,0,0,100,100,0,0)
  PictureMove(5,null,0,0,0,0,100,100,255,0,30,true)
  ShowMessageFace("lilith2_fc1",0,0,2,29)
  ShowMessage("\\n<Lilith>Well then, Astaroth, I leave this place to you. Send everyone who stands in our way to Heaven, okay...?")
  PictureClear(5)
  250(bytes(0x04,0x08,0x6f,0x3a,0x0c,0x52,0x50,0x47,0x3a,0x3a,0x53,0x45,0x08,0x3a,0x0a,0x40,0x6e,0x61,0x6d,0x65,0x49,0x22,0x0e,0x6d,0x6f,0x6e,0x5f,0x77,0x69,0x6e,0x64,0x31,0x06,0x3a,0x06,0x45,0x54,0x3a,0x0b,0x40,0x70,0x69,0x74,0x63,0x68,0x69,0x69,0x3a,0x0c,0x40,0x76,0x6f,0x6c,0x75,0x6d,0x65,0x69,0x69))
  Wait(15)
  ChangeVariable(1034,1034,0,0,18)
  ShowMessageFace("",0,0,2,30)
  ShowMessage("Lilith disappears from the area...")
  205(11,bytes(0x04,0x08,0x6f,0x3a,0x13,0x52,0x50,0x47,0x3a,0x3a,0x4d,0x6f,0x76,0x65,0x52,0x6f,0x75,0x74,0x65,0x09,0x3a,0x0c,0x40,0x72,0x65,0x70,0x65,0x61,0x74,0x46,0x3a,0x0f,0x40,0x73,0x6b,0x69,0x70,0x70,0x61,0x62,0x6c,0x65,0x46,0x3a,0x0a,0x40,0x77,0x61,0x69,0x74,0x54,0x3a,0x0a,0x40,0x6c,0x69,0x73,0x74,0x5b,0x07,0x6f,0x3a,0x15,0x52,0x50,0x47,0x3a,0x3a,0x4d,0x6f,0x76,0x65,0x43,0x6f,0x6d,0x6d,0x61,0x6e,0x64,0x07,0x3a,0x0a,0x40,0x63,0x6f,0x64,0x65,0x69,0x06,0x3a,0x10,0x40,0x70,0x61,0x72,0x61,0x6d,0x65,0x74,0x65,0x72,0x73,0x5b,0x00,0x6f,0x3b,0x0a,0x07,0x3b,0x0b,0x69,0x00,0x3b,0x0c,0x5b,0x00))
  Wait(15)
  241(bytes(0x04,0x08,0x6f,0x3a,0x0d,0x52,0x50,0x47,0x3a,0x3a,0x42,0x47,0x4d,0x08,0x3a,0x0a,0x40,0x6e,0x61,0x6d,0x65,0x49,0x22,0x0c,0x62,0x6f,0x73,0x73,0x30,0x2d,0x32,0x06,0x3a,0x06,0x45,0x54,0x3a,0x0c,0x40,0x76,0x6f,0x6c,0x75,0x6d,0x65,0x69,0x69,0x3a,0x0b,0x40,0x70,0x69,0x74,0x63,0x68,0x69,0x69))
  PictureDisplay(5,"80_astaroth_st01b",0,0,0,0,100,100,0,0)
  PictureMove(5,null,0,0,0,0,100,100,255,0,30,true)
  ShowMessageFace("astaroth_fc1",0,0,2,31)
  ShowMessage("\\n<Astaroth>Now then, let's begin. Don't be afraid, I'll let you taste the greatest pleasure...")
  ShowMessageFace("sara_fc1",2,0,2,32)
  ShowMessage("\\n<Sara>Be careful everyone! This succubus is dreadfully strong!")
  ShowMessageFace("ruka_fc1",0,0,2,33)
  ShowMessage("\\n<Luka>Yeah, we've already fought her little sister!")
  ShowMessageFace("",0,0,2,34)
  ShowMessage("Back then, we didn't stand a chance despite being given a handicap. But now that we've improved...")
  If(4,118,0)
   ShowMessageFace("meia_fc1",3,0,2,35)
   ShowMessage("\\n<Meia>Why are you doing this...")
   ShowMessageFace("astaroth_fc1",0,0,2,36)
   ShowMessage("\\n<Astaroth>My, you broke out of our brainwashing... If it's too strong, your mind will break, so it's hard to get the balance right.")
   ShowMessageFace("meia_fc1",3,0,2,37)
   ShowMessage("\\n<Meia>I won't let you play with people's minds any more! For that, I will fight!")
   0()
  EndIf()
  PictureDisplay(5,"80_astaroth_st02b",0,0,0,0,100,100,255,0)
  ShowMessageFace("astaroth_fc1",1,0,2,38)
  ShowMessage("\\n<Astaroth>Well then, you're welcome. I'll love you plenty...")
  PictureClear(5)
  If(0,97,0)
   221()
   242(1)
   Wait(60)
   TeleportPlayer(0,576,12,55,6,2)
   ChangeSwitch(97,97,1)
   222()
   EndEventProcessing()
   0()
  EndIf()
  SetBattleBGM(bytes(0x04,0x08,0x6f,0x3a,0x0d,0x52,0x50,0x47,0x3a,0x3a,0x42,0x47,0x4d,0x08,0x3a,0x0a,0x40,0x6e,0x61,0x6d,0x65,0x49,0x22,0x10,0x62,0x6f,0x73,0x73,0x5f,0x6c,0x69,0x6c,0x69,0x74,0x68,0x06,0x3a,0x06,0x45,0x54,0x3a,0x0c,0x40,0x76,0x6f,0x6c,0x75,0x6d,0x65,0x69,0x69,0x3a,0x0b,0x40,0x70,0x69,0x74,0x63,0x68,0x69,0x69))
  ChangeSwitch(22,22,0)
  Battle(0,249,false,false)
  ChangeSwitch(22,22,1)
  SetBattleBGM(bytes(0x04,0x08,0x6f,0x3a,0x0d,0x52,0x50,0x47,0x3a,0x3a,0x42,0x47,0x4d,0x08,0x3a,0x0a,0x40,0x6e,0x61,0x6d,0x65,0x49,0x22,0x0b,0x62,0x61,0x74,0x74,0x6c,0x65,0x06,0x3a,0x06,0x45,0x54,0x3a,0x0c,0x40,0x76,0x6f,0x6c,0x75,0x6d,0x65,0x69,0x69,0x3a,0x0b,0x40,0x70,0x69,0x74,0x63,0x68,0x69,0x69))
  241(bytes(0x04,0x08,0x6f,0x3a,0x0d,0x52,0x50,0x47,0x3a,0x3a,0x42,0x47,0x4d,0x08,0x3a,0x0a,0x40,0x6e,0x61,0x6d,0x65,0x49,0x22,0x0c,0x62,0x6f,0x73,0x73,0x30,0x2d,0x32,0x06,0x3a,0x06,0x45,0x54,0x3a,0x0c,0x40,0x76,0x6f,0x6c,0x75,0x6d,0x65,0x69,0x69,0x3a,0x0b,0x40,0x70,0x69,0x74,0x63,0x68,0x69,0x69))
  PictureDisplay(5,"80_astaroth_st03b",0,0,0,0,100,100,0,0)
  PictureMove(5,null,0,0,0,0,100,100,255,0,30,true)
  ShowMessageFace("astaroth_fc1",2,0,2,39)
  ShowMessage("\\n<Astaroth>You've got some skill... That firm will and belief... As I thought, it is you guys that...")
  ShowMessageFace("ruka_fc1",0,0,2,40)
  ShowMessage("\\n<Luka>Ghh...! She's strong...!")
  If(4,129,0)
   ShowMessageFace("brunhild_fc1",0,0,2,41)
   ShowMessage("\\n<Hild>Enemy received little damage... The difference in strength is overwhelming...")
   0()
  EndIf()
  ShowMessageFace("",0,0,2,42)
  ShowMessage("We dealt so much damage to her, but she still looks perfectly calm. She's clearly only testing our strength...")
  PictureDisplay(5,"80_astaroth_st01b",0,0,0,0,100,100,255,0)
  ShowMessageFace("astaroth_fc1",0,0,2,43)
  ShowMessage("\\n<Astaroth>...Let's stop here. Killing each other here would be foolish.")
  ShowMessageFace("ruka_fc1",0,0,2,44)
  ShowMessage("\\n<Luka>...Eh?! Already...?")
  ShowMessageFace("",0,0,2,45)
  ShowMessage("We haven't driven her to reconsider her position. Not even close. She's holding back far greater power.")
  ShowMessageFace("sara_fc1",2,0,2,46)
  ShowMessage("\\n<Sara>What's going on?! What the hell are you after?!")
  ShowMessageFace("astaroth_fc1",0,0,2,47)
  ShowMessage("\\n<Astaroth>We want to save the world. ...I guess it's practically the same motive as yours, isn't it?")
  If(0,4,0)
   ShowMessageFace("alice_fc6",1,0,2,48)
   ShowMessage("\\n<Alice>Destroying small villages, throwing countries into disorder... Just what about this world are you saving!?")
   ShowMessageFace("astaroth_fc1",0,0,2,49)
   ShowMessage("\\n<Astaroth>Alipheese the 16th... You wouldn't understand. That is why your mother removed you from the plan.")
   ShowMessageFace("alice_fc6",0,0,2,50)
   ShowMessage("\\n<Alice>What...?! You know my mother... No, what do you mean by 'removed you from the plan'?!")
   0()
  EndIf()
  If(0,5,0)
   ShowMessageFace("iriasu_fc4",7,0,2,51)
   ShowMessage("\\n<Ilias>Destroying villages, undermining countries... and you say you're saving the world? Who do you think you are?!")
   ShowMessageFace("astaroth_fc1",0,0,2,52)
   ShowMessage("\\n<Astaroth>Goddess Ilias, I expect nothing from you. I'm speaking with hero Luka.")
   0()
  EndIf()
  ShowMessageFace("astaroth_fc1",0,0,2,53)
  ShowMessage("\\n<Astaroth>The battle just now convinced me. That one day we might join forces, that is...")
  ShowMessageFace("ruka_fc1",0,0,2,54)
  ShowMessage("\\n<Luka>Do you really think I'll join forces with you after seeing what you did here?")
  ShowMessageFace("astaroth_fc1",0,0,2,55)
  ShowMessage("\\n<Astaroth>If things turn out as I expect them to... In the near future, you will realize what you need to do for the world.")
  ShowMessageFace("astaroth_fc1",0,0,2,56)
  ShowMessage("\\n<Astaroth>Well then, let's meet again. I hope that you, too, do your best for our Mistress Alice's sake...")
  PictureClear(5)
  250(bytes(0x04,0x08,0x6f,0x3a,0x0c,0x52,0x50,0x47,0x3a,0x3a,0x53,0x45,0x08,0x3a,0x0a,0x40,0x6e,0x61,0x6d,0x65,0x49,0x22,0x0e,0x6d,0x6f,0x6e,0x5f,0x77,0x69,0x6e,0x64,0x31,0x06,0x3a,0x06,0x45,0x54,0x3a,0x0b,0x40,0x70,0x69,0x74,0x63,0x68,0x69,0x69,0x3a,0x0c,0x40,0x76,0x6f,0x6c,0x75,0x6d,0x65,0x69,0x69))
  Wait(15)
  205(11,bytes(0x04,0x08,0x6f,0x3a,0x13,0x52,0x50,0x47,0x3a,0x3a,0x4d,0x6f,0x76,0x65,0x52,0x6f,0x75,0x74,0x65,0x09,0x3a,0x0c,0x40,0x72,0x65,0x70,0x65,0x61,0x74,0x46,0x3a,0x0f,0x40,0x73,0x6b,0x69,0x70,0x70,0x61,0x62,0x6c,0x65,0x46,0x3a,0x0a,0x40,0x77,0x61,0x69,0x74,0x54,0x3a,0x0a,0x40,0x6c,0x69,0x73,0x74,0x5b,0x07,0x6f,0x3a,0x15,0x52,0x50,0x47,0x3a,0x3a,0x4d,0x6f,0x76,0x65,0x43,0x6f,0x6d,0x6d,0x61,0x6e,0x64,0x07,0x3a,0x0a,0x40,0x63,0x6f,0x64,0x65,0x69,0x2c,0x3a,0x10,0x40,0x70,0x61,0x72,0x61,0x6d,0x65,0x74,0x65,0x72,0x73,0x5b,0x00,0x6f,0x3b,0x0a,0x07,0x3b,0x0b,0x69,0x00,0x3b,0x0c,0x5b,0x00))
  ShowMessageFace("",0,0,2,57)
  ShowMessage("Astaroth disappears from the area.")
  If(0,4,0)
   ShowMessageFace("alice_fc6",0,0,2,58)
   ShowMessage("\\n<Alice>Her Mistress Alice?! Can it be that she meant the founder...?")
   0()
  EndIf()
  If(0,5,0)
   ShowMessageFace("iriasu_fc4",2,0,2,59)
   ShowMessage("\\n<Ilias>She said 'Mistress Alice'... That's Dark Goddess Alice's...")
   0()
  EndIf()
  241(bytes(0x04,0x08,0x6f,0x3a,0x0d,0x52,0x50,0x47,0x3a,0x3a,0x42,0x47,0x4d,0x08,0x3a,0x0a,0x40,0x6e,0x61,0x6d,0x65,0x49,0x22,0x14,0x73,0x63,0x65,0x6e,0x65,0x5f,0x6b,0x61,0x6e,0x61,0x73,0x69,0x6d,0x69,0x32,0x06,0x3a,0x06,0x45,0x54,0x3a,0x0c,0x40,0x76,0x6f,0x6c,0x75,0x6d,0x65,0x69,0x69,0x3a,0x0b,0x40,0x70,0x69,0x74,0x63,0x68,0x69,0x69))
  Wait(15)
  ChangeVariable(1034,1034,0,0,19)
  205(12,bytes(0x04,0x08,0x6f,0x3a,0x13,0x52,0x50,0x47,0x3a,0x3a,0x4d,0x6f,0x76,0x65,0x52,0x6f,0x75,0x74,0x65,0x09,0x3a,0x0c,0x40,0x72,0x65,0x70,0x65,0x61,0x74,0x46,0x3a,0x0f,0x40,0x73,0x6b,0x69,0x70,0x70,0x61,0x62,0x6c,0x65,0x46,0x3a,0x0a,0x40,0x77,0x61,0x69,0x74,0x54,0x3a,0x0a,0x40,0x6c,0x69,0x73,0x74,0x5b,0x0c,0x6f,0x3a,0x15,0x52,0x50,0x47,0x3a,0x3a,0x4d,0x6f,0x76,0x65,0x43,0x6f,0x6d,0x6d,0x61,0x6e,0x64,0x07,0x3a,0x0a,0x40,0x63,0x6f,0x64,0x65,0x69,0x09,0x3a,0x10,0x40,0x70,0x61,0x72,0x61,0x6d,0x65,0x74,0x65,0x72,0x73,0x5b,0x00,0x6f,0x3b,0x0a,0x07,0x3b,0x0b,0x69,0x09,0x3b,0x0c,0x5b,0x00,0x6f,0x3b,0x0a,0x07,0x3b,0x0b,0x69,0x16,0x3b,0x0c,0x5b,0x00,0x6f,0x3b,0x0a,0x07,0x3b,0x0b,0x69,0x14,0x3b,0x0c,0x5b,0x06,0x69,0x23,0x6f,0x3b,0x0a,0x07,0x3b,0x0b,0x69,0x17,0x3b,0x0c,0x5b,0x00,0x6f,0x3b,0x0a,0x07,0x3b,0x0b,0x69,0x14,0x3b,0x0c,0x5b,0x06,0x69,0x23,0x6f,0x3b,0x0a,0x07,0x3b,0x0b,0x69,0x00,0x3b,0x0c,0x5b,0x00))
  PictureDisplay(5,"80_sara_st03",0,0,0,0,100,100,0,0)
  PictureMove(5,null,0,0,0,0,100,100,255,0,30,true)
  ShowMessageFace("sara_fc1",4,0,2,60)
  ShowMessage("\\n<Sara>This is terrible... We couldn't protect a single person in this village...")
  ShowMessageFace("ruka_fc1",0,0,2,61)
  ShowMessage("\\n<Luka>They were capable of killing everyone in minutes. It's not your fault, Sara. No one could do anything...")
  If(4,79,0)
   ShowMessageFace("nuruko_fc1",0,0,2,62)
   ShowMessage("\\n<Nuruko>Kyu...")
   0()
  EndIf()
  If(0,4,0)
   ShowMessageFace("alice_fc5",2,0,2,63)
   ShowMessage("\\n<Alice>Queen Sara... were the series of incidents in Sabasa the doing of those three sisters?")
   0()
  EndIf()
  If(0,5,0)
   ShowMessageFace("iriasu_fc4",7,0,2,64)
   ShowMessage("\\n<Ilias>Queen Sara... were the series of incidents in Sabasa caused by those three sisters' acts? ")
   0()
  EndIf()
  205(12,bytes(0x04,0x08,0x6f,0x3a,0x13,0x52,0x50,0x47,0x3a,0x3a,0x4d,0x6f,0x76,0x65,0x52,0x6f,0x75,0x74,0x65,0x09,0x3a,0x0c,0x40,0x72,0x65,0x70,0x65,0x61,0x74,0x46,0x3a,0x0f,0x40,0x73,0x6b,0x69,0x70,0x70,0x61,0x62,0x6c,0x65,0x46,0x3a,0x0a,0x40,0x77,0x61,0x69,0x74,0x54,0x3a,0x0a,0x40,0x6c,0x69,0x73,0x74,0x5b,0x07,0x6f,0x3a,0x15,0x52,0x50,0x47,0x3a,0x3a,0x4d,0x6f,0x76,0x65,0x43,0x6f,0x6d,0x6d,0x61,0x6e,0x64,0x07,0x3a,0x0a,0x40,0x63,0x6f,0x64,0x65,0x69,0x15,0x3a,0x10,0x40,0x70,0x61,0x72,0x61,0x6d,0x65,0x74,0x65,0x72,0x73,0x5b,0x00,0x6f,0x3b,0x0a,0x07,0x3b,0x0b,0x69,0x00,0x3b,0x0c,0x5b,0x00))
  ShowMessageFace("sara_fc1",4,0,2,65)
  ShowMessage("\\n<Sara>Yes, that's right... I don't know the details, but I'm certain that those three awakened my blood.")
  ShowMessageFace("ruka_fc1",0,0,2,66)
  ShowMessage("\\n<Luka>So it was them, after all... How are they achieving their goals by going around the world messing things up?")
  If(0,4,0)
   ShowMessageFace("alice_fc5",0,0,2,67)
   ShowMessage("\\n<Alice>Let's think about it later. For now, let's return to the castle...")
   0()
  EndIf()
  If(0,5,0)
   ShowMessageFace("iriasu_fc4",2,0,2,68)
   ShowMessage("\\n<Ilias>We will think on it later. For now, let us return to the castle...")
   0()
  EndIf()
  ShowMessageFace("ruka_fc1",0,0,2,69)
  ShowMessage("\\n<Luka>You're right...")
  PictureDisplay(5,"",0,0,0,0,100,100,255,0)
  ShowMessageFace("",0,0,2,70)
  ShowMessage("Staying here any longer would torment us with anger and helplessness. We took Queen Sara and returned to Sabasa Castle...")
  221()
  242(1)
  Wait(60)
  ShowMessageFace("",0,0,2,71)
  ShowMessage("Despite the shadow over her heart, Queen Sara told her citizens nearly the entire truth, that her actions were the results of mysterious monsters depriving her of her reason.")
  ShowMessageFace("",0,0,2,72)
  ShowMessage("Furthermore, she declared her abdication as Queen and proposed the introduction of a parliamentary democracy...")
  Wait(60)
  ChangeVariable(1028,1028,0,0,7)
  241(bytes(0x04,0x08,0x6f,0x3a,0x0d,0x52,0x50,0x47,0x3a,0x3a,0x42,0x47,0x4d,0x08,0x3a,0x0a,0x40,0x6e,0x61,0x6d,0x65,0x49,0x22,0x14,0x73,0x63,0x65,0x6e,0x65,0x5f,0x65,0x70,0x69,0x6c,0x6f,0x67,0x75,0x65,0x31,0x06,0x3a,0x06,0x45,0x54,0x3a,0x0c,0x40,0x76,0x6f,0x6c,0x75,0x6d,0x65,0x69,0x69,0x3a,0x0b,0x40,0x70,0x69,0x74,0x63,0x68,0x69,0x69))
  TeleportPlayer(0,378,24,9,8,2)
  0()